[22:42:44] Travels: [-] 8129/8261 no form at all - http://www.angulonline.in/register/
[22:42:45] Computer: [-] 0315/8028 download failed (Return: -) - http://butterboom.com/tech/gadget/iphone-hong-kong-pricing-rumours/
[22:42:45] Mesa DUI lawyer: [-] 8185/8413 no engine matches (HTTP-Status: 502) - http://chasingdaisy.com/2005/02/04/color-contrast-analyser/
[2023.05.20-22.07.39:931][  0]LogConfig: Applying CVar settings from Section [/Script/Engine.NetworkSettings] File [Engine]
[2023.05.20-22.07.39:931][  0]LogConfig: CVar [[NetworkEmulationProfiles:(ProfileName="Average",ToolTip="Simulates average internet conditions")]] deferred - dummy variable created
[2023.05.20-22.07.39:931][  0]LogConfig: CVar [[NetworkEmulationProfiles:(ProfileName="Bad",ToolTip="Simulates laggy internet conditions")]] deferred - dummy variable created
  Make sure fortran comment "!" works
Executing: mpif90 -c -o /tmp/petsc-uGvYRc/config.setCompilers/conftest.o -I/tmp/petsc-uGvYRc/config.setCompilers   /tmp/petsc-uGvYRc/config.setCompilers/conftest.F90 
8.3.1 Temp. Sensor Model      : 
-- [download 74% complete]
-- [download 75% complete]
-- [download 76% complete]
-- [download 77% complete]
-- [download 78% complete]
-- [download 79% complete]
-- [download 80% complete]
-- [download 81% complete]
-- [download 82% complete]
-- [download 83% complete]
-- [download 84% complete]
-- [download 85% complete]
-- [download 86% complete]
-- [download 87% complete]
-- [download 88% complete]
-- [download 89% complete]
-- [download 90% complete]
-- [download 91% complete]
-- [download 92% complete]
-- [download 93% complete]
-- [download 94% complete]
-- [download 95% complete]
-- [download 96% complete]
-- [download 97% complete]
-- [download 98% complete]
-- [download 99% complete]
-- [download 100% complete]
-- downloading... done
-- verifying file...
     file='/data/richards/NBRTT/build/Geant4/build/Externals/G4NDL-4.2/src/G4NDL.4.2.tar.gz'
                           Hadronic Processes for lambda
[22:42:47] Car Insurance: [-] 4202/8012 download failed (Return: -) - https://www.roulettewire.com
[22:42:47] Sports: [-] 8087/8698 no form at all - http://mwm-zahid.com.ua/index.php/component/users/?view=registration
2021-10-26T21:50:50.584Z,1.584344,4337000,7 [FLog::Network] Replicator created for player 128.116.28.244|51561
staticfield com/android/dx/rop/type/StdTypeList BOOLEANARR_INT Lcom/android/dx/rop/type/StdTypeList; com/android/dx/rop/type/StdTypeList
[2023.05.20-22.07.39:933][  0]LogConfig: Set CVar [[r.Tonemapper.Quality:5]]
-- [download 64% complete]
[   1962406] overriding handle for mp_f_freemode_01/accs_diff_012_b_uni.ytd (was 4cd00f5) -> 200
[   1962422] overriding handle for mp_f_freemode_01/accs_diff_012_c_uni.ytd (was 4cd00f6) -> 201
0 posts imported
tdf#115786 Unable to open styles window when sidebar is undocked [Katarina Behrens]
tdf#115797 Help about Fill series of type Date is irrelevant if not wrong [Laurent BP]
tdf#115831 [Calc] Help page about Renaming sheet is not correct [Olivier Hallot, Laurent BP]
tdf#115835 Calc - Copying Cells in a Row with Conditional formatting - Conditional formatting not copied [Markus Mohrhard]
tdf#115853 Custom properties deleted [Julien Nabet, Stephan Bergmann]
[   1899781] [op-bridge]
-- downloading...
     src='http://geant4.cern.ch/support/source/G4PII.1.3.tar.gz'
     dst='/data/richards/NBRTT/build/Geant4/build/Externals/G4PII-1.3/src/G4PII.1.3.tar.gz'
./.ATRIER/Son%20Systèmes
tdf#115719 DOCX import: lack of Word 2013-style increased spacing for paragraph with anchored objects [Miklos Vajna]
(pdftex.def)             Requested size: 418.25368pt x 187.05655pt.
 [64] [65 </Users/natera/Dropbox/PhD/thesis/images/lqi/Budapest_Network_voronoi_op2.png>] [66] [67] [68] [69]
[     49907] [    GTAProcess]               Render/ OnConnectionProgress: Downloading content
-- verifying file...
     file='/data/richards/NBRTT/build/Geant4/build/Externals/G4SAIDDATA-1.1/src/G4SAIDDATA.1.1.tar.gz'
pan+mass+challenge+route	01.08.2009 22:57:18	http://search.aol.com/aol/search?s_it=topsearchbox.search&q=pan+mass+challenge+map	Mozilla/4.0 (compatible; MSIE 7.0; AOL 9.1; AOLBuild 4334.5006; Windows NT 5.1; Trident/4.0; GTB6; .NET CLR 1.0.3705; .NET CLR 1.1.4322; Media Center PC 4.0; .NET CLR 3.0.04506.30; .NET CLR 2.0.50727)	205.188.116.131
[     14047] del cfxcollection 0x26ab5db0
[     14062] del cfxcollection 0x26ab5db0
[     14093] del cfxcollection 0x26ab5db0
[     14109] del cfxcollection 0x26ab5db0
[     14125] del cfxcollection 0x26ab5db0
[     14140] del cfxcollection 0x26ab5db0
[     14156] del cfxcollection 0x26ab5db0
[     14172] del cfxcollection 0x26ab5db0
[     14187] del cfxcollection 0x26ab5db0
[     14203] del cfxcollection 0x26ab5db0
[     14218] del cfxcollection 0x26ab5db0
[     14218] del cfxcollection 0x26ab5db0
[     14234] del cfxcollection 0x26ab5db0
[     14265] del cfxcollection 0x26ab5db0
[     14265] del cfxcollection 0x26ab5db0
[     14297] del cfxcollection 0x26ab5db0
[     14312] del cfxcollection 0x26ab5db0
[     14312] del cfxcollection 0x26ab5db0
[     14328] del cfxcollection 0x26ab5db0
[     14343] del cfxcollection 0x26ab5db0
[     15015] somefunc found dlc_patchDay6NG:/!
[     15031] LoadDefDats: dlc_patchDay6NGCRC:/content.xml
[     15031] somefunc found dlc_patchDay5NG:/!
[     15047] LoadDefDats: dlc_patchDay5NGCRC:/content.xml
[     15062] somefunc found dlc_patchDay4NG:/!
[     15078] LoadDefDats: dlc_patchDay4NGCRC:/content.xml
[     15093] somefunc found dlc_patchDay3NG:/!
[     15109] LoadDefDats: dlc_patchDay3NGCRC:/content.xml
[     15125] somefunc found dlc_patchDay2bNG:/!
[     15125] LoadDefDats: dlc_patchDay2bNGCRC:/content.xml
(KD4CQY/#earthquake) Amateur Radio Radiogram services available OUTBOUND of Sticken area.  Check# #ARES
LogPluginManager: Mounting Engine plugin MobilePatchingUtils

2021-10-26T21:51:37.235Z,48.235695,4231000,6 [FLog::GameJoinUtil] GameJoinUtil::makePlaceLauncherRequestForTeleport: requestCount: 7, url: https://gamejoin.roblox.com/v1/join-reserved-game
2021-10-26T21:51:37.235Z,48.235821,4231000,6 [FLog::GameJoinUtil] Delaying request by 0.49 seconds
Sushi: info  Did not find hl7.fhir.us.core#5.0.1 in /root/.fhir/packages.        (00:06.278)
<use images/datadriven/BPincrease.png>
Package pdftex.def Info: images/datadriven/BPincrease.png  used on input line 160.
<use images/lqi/Budapest_Network_voronoi_op2.png>
Package pdftex.def Info: images/lqi/Budapest_Network_voronoi_op2.png  used on input line 39.
(pdftex.def)             Requested size: 418.25368pt x 187.05655pt.
 [64] [65 </Users/natera/Dropbox/PhD/thesis/images/lqi/Budapest_Network_voronoi_op2.png>] [66] [67] [68] [69]
<images/lqi/Budapest_LQI_Neighborhoods-eps-converted-to.pdf, id=1449, 1772.44177pt x 716.6775pt>
File: images/lqi/Budapest_LQI_Neighborhoods-eps-converted-to.pdf Graphic file (type pdf)
<use images/lqi/Budapest_LQI_Neighborhoods-eps-converted-to.pdf>
Package pdftex.def Info: images/lqi/Budapest_LQI_Neighborhoods-eps-converted-to.pdf  used on input line 168.
(pdftex.def)             Requested size: 418.25368pt x 169.11911pt.
 [70 </Users/natera/Dropbox/PhD/thesis/images/lqi/Budapest_LQI_Neighborhoods-eps-converted-to.pdf>] [71]
<images/lqi/LQI_categories_regplots.pdf, id=1525, 867.24pt x 578.16pt>
File: images/lqi/LQI_categories_regplots.pdf Graphic file (type pdf)
<use images/lqi/LQI_categories_regplots.pdf>
Package pdftex.def Info: images/lqi/LQI_categories_regplots.pdf  used on input line 191.
(pdftex.def)             Requested size: 418.25368pt x 278.83694pt.
 [72 </Users/natera/Dropbox/PhD/thesis/images/lqi/LQI_categories_regplots.pdf>]) (/Users/natera/Dropbox/PhD/thesis/chapters_tex/conclusion.tex [73] [74

]
Chapter 6.

Underfull \vbox (badness 1132) has occurred while \output is active []

 [75] [76]) (/Users/natera/Dropbox/PhD/thesis/main.bbl [77] [78

] [79] [80] [81] [82]
Underfull \hbox (badness 10000) in paragraph at lines 756--766
[]\OT1/ppl/m/n/12 Batty, M., Mil-ton, R.: A new frame-work for very large-
 []
tdf#115353 Status bar displays wrong characters upon load (OpenGL) [Tamas Bunth]
tdf#115388 Change link in "About" to HTTPS [Xisco Fauli]
tdf#115394 FILEOPEN: slide transition times are not imported correctly [Szymon Kłos]
Trace: 
  Error: EACCES: permission denied, mkdir '/Users/etyates/src/github/code-nasa-gov/node_modules/clean-css/node_modules/source-map'

Sushi: | |-------------------------------------------------------------| |       (04:24.433)
halt (HALT) [Y/n/?] y
what+did+greg+mcmackin+say	01.08.2009 19:41:31	http://www.google.com/search?q=McMackin%27s+slur+what+did+he+say&sourceid=ie7&rls=com.microsoft:en-US&ie=utf8&oe=utf8	Mozilla/4.0 (compatible; MSIE 7.0; Windows NT 5.1; .NET CLR 1.1.4322; .NET CLR 2.0.50727; Zune 3.0)	76.194.10.111
market+days+chicago+2009	01.08.2009 19:41:42	http://search.aol.com/aol/search?s_it=wscreen-searchboxhtml&query=Halsted+street+market+days&do=Search	Mozilla/4.0 (compatible; MSIE 7.0; AOL 9.1; AOLBuild 4334.5006; Windows NT 6.0; Trident/4.0; GTB6; SLCC1; .NET CLR 2.0.50727; Media Center PC 5.0; .NET CLR 3.5.30729; .NET CLR 3.0.30618)	205.188.116.141
227 Entering Passive Mode (128,183,20,87,216,55)
550 Could not open: No such file or directory
Package: rerunfilecheck 2019/12/05 v1.9 Rerun checks for auxiliary files (HO)
 (/usr/local/texlive/2021/texmf-dist/tex/generic/uniquecounter/uniquecounter.sty
<10:16AM cavalier> AutoMaton Update: WORLDWIDEWEB info available : http://www.seas.upenn.edu/~mengwong/irc.quake.txt
build	14-Jul-2020 09:19:57	[DEBUG]   Imported: org.apache.maven.artifact < plexus.core
build	14-Jul-2020 09:19:57	[DEBUG]   Imported: org.apache.maven.classrealm < plexus.core
build	14-Jul-2020 09:19:57	[DEBUG]   Imported: org.apache.maven.cli < plexus.core
/usr/bin/install -d -m 0755 /builds/free-electrons/toolchains-builder/build/tmp/test-x86-64-core-i7--uclibc--stable/host/usr/x86_64-buildroot-linux-uclibc/sysroot/usr/include
	at com.vaadin.data.provider.HierarchicalDataCommunicator.expand(HierarchicalDataCommunicator.java:289) ~[vaadin-server-8.9.4.jar:8.9.4]
	at com.vaadin.ui.TreeGrid.lambda$registerTreeGridRpc$275f28ba$1(TreeGrid.java:187) ~[vaadin-server-8.9.4.jar:8.9.4]
	at sun.reflect.GeneratedMethodAccessor1077.invoke(Unknown Source) ~[?:?]
	at sun.reflect.DelegatingMethodAccessorImpl.invoke(DelegatingMethodAccessorImpl.java:43) ~[?:1.8.0_252]
	at java.lang.reflect.Method.invoke(Method.java:498) ~[?:1.8.0_252]
	at com.vaadin.server.ServerRpcManager.applyInvocation(ServerRpcManager.java:155) ~[vaadin-server-8.9.4.jar:8.9.4]
	... 111 more
Caused by: java.lang.IllegalStateException
	at com.google.common.base.Preconditions.checkState(Preconditions.java:492) ~[guava-28.2-jre.jar:?]
	at com.google.common.net.MediaType$Tokenizer.consumeTokenIfPresent(MediaType.java:1026) ~[guava-28.2-jre.jar:?]
	at com.google.common.net.MediaType$Tokenizer.consumeToken(MediaType.java:1034) ~[guava-28.2-jre.jar:?]
	at com.google.common.net.MediaType.parse(MediaType.java:982) ~[guava-28.2-jre.jar:?]
	at info.magnolia.dam.app.imageprovider.AssetPreviewProvider.lambda$getResource$0(AssetPreviewProvider.java:73) ~[magnolia-dam-app-3.0.3.jar:?]
	at java.util.Optional.map(Optional.java:215) ~[?:1.8.0_252]
	at info.magnolia.dam.app.imageprovider.AssetPreviewProvider.getResource(AssetPreviewProvider.java:72) ~[magnolia-dam-app-3.0.3.jar:?]
	at info.magnolia.dam.app.contentview.column.AssetNameColumnDefinition$ValueProvider.apply(AssetNameColumnDefinition.java:81) ~[magnolia-dam-app-3.0.3.jar:?]
	at info.magnolia.dam.app.contentview.column.AssetNameColumnDefinition$ValueProvider.apply(AssetNameColumnDefinition.java:64) ~[magnolia-dam-app-3.0.3.jar:?]
	at com.vaadin.ui.Grid$Column.generateRendererValue(Grid.java:1111) ~[vaadin-server-8.9.4.jar:8.9.4]
	at com.vaadin.ui.Grid$Column.access$1100(Grid.java:849) ~[vaadin-server-8.9.4.jar:8.9.4]
	at com.vaadin.ui.Grid$Column$1.generateData(Grid.java:898) ~[vaadin-server-8.9.4.jar:8.9.4]
	at com.vaadin.data.provider.DataCommunicator.getDataObject(DataCommunicator.java:481) ~[vaadin-server-8.9.4.jar:8.9.4]
	at com.vaadin.data.provider.DataCommunicator.pushData(DataCommunicator.java:461) ~[vaadin-server-8.9.4.jar:8.9.4]
	at com.vaadin.data.provider.HierarchicalDataCommunicator.doExpand(HierarchicalDataCommunicator.java:316) ~[vaadin-server-8.9.4.jar:8.9.4]
	at com.vaadin.data.provider.HierarchicalDataCommunicator.expand(HierarchicalDataCommunicator.java:289) ~[vaadin-server-8.9.4.jar:8.9.4]
	at info.magnolia.cms.filters.AbstractMgnlFilter.doFilter(AbstractMgnlFilter.java:85) [magnolia-core-6.2.3.jar:?]
	at info.magnolia.cms.filters.MgnlFilterChain.doFilter(MgnlFilterChain.java:79) [magnolia-core-6.2.3.jar:?]
	at info.magnolia.cms.filters.RangeSupportFilter.doFilter(RangeSupportFilter.java:78) [magnolia-core-6.2.3.jar:?]
	at info.magnolia.cms.filters.AbstractMgnlFilter.doFilter(AbstractMgnlFilter.java:85) [magnolia-core-6.2.3.jar:?]
	at info.magnolia.cms.filters.MgnlFilterChain.doFilter(MgnlFilterChain.java:79) [magnolia-core-6.2.3.jar:?]
	at info.magnolia.cms.filters.MgnlFilterChain.doFilter(MgnlFilterChain.java:81) [magnolia-core-6.2.3.jar:?]

  Process: lambdaInelastic
        Model:            BertiniCascade: 0 eV  ---> 6 GeV
        Model:                      FTFP: 2 GeV ---> 100 TeV
     Cr_sctns:   ChipsHyperonInelasticXS: 0 eV  ---> 100 TeV
     Cr_sctns:          GheishaInelastic: 0 eV  ---> 100 TeV

---------------------------------------------------
                           Hadronic Processes for mu+

  Process: muonNuclear
        Model:      G4MuonVDNuclearModel: 0 eV  ---> 1 PeV
        Model:           hElasticGlauber: 1 GeV ---> 100 TeV
     Cr_sctns:       Barashenkov-Glauber: 0 eV  ---> 100 TeV
     Cr_sctns:            GheishaElastic: 0 eV  ---> 100 TeV

  Process: pi+Inelastic
        Model:                      QGSP: 12 GeV ---> 100 TeV
        Model:                      FTFP: 4 GeV ---> 25 GeV
        Model:            BertiniCascade: 0 eV  ---> 5 GeV
     Cr_sctns:      G4CrossSectionPairGG: 0 eV  ---> 100 TeV
                         G4CrossSectionPairGG: G4PiNuclearCrossSection cross sections 
                           below 91 GeV, Glauber-Gribov above 
     Cr_sctns:      G4CrossSectionPairGG: 0 eV  ---> 100 TeV
                         G4CrossSectionPairGG: G4PiNuclearCrossSection cross sections 
                           below 91 GeV, Glauber-Gribov above 
     Cr_sctns:          GheishaInelastic: 0 eV  ---> 100 TeV

---------------------------------------------------
                           Hadronic Processes for pi-
1999-059     1999 Oct 19 0622     1999-059A      Orion 2                        Orion 2                   S25949  Ariane 44LP            V122             CSG ELA2                 0.0
1999-060     1999 Nov 13 2254     1999-060A      GE 4                           GE 4                      S25954  Ariane 44LP            V123             CSG ELA2                 0.0
tdf#65856 Paste Special - Shift Cell misbehaviour [Zdeněk Crhonek]
build	14-Jul-2020 09:19:57	[WARNING] For this reason, future Maven versions might no longer support building such malformed projects.
build	14-Jul-2020 09:19:57	[WARNING] 
 Version 1.21.1 (28 FEBRUARY 2018)

                         Max       Max/Min        Avg      Total 
Time (sec):           1.145e+02      1.00000   1.145e+02
ofz#4441 divide-by-zero [Caolán McNamara]
          misuse/NN-25  ==                        DEL    $0.429  [D]
            from/IN-26  ==                        DEL    $0.429  [D]
                        ==  computer_networks...  INS    $0.377  [I]
            both/DT-27  ==                        DEL    $0.429  [D]
        internal/JJ-28  ==                        DEL    $0.429  [D]
-- [download 87% complete]
-- [download 88% complete]
-- [download 89% complete]
x+games+15+moto+x+best+trick	01.08.2009 17:36:42	http://www.google.com/search?q=the+vault+kyle+loza&ie=utf-8&oe=utf-8&aq=t&rls=org.mozilla:en-US:official&client=firefox-a	Mozilla/5.0 (Macintosh; U; Intel Mac OS X 10.5; en-US; rv:1.9.0.6) Gecko/2009011912 Firefox/3.0.6	98.204.101.67

	New feature
		- Add #3 for BarChair upload file
US Core Comparison: compare StructureDefinition[http://hl7.org/fhir/us/ph-library/StructureDefinition/us-ph-disability-status|1.0.0] to StructureDefinition[http://hl7.org/fhir/us/core/StructureDefinition/us-core-observation-pregnancyintent|6.1.0]
US Core Comparison: compare StructureDefinition[http://hl7.org/fhir/us/ph-library/StructureDefinition/us-ph-disability-status|1.0.0] to StructureDefinition[http://hl7.org/fhir/us/core/StructureDefinition/us-core-observation-pregnancystatus|6.1.0]
-- verifying file... done
-- extracting...
     src='/data/richards/NBRTT/build/Geant4/build/Externals/G4PII-1.3/src/G4PII.1.3.tar.gz'
     dst='/data/richards/NBRTT/build/Geant4/build/data/G4PII1.3'
-- extracting... [tar xfz]
BHM	ALABAMA	BIRMINGHAM INTL	afd	se_7_25OCT2007.png
-- [download 82% complete]
[22:42:46] Agriculture T2: [-] 3872/8565 download failed (Return: -) - http://www.karatedo-eferding.com/guestbook/
[     14703] somefunc found dlc_PATCHDAY19NG:/!
ERROR info.magnolia.aws.foundation.AwsCredentialsProvider 15.10.2020 00:12:42 -- AWS credentials are expected to be set in Password manager module.
ERROR info.magnolia.ai.text.TextClassificationModule 15.10.2020 00:12:42 -- Submission of text classification request has been failed at page path '/bdcwebsite/personal/digital-banking/register-online-merchant' with error code: 'null'.
ERROR info.magnolia.aws.foundation.AwsCredentialsProvider 15.10.2020 00:12:42 -- AWS credentials are expected to be set in Password manager module.
ERROR info.magnolia.ai.text.TextClassificationModule 15.10.2020 00:12:42 -- Submission of text classification request has been failed at page path '/bdcwebsite/personal/digital-banking/registration-result' with error code: 'null'.
ERROR info.magnolia.aws.foundation.AwsCredentialsProvider 15.10.2020 00:12:42 -- AWS credentials are expected to be set in Password manager module.
     Secondary Data Center    :
     URL for More Information : 
     Hardcopy on File
time (TIME) [Y/n/?] y
timeout (TIMEOUT) [N/y/?] n
ttysize (TTYSIZE) [N/y/?] n
ubiattach (UBIATTACH) [N/y/?] n
ubidetach (UBIDETACH) [N/y/?] n
ubimkvol (UBIMKVOL) [N/y/?] n
ubirmvol (UBIRMVOL) [N/y/?] n
ubirsvol (UBIRSVOL) [N/y/?] n
ubiupdatevol (UBIUPDATEVOL) [N/y/?] n
ubirename (UBIRENAME) [Y/n/?] y
volname (VOLNAME) [N/y/?] n
wall (WALL) [N/y/?] n
watchdog (WATCHDOG) [Y/n/?] y
*0J0	ALABAMA	 ABBEVILLE MUNI	afd	se_1_25OCT2007.png
2A8	ALABAMA	ADDISON MUNI	afd	se_1_25OCT2007.png
EET	ALABAMA	ALABASTER SHELBY CO	afd	se_1_25OCT2007.png
8A0	ALABAMA	ALBERTVILLE RGNL-THOMAS J BRUMLIK FLD	afd	se_2_25OCT2007.png
ALX	ALABAMA	ALEXANDER CITY THOMAS C RUSSELL FLD	afd	se_2_25OCT2007.png
AIV	ALABAMA	ALICEVILLE GEORGE DOWNER	afd	se_3_25OCT2007.png
79J	ALABAMA	SOUTH ALABAMA RGNL AT BILL BENTON FLD	afd	se_3_25OCT2007.png
ANB	ALABAMA	ANNISTON METROPOLITAN	afd	se_4_25OCT2007.png
1M3	ALABAMA	ARDMORE	afd	se_4_25OCT2007.png
26A	ALABAMA	ASHLAND-LINEVILLE	afd	se_4_25OCT2007.png
0R1	ALABAMA	ATMORE MUNI	afd	se_5_25OCT2007.png
AUO	ALABAMA	AUBURN-OPELIKA ROBERT G. PITTS	afd	se_5_25OCT2007.png
1R8	ALABAMA	BAY MINETTE MUNI 	afd	se_6_25OCT2007.png
5R7	ALABAMA	BAYOU LA BATRE ROY E. RAY	afd	se_6_25OCT2007.png
EKY	ALABAMA	BESSEMER	afd	se_6_25OCT2007.png
BHM	ALABAMA	BIRMINGHAM INTL	afd	se_7_25OCT2007.png
build	14-Jul-2020 09:19:57	[DEBUG]   Imported: org.eclipse.aether.version < plexus.core
	at info.magnolia.cms.filters.SafeDestroyMgnlFilterWrapper.doFilter(SafeDestroyMgnlFilterWrapper.java:107) [magnolia-core-6.2.3.jar:?]
 PART_COUNT: B12 = 7
build	14-Jul-2020 09:19:57	[INFO] Building epdg-app Aggregator Project 1.0.16-SNAPSHOT
build	14-Jul-2020 09:19:57	[INFO] ------------------------------------------------------------------------
        Model:   G4ElectroVDNuclearModel: 0 eV  ---> 1 PeV
70A	ALABAMA	LINDEN FREDDIE JONES FLD	afd	se_30_25OCT2007.png
	at java.util.Optional.map(Optional.java:215) ~[?:1.8.0_252]
	at info.magnolia.dam.app.imageprovider.AssetPreviewProvider.getResource(AssetPreviewProvider.java:72) ~[magnolia-dam-app-3.0.3.jar:?]
	at info.magnolia.dam.app.contentview.column.AssetNameColumnDefinition$ValueProvider.apply(AssetNameColumnDefinition.java:81) ~[magnolia-dam-app-3.0.3.jar:?]
	at info.magnolia.dam.app.contentview.column.AssetNameColumnDefinition$ValueProvider.apply(AssetNameColumnDefinition.java:64) ~[magnolia-dam-app-3.0.3.jar:?]
	at com.vaadin.ui.Grid$Column.generateRendererValue(Grid.java:1111) ~[vaadin-server-8.9.4.jar:8.9.4]
\lst@gtempboxa=\box47
\lst@token=\toks18
\lst@length=\count189
  Reverse history search (FEATURE_REVERSE_SEARCH) [Y/n/?] y
  Tab completion (FEATURE_TAB_COMPLETION) [Y/n/?] y
    Username completion (FEATURE_USERNAME_COMPLETION) [N/y/?] n
  Fancy shell prompts (FEATURE_EDITING_FANCY_PROMPT) [Y/n/?] y
  Query cursor position from terminal (FEATURE_EDITING_ASK_TERMINAL) [N/y/?] n
[2023.05.20-22.07.43:062][  0]LogDeviceProfileManager: 	[00000A60F9920000][00000A60F991C800 52] iPad7, 
[2023.05.20-22.07.43:062][  0]LogDeviceProfileManager: 	[00000A60F9921200][00000A60F7FF2800 52] iPad8, 
For [4mThe_Notting_Hillbillies[24m: [01;33m0[01;37m photos, [01;35m1[01;37m subdirs.
For [4mTurisas[24m: [01;33m0[01;37m photos, [01;35m6[01;37m subdirs.
21:38:12 T:139832867932032    INFO: ID:0x106 Name:1920x1080 Refresh:59.940201 Width:1920 Height:1080
21:38:12 T:139832867932032    INFO: Pixel Ratio: 0.899306
21:38:12 T:139832867932032    INFO: ID:0x109 Name:1920x1080 Refresh:24.000000 Width:1920 Height:1080
21:38:12 T:139832867932032    INFO: Pixel Ratio: 0.899306
21:38:12 T:139832867932032    INFO: ID:0x10b Name:1920x1080 Refresh:23.976080 Width:1920 Height:1080
[2023.05.20-22.07.39:930][  0]LogConfig: Set CVar [[r.ForwardShading:0]]
[     48813] [    GTAProcess]             MainThrd/ rage::gameSkeleton::RunInitFunctions: Invoking CDLCScript INIT_CORE init (13 out of 21)
NOTE: The SAS System used:
  Alignment score: 24.660
petty+officer+jonathan+campos	01.08.2009 18:38:12	http://www.google.com/search?q=Jonathan+Campos&hl=en&start=20&sa=N	Mozilla/5.0 (Windows; U; Windows NT 5.1; en-US; rv:1.9.0.12) Gecko/2009070611 Firefox/3.0.12 (.NET CLR 3.5.30729)	98.193.72.14
jerry+garcia+birthday	01.08.2009 18:38:16	http://www.google.com/search?sourceid=navclient&ie=UTF-8&rlz=1T4TSHB_enUS245US246&q=Sunshine+Dream+Festival+d.c.	Mozilla/4.0 (compatible; MSIE 8.0; Windows NT 6.0; Trident/4.0; FunWebProducts; GTB6; SLCC1; .NET CLR 2.0.50727; Media Center PC 5.0; .NET CLR 3.0.04506; eMusic DLM/3)	98.169.57.163
what+did+greg+mcmackin+say	01.08.2009 18:38:37	http://www.google.com/url?sa=t&source=web&ct=res&cd=8&url=http%3A%2F%2Fcomicsunlimited.com%2Fcomics%2Findex.php%3Fwhat%2Bdid%2Bgreg%2Bmcmackin%2Bsay&ei=d4t0SomWMZPUMsCm1LEM&rct=j&q=what+did+greg+mcmackin+say&usg=AFQjCNGV41wKWkTAJJ3qWFfr6ZAacJpquw	Mozilla/5.0 (Windows; U; Windows NT 5.1; en-US; rv:1.9.1.1) Gecko/20090715 Firefox/3.5.1	139.67.30.209
drake+falls+on+stage	01.08.2009 18:38:44	http://www.google.com/search?q=drake+falls+on+stage&sourceid=navclient-ff&ie=UTF-8&rlz=1B3GGGL_enUS305US307&aq=t	Mozilla/5.0 (Windows; U; Windows NT 5.1; en-US; rv:1.9.0.12) Gecko/2009070611 Firefox/3.0.12 (.NET CLR 3.5.30729)	76.94.104.41
fedex+field	01.08.2009 18:38:56	http://www.google.com/search?hl=en&ie=ISO-8859-1&q=Concert+parking+at+Fed+Ex+Field&aq=o&oq=&aqi=	Mozilla/4.0 (compatible; MSIE 7.0; AOL 9.1; AOLBuild 4334.5007; Windows NT 6.0; Trident/4.0; SLCC1; .NET CLR 2.0.50727; Media Center PC 5.0; OfficeLivePatch.1.3; .NET CLR 3.5.30729; .NET CLR 3.0.30618; OfficeLiveConnector.1.4)	205.188.116.73
sayville+summerfest	01.08.2009 18:39:15	http://www.google.com/search?hl=en&q=summerfest+long+island+new+york&aq=f&oq=&aqi=	Mozilla/4.0 (compatible; MSIE 7.0; Windows NT 6.0; WOW64; SLCC1; .NET CLR 2.0.50727; .NET CLR 3.0.04506; Media Center PC 5.0)	98.111.112.221
sono+arts+festival	01.08.2009 18:39:37	http://www.google.com/search?client=ms-rim&hl=en&q=sono+arts+festival&ie=UTF-8&channel=browser	BlackBerry8310/4.5.0.110 Profile/MIDP-2.0 Configuration/CLDC-1.1 VendorID/102	206.53.157.235
fayette+county+fair	01.08.2009 18:39:40	http://www.google.com/search?hl=en&rlz=1T4DKUS_enUS311US311&q=fayette+county+free+fair&revid=1521426136&ei=LYt0Suy-Lcmltgepj9mWCQ&sa=X&oi=revisions_inline&resnum=0&ct=broad-revision&cd=4	Mozilla/4.0 (compatible; MSIE 7.0; Windows NT 6.0; WOW64; GTB6; SLCC1; .NET CLR 2.0.50727; .NET CLR 3.0.04506; Media Center PC 5.0)	70.195.36.156
socorro+caro	01.08.2009 18:39:51	http://www.google.com/search?q=Socorro+Caro+&ie=utf-8&oe=utf-8&aq=t&rls=org.mozilla:en-US:official&client=firefox-a	Mozilla/5.0 (Macintosh; U; PPC Mac OS X 10.5; en-US; rv:1.9.0.12) Gecko/2009070609 Firefox/3.0.12	68.5.87.186
what+did+greg+mcmackin+say	01.08.2009 18:39:59	http://www.google.com/search?source=ig&hl=en&rlz=1G1GGLQ_ENUS321&=&q=greg+mcmackin+what+did+he+say&aq=f&oq=&aqi=	Mozilla/5.0 (Macintosh; U; Intel Mac OS X 10.5; en-US; rv:1.9.0.10) Gecko/2009042315 Firefox/3.0.10	68.106.226.11
x+games+15+moto+x+best+trick	01.08.2009 18:40:14	http://www.google.com/search?q=moto+x+best+trick+winner+2009&rls=com.microsoft:en-us&ie=UTF-8&oe=UTF-8&startIndex=&startPage=1&rlz=1I7GPEA_enUS301	Mozilla/4.0 (compatible; MSIE 7.0; Windows NT 5.1; GTB6; .NET CLR 2.0.50727; .NET CLR 3.0.4506.2152; .NET CLR 3.5.30729)	72.68.91.153
what+did+greg+mcmackin+say	01.08.2009 18:40:29	http://www.google.com/search?q=Coach+McMackin++what+did+he+say&ie=utf-8&oe=utf-8&aq=t&rls=org.mozilla:en-US:official&client=firefox-a	Mozilla/5.0 (Windows; U; Windows NT 5.1; en-US; rv:1.9.1.1) Gecko/20090715 Firefox/3.5.1	75.177.86.234
socorro+caro	01.08.2009 18:40:38	http://www.google.com/search?hl=en&q=socorro+caro&aq=2z&oq=soco&aqi=g2g-z1g7	Mozilla/4.0 (compatible; MSIE 8.0; Windows NT 5.1; Trident/4.0; GTB6; .NET CLR 1.0.3705; .NET CLR 1.1.4322; Media Center PC 4.0; .NET CLR 2.0.50727; InfoPath.1)	69.255.115.226
socorro+caro	01.08.2009 18:40:41	http://www.google.com/search?sourceid=navclient&ie=UTF-8&rlz=1T4ADBF_enUS304US304&q=Socorro+Caro+murder+case	Mozilla/4.0 (compatible; MSIE 8.0; Windows NT 5.1; Trident/4.0; GTB6; InfoPath.1; .NET CLR 2.0.50727)	71.94.128.140
friendship+quotes	01.08.2009 18:40:59	http://www.google.co.in/search?hl=en&q=friendship+graphic+quote+remembering+the+value+of+friend&btnG=Search&meta=&aq=f&oq=	Mozilla/5.0 (Windows; U; Windows NT 5.1; en-US) AppleWebKit/530.5 (KHTML, like Gecko) Chrome/2.0.172.37 Safari/530.5	115.240.139.117
fedex+field	01.08.2009 18:41:14	http://www.google.com/search?hl=en&q=fedex+field+parking+map&rlz=1W1DKUS_en&aq=0&oq=fedex+field+parking&aqi=g4	Mozilla/4.0 (compatible; MSIE 7.0; Windows NT 5.1; Trident/4.0; GTB6; .NET CLR 1.1.4322; .NET CLR 2.0.50727; .NET CLR 3.0.04506.30; .NET CLR 3.0.04506.648; .NET CLR 3.0.4506.2152; .NET CLR 3.5.30729; MSN Optimized;US)	68.101.32.43
fedex+field	01.08.2009 18:41:17	http://www.google.com/search?sourceid=navclient&ie=UTF-8&rlz=1T4TSHB_enUS315US316&q=fedex+field+concert+parking	Mozilla/4.0 (compatible; MSIE 8.0; Windows NT 6.0; Trident/4.0; GTB6; SLCC1; .NET CLR 2.0.50727; Media Center PC 5.0; InfoPath.1; .NET CLR 3.5.30729; .NET CLR 3.0.30729)	69.136.224.169
caterina+gennaro	01.08.2009 18:41:17	http://www.google.com/search?complete=1&hl=en&q=Caterina+Gennaro%2C&aq=f&oq=&aqi=	Mozilla/4.0 (compatible; MSIE 8.0; Windows NT 6.0; Trident/4.0; SLCC1; .NET CLR 2.0.50727; Media Center PC 5.0; Tablet PC 2.0; .NET CLR 3.5.30729; .NET CLR 3.0.30729)	216.103.85.206
market+days+chicago+2009	01.08.2009 18:41:27	http://www.google.com/search?q=street+fair+chicago+2009&ie=utf-8&oe=utf-8&aq=t&rls=org.mozilla:en-US:official&client=firefox-a	Mozilla/5.0 (Macintosh; U; Intel Mac OS X 10.4; en-US; rv:1.9.0.12) Gecko/2009070609 Firefox/3.0.12	76.217.61.109
what+did+greg+mcmackin+say	01.08.2009 18:41:56	http://www.google.com/search?q=what+did+greg+mcmackin+say&ie=utf-8&oe=utf-8&aq=t&rls=org.mozilla:en-US:official&client=firefox-a	Mozilla/5.0 (Windows; U; Windows NT 6.0; en-US; rv:1.9.1.1) Gecko/20090715 Firefox/3.5.1 (.NET CLR 3.5.30729)	69.152.203.128
tim+hack+and+kelly+drew	01.08.2009 18:54:43	http://www.google.com/search?q=hack%2Cdrew%2C+wisconsin&ie=utf-8&oe=utf-8&rls=org.mozilla:en-US:official&client=firefox-a	Mozilla/5.0 (Macintosh; U; Intel Mac OS X; en-US; rv:1.8.1.1) Gecko/20061204 Firefox/2.0.0.1	71.211.21.69
tim+hack+and+kelly+drew	01.08.2009 18:55:30	http://www.google.com/search?q=hack%2Cdrew%2C+wisconsin&ie=utf-8&oe=utf-8&rls=org.mozilla:en-US:official&client=firefox-a	Mozilla/5.0 (Macintosh; U; Intel Mac OS X; en-US; rv:1.8.1.1) Gecko/20061204 Firefox/2.0.0.1	71.211.21.69
invicta+9212+men%E2%80%99s+gold+plated+stainless+steel+speedway+watch	01.08.2009 18:55:39	http://www.google.com/search?client=ms-rim&hl=en&q=Invicta+9212+Men%E2%80%99s+Gold+Plated+Stainless+Steel+Speedway+Watch&ie=UTF-8&channel=browser	Mozilla/4.0 (compatible; MSIE 6.0; Windows NT 5.1; SV1)	206.53.153.174
what+did+greg+mcmackin+say	01.08.2009 18:55:50	http://www.google.com/url?sa=t&source=web&ct=res&cd=8&url=http%3A%2F%2Fcomicsunlimited.com%2Fcomics%2Findex.php%3Fwhat%2Bdid%2Bgreg%2Bmcmackin%2Bsay&ei=q490So6NCpWMtgeWgu2WCQ&rct=j&q=what+did+greg+mcmackin+say&usg=AFQjCNGV41wKWkTAJJ3qWFfr6ZAacJpquw&sig2=5NQ4yNQuvctVvH82LnJSsA	Mozilla/5.0 (Macintosh; U; Intel Mac OS X 10.5; en-US; rv:1.9.0.12) Gecko/2009070609 Firefox/3.0.12	24.185.106.43
carlos+justo	01.08.2009 18:56:08	http://www.google.com/search?hl=en&q=Carlos+Justo&aq=f&oq=&aqi=g6g-s1g2	Mozilla/4.0 (compatible; MSIE 6.0; Windows NT 5.1; SV1; YPC 3.0.1; .NET CLR 1.1.4322; yplus 4.1.00b)	75.2.220.38
socorro+caro	01.08.2009 18:56:13	http://www.google.com/search?hl=en&q=Socorro+Caro+&btnG=Google+Search&aq=f&oq=&aqi=	Mozilla/4.0 (compatible; MSIE 8.0; Windows NT 5.1; Trident/4.0; .NET CLR 1.1.4322; .NET CLR 2.0.50727; .NET CLR 3.0.04506.30; MDDR; .NET CLR 3.0.4506.2152; .NET CLR 3.5.30729)	12.35.111.162
sayville+summerfest	01.08.2009 18:56:27	http://www.google.com/cse?cx=partner-pub-9695918213045898%3Aj38vzq-eogn&cof=FORID%3A10&ie=ISO-8859-1&q=sayville+summerfest&sa=Search&ad=w9&num=10&rurl=http%3A%2F%2Fpuckettsprojects.com%2Fsearch%2F%3Fcx%3Dpartner-pub-9695918213045898%253Aj38vzq-eogn%26cof%3DFORID%253A10%26ie%3DISO-8859-1%26q%3Dsayville%2Bsummerfest%26sa%3DSearch	Mozilla/4.0 (compatible; MSIE 7.0; Windows NT 5.1; .NET CLR 1.1.4322; .NET CLR 2.0.50727; .NET CLR 3.0.04506.30; .NET CLR 3.0.04506.648)	96.232.117.75
buick+open+tee+times	01.08.2009 18:56:32	http://www.google.com/search?q=Buick+open+golf+pairings&ie=UTF-8&oe=UTF-8&hl=en&client=safari	Mozilla/5.0 (iPhone; U; CPU iPhone OS 3_0 like Mac OS X; en-us) AppleWebKit/528.18 (KHTML, like Gecko) Version/4.0 Mobile/7A341 Safari/528.16	166.205.135.148
gold+coast+art+fair+2009	01.08.2009 18:56:34	http://www.google.com/search?q=gold+coast+art+festival&ie=UTF-8&oe=UTF-8&hl=en&client=safari	Mozilla/5.0 (iPhone; U; CPU iPhone OS 3_0 like Mac OS X; en-us) AppleWebKit/528.18 (KHTML, like Gecko) Version/4.0 Mobile/7A341 Safari/528.16	71.194.204.74
invicta+9212+men%E2%80%99s+gold+plated+stainless+steel+speedway+watch	01.08.2009 18:56:44	http://www.google.com/search?client=safari&rls=en-us&q=invicta+9212+Men%E2%80%99s+Gold+Plated+Stainless+Steel+Speedway+Watch&ie=UTF-8&oe=UTF-8	Mozilla/5.0 (Macintosh; U; Intel Mac OS X 10_5_7; en-us) AppleWebKit/530.19.2 (KHTML, like Gecko) Version/4.0.2 Safari/530.19	68.4.189.140
gold+coast+art+fair+2009	01.08.2009 20:32:41	http://www.google.com/search?hl=en&safe=off&q=august+1+chicago+gold+coast&aq=f&oq=&aqi=	Mozilla/4.0 (compatible; MSIE 7.0; Windows NT 6.0; SLCC1; .NET CLR 2.0.50727; Media Center PC 5.0; .NET CLR 3.5.30729; .NET CLR 3.0.30618)	69.217.122.58
2021-10-26T21:50:50.855Z,1.855726,4543000,6 [FLog::LocalStorage] LocalStorage will flush 11173 bytes to /Users/studioagain/Library/Roblox/LocalStorage/appStorage.json
2021-10-26T21:50:50.856Z,1.856228,4543000,6 [FLog::LocalStorage] LocalStorage: Wrote 11173 bytes to disk
[22:42:48] Win News Time: [-] 7754/7826 download failed (Return: -) - http://contagiousyarning.wordpress.com/
tdf#114182 FILESAVE XLSX Pie chart slice moved back by LibreOffice Calc [Markus Mohrhard]
tdf#114200 FILEOPEN: "Text Import" dialog: option to trim whitespace [Gabor Kelemen, manujvashist]
\pgfutil@abb=\box58
) (/usr/local/texlive/2021/texmf-dist/tex/generic/pgf/utilities/pgfrcs.code.tex (/usr/local/texlive/2021/texmf-dist/tex/generic/pgf/pgf.revision.tex)
tdf#115530 Conditional formatting isn't updated when formula is updated (XLSX) [Markus Mohrhard]
  GEN     selinux/Kbuild
  GEN     selinux/Config.in
  GEN     printutils/Kbuild
[     14922] somefunc found dlc_PATCHDAY10NG:/!
Make tar, rpm, modprobe etc understand .bz2 data (FEATURE_SEAMLESS_BZ2) [N/y/?] n
Make tar, rpm, modprobe etc understand .gz data (FEATURE_SEAMLESS_GZ) [N/y/?] n

petty+officer+jonathan+campos	01.08.2009 17:44:14	http://www.google.com/search?hl=en&q=Petty+Officer+Jonathan+Campos+&btnG=Google+Search&aq=f&oq=&aqi=	Mozilla/4.0 (compatible; MSIE 6.0; Windows NT 5.1; SV1; .NET CLR 1.1.4322; .NET CLR 2.0.50727; .NET CLR 3.0.4506.2152; .NET CLR 3.5.30729)	155.150.150.61
socorro+caro	01.08.2009 17:44:18	http://www.google.com/search?hl=en&rlz=1R2RNTN_enUS338&q=Soccorro+Caro&aq=f&oq=&aqi=g-s1	Mozilla/4.0 (compatible; MSIE 7.0; Windows NT 6.0; GTB6; SLCC1; .NET CLR 2.0.50727; Media Center PC 5.0; .NET CLR 3.0.04506)	99.186.123.116
[   1965140] overriding handle for mp_f_freemode_01/task_diff_006_b_uni.ytd (was 4cd05f1) -> 2c5
    + added Test for checking newly created writer document with AppYield [Varun Dhall]
                                                       --------

build	14-Jul-2020 09:19:51	[WARNING] 'build.pluginManagement.plugins.plugin.(groupId:artifactId)' must be unique but found duplicate declaration of plugin org.eclipse.m2e:lifecycle-mapping @ com.XXXXXX.enterprise.build:enterprise-pom:3.0.0, d:\MavenRepo\com\XXXXXX\enterprise\build\enterprise-pom\3.0.0\enterprise-pom-3.0.0.pom, line 197, column 13
build	14-Jul-2020 09:19:51	[WARNING] 
build	14-Jul-2020 09:19:51	[WARNING] Some problems were encountered while building the effective model for com.XXXXXX.eps.epdg:epdg-app-aggregator:pom:1.0.0-SNAPSHOT
build	14-Jul-2020 09:19:51	[WARNING] 'build.pluginManagement.plugins.plugin.(groupId:artifactId)' must be unique but found duplicate declaration of plugin org.eclipse.m2e:lifecycle-mapping @ com.XXXXXX.enterprise.build:enterprise-pom:3.0.0, d:\MavenRepo\com\XXXXXX\enterprise\build\enterprise-pom\3.0.0\enterprise-pom-3.0.0.pom, line 197, column 13
build	14-Jul-2020 09:19:51	[WARNING] 
		
 Version 1.33.0 (10 OCTOBER 2018)
	New feature
/usr/bin/g++ -I/builds/free-electrons/toolchains-builder/build/tmp/test-x86-64-core-i7--uclibc--stable/host/usr/include -O2 -I/builds/free-electrons/toolchains-builder/build/tmp/test-x86-64-core-i7--uclibc--stable/host/usr/include -c -o decoder.o decoder.cc
	at java.lang.Thread.run(Thread.java:748) [?:1.8.0_252]
build	14-Jul-2020 09:19:53	[INFO] Processing change of com.XXXXXX.eps.epdg:epdg-app-aggregator:1.0.0-SNAPSHOT -> 1.0.16-SNAPSHOT
build	14-Jul-2020 09:19:53	[INFO] Processing com.XXXXXX.eps.epdg:epdg-app-aggregator
build	14-Jul-2020 09:19:53	[INFO]     Updating project com.XXXXXX.eps.epdg:epdg-app-aggregator
                        ==  has/VBZ-2             INS    $0.377  [I]
             and/CC-18  ==                        DEL    $0.429  [D]
12:32:06 T:6224   DEBUG: Previous line repeats 2 times.
Checking for program /Developer/NVIDIA/CUDA-6.5/bin/nvcc...not found
	at info.magnolia.cms.filters.CompositeFilter.doFilter(CompositeFilter.java:65) [magnolia-core-6.2.3.jar:?]
[   1955375] instrumented function 0x1409081bc (7) took 15msec
[   1955422] instrumented function 0x1401c0e94 (8) took 21msec
12:32:05 T:6472  NOTICE:         m_displayName     : default
12:32:05 T:6472  NOTICE:         m_displayNameExtra:
12:32:05 T:6472  NOTICE:         m_deviceType      : AE_DEVTYPE_PCM
12:32:05 T:6472  NOTICE:         m_channels        : FL,FR
12:32:05 T:6472  NOTICE:         m_sampleRates     : 48000
12:32:05 T:6472  NOTICE:         m_dataFormats     : AE_FMT_FLOAT
12:32:05 T:6472  NOTICE: Enumerated WASAPI devices:
12:32:05 T:2676   DEBUG:   Frame Samples   : 1322
12:32:05 T:2676   DEBUG:   Frame Size      : 8
12:32:05 T:2676   DEBUG: CActiveAESink::OpenSink - DIRECTSOUND Initialized:
12:32:05 T:2676   DEBUG:   Output Device : default
12:32:05 T:2676   DEBUG:   Sample Rate   : 44100
12:32:05 T:2676   DEBUG:   Sample Format : AE_FMT_FLOAT
12:32:05 T:2676   DEBUG:   Channel Count : 2
12:32:05 T:2676   DEBUG:   Channel Layout: FL,FR
12:32:05 T:2676   DEBUG:   Frames        : 661
12:32:05 T:2676   DEBUG:   Frame Samples : 1322
12:32:05 T:2676   DEBUG:   Frame Size    : 8
12:32:05 T:7432  NOTICE: Running database version Addons19
12:32:05 T:7432   DEBUG: SECTION:LoadDLL(special://xbmcbin/system/cpluff.dll)
12:32:05 T:2676   DEBUG: CAESinkDirectSound::CheckPlayStatus: Resuming Playback
12:32:05 T:7432   DEBUG: ADDON: cpluff: 'Plug-in weather.openweathermap.extended has been installed.'
12:32:05 T:7432   DEBUG: ADDON: cpluff: 'Plug-in xbmc.json has been installed.'
12:32:05 T:7432   DEBUG: ADDON: cpluff: 'Plug-in metadata.common.fanart.tv has been installed.'
12:32:05 T:7432   DEBUG: ADDON: cpluff: 'Plug-in audiodecoder.nosefart has been installed.'
12:32:05 T:7432   DEBUG: ADDON: cpluff: 'Plug-in xbmc.audioencoder has been installed.'
12:32:05 T:7432   DEBUG: ADDON: cpluff: 'Plug-in pvr.vbox has been installed.'
12:32:05 T:7432   DEBUG: ADDON: cpluff: 'Plug-in script.openweathermap.maps has been installed.'
12:32:05 T:7432   DEBUG: ADDON: cpluff: 'Plug-in webinterface.default has been installed.'
12:32:05 T:7432   DEBUG: ADDON: cpluff: 'Plug-in repository.xbmc.org has been installed.'
=== START import 2016-05-17 10:49:12 ===
Source:
spiedie+fest	01.08.2009 23:00:17	http://www.google.com/search?client=ms-rim&hl=en&q=dickenson%2C%20ny%20hot%20air%20balloons&ie=UTF-8&channel=browser	BlackBerry9000/4.6.0.167 Profile/MIDP-2.0 Configuration/CLDC-1.1 VendorID/102	206.53.153.109
mkfifo (MKFIFO) [Y/n/?] y
TOG	ALASKA	TOGIAK VILLAGE TOGIAK	afd	al_223_25OCT2007.png
12:32:05 T:7432  NOTICE: Additional mode: 1280x768@ 60.00 - Full Screen
12:32:05 T:7432  NOTICE: Previous line repeats 2 times.
12:32:05 T:7432  NOTICE: Additional mode: 1280x768@ 75.00 - Full Screen
12:32:05 T:7432  NOTICE: Previous line repeats 2 times.
12:32:05 T:7432  NOTICE: Additional mode: 1280x800@ 60.00 - Full Screen
  2. as hard-links (INSTALL_APPLET_HARDLINKS)
{"jobId":"JoinPrivateGame:PlaceId=4996049426&AccessCode=405cc706-a41d-4d4f-b250-4b6784555e4e","status":0,"joinScriptUrl":null,"authenticationUrl":null,"authenticationTicket":null,"message":null,"joinScript":null}
ciMethod java/lang/String substring (I)Ljava/lang/String; 1521 1 2777 0 0
[22:42:45] Amazon: [-] 3695/7825 no engine matches (HTTP-Status: 503) - http://www.philosophyinwessex.org/talk-socrates-and-plato-through-the-eyes-of-marsilio-ficino/
[22:42:45] Hindu temples T2: [-] 4071/4573 download failed (Return: -) - http://www.sprecz.eu/infusions/guest_book/guest_book.php?new_message=1
[22:42:44] Travels: [-] 8129/8261 no form at all - http://www.angulonline.in/register/
[22:42:45] Computer: [-] 0315/8028 download failed (Return: -) - http://butterboom.com/tech/gadget/iphone-hong-kong-pricing-rumours/
[22:42:45] Mesa DUI lawyer: [-] 8185/8413 no engine matches (HTTP-Status: 502) - http://chasingdaisy.com/2005/02/04/color-contrast-analyser/
12:32:05 T:7432   DEBUG: CKeyboardLayoutManager: keyboard layout "Spanish QWERTY" successfully loaded
12:32:05 T:7432   DEBUG: CKeyboardLayoutManager: keyboard layout "Swedish QWERTY" successfully loaded
	at java.lang.reflect.Method.invoke(Method.java:498) ~[?:1.8.0_252]
Arguments: 
  /usr/local/bin/node /Users/etyates/.yarn/bin/yarn.js add bower polymer-cli
[   1958234] rage::gameSkeleton::RunInitFunctions: Invoking CGameWorldHeightMap INIT_AFTER_MAP_LOADED init (18 out of 29)
12:32:06 T:6224   DEBUG: AddOnLog: Tvheadend HTSP Client: pvr.hts - channel update id:1122073780, name:kabel eins
12:32:06 T:6224   DEBUG: AddOnLog: Tvheadend HTSP Client: pvr.hts - channel update id:1179395993, name:SUPER RTL
  Process: anti_alphaInelastic
        Model:                      FTFP: 0 eV /n ---> 100 TeV/n
ERROR info.magnolia.ai.text.TextClassificationModule 15.10.2020 00:12:42 -- Submission of text classification request has been failed at page path '/bdcwebsite/investor-relations/financial-information' with error code: 'null'.
ERROR info.magnolia.aws.foundation.AwsCredentialsProvider 15.10.2020 00:12:42 -- AWS credentials are expected to be set in Password manager module.
ERROR info.magnolia.ai.text.TextClassificationModule 15.10.2020 00:12:42 -- Submission of text classification request has been failed at page path '/bdcwebsite/investor-relations/board-of-directors/ashraf-bakry' with error code: 'null'.
-- [download 98% complete]
] (/Users/natera/Dropbox/PhD/thesis/main.lof [115])
\tf@lof=\write10
12:32:06 T:7432    INFO: Loading skin includes from D:\Program Files (x86)\Kodi\addons\skin.confluence\720p\includes.xml
12:32:06 T:7432    INFO:   load new skin...
12:32:06 T:7432    INFO: Loading user windows, path D:\Program Files (x86)\Kodi\addons\skin.confluence\720p
12:32:06 T:7432   DEBUG: Load Skin XML: 0.91ms
12:32:06 T:7432    INFO:   initialize new skin...
LogPackageName: Display: FPackageName: Mount point added: '../../Plugins/Editor/BlueprintHeaderView/Content/' mounted to '/BlueprintHeaderView/'
LogPackageName: Display: FPackageName: Mount point added: '../../Plugins/Editor/GeometryMode/Content/' mounted to '/GeometryMode/'
-- [download 97% complete]
-- [download 98% complete]
socorro+caro	01.08.2009 18:10:46	http://www.google.com/search?q=socorro+caro&rls=com.microsoft:en-us:IE-SearchBox&ie=UTF-8&oe=UTF-8&sourceid=ie7&rlz=1I7GGLG_en	Mozilla/4.0 (compatible; MSIE 8.0; Windows NT 5.1; Trident/4.0; GTB6; .NET CLR 1.1.4322; MSN Optimized;US; .NET CLR 2.0.50727; MSN Optimized;US)	75.47.148.247
socorro+caro	01.08.2009 18:11:18	http://www.google.com/search?hl=en&q=Socorro+Caro&btnG=Google+Search&aq=f&oq=&aqi=	Mozilla/4.0 (compatible; MSIE 6.0; Windows NT 5.1; SV1; .NET CLR 2.0.50727; .NET CLR 3.0.4506.2152; .NET CLR 3.5.30729)	98.112.74.51
tim+hack+and+kelly+drew	01.08.2009 18:11:27	http://www.google.com/search?q=Tim+Hack+and+Kelly+Drew&sourceid=ie7&rls=com.microsoft:en-us:IE-SearchBox&ie=&oe=	Mozilla/4.0 (compatible; MSIE 8.0; Windows NT 6.1; Trident/4.0; SLCC2; .NET CLR 2.0.50727; .NET CLR 3.5.30729; .NET CLR 3.0.30729; Media Center PC 6.0; InfoPath.2; Tablet PC 2.0)	173.79.206.181
tim+hack+and+kelly+drew	01.08.2009 18:11:34	http://www.google.com/search?sourceid=navclient&aq=0&oq=tim+hack&ie=UTF-8&rlz=1T4GGLL_enUS334US334&q=tim+hack+and+kelly+drew	Mozilla/4.0 (compatible; MSIE 6.0; Windows NT 5.1; SV1; GTB6; .NET CLR 1.1.4322; .NET CLR 2.0.50727; .NET CLR 3.0.4506.2152; .NET CLR 3.5.30729)	69.198.13.189
what+did+greg+mcmackin+say	01.08.2009 18:11:39	http://www.google.com/search?client=safari&rls=en-us&q=what+did+greg+mcmackin+say%5C&ie=UTF-8&oe=UTF-8	Mozilla/5.0 (Macintosh; U; Intel Mac OS X 10_5_7; en-us) AppleWebKit/530.19.2 (KHTML, like Gecko) Version/4.0.2 Safari/530.19	24.61.14.142
+ /rw/common/ops/bin/Px6Gen.orig /rw/work/antpx6/SPSOPS/1134612/wo_1134612_CLU12716antpx6.context

**** Validating Context File *****
./Iron%20Maiden/Virtual%20XI
[   1934265] ResourceCacheDevice: downloaded resource.rpf in 269 msec (size 36864)
      "verify:polygon": "hardhat etherscan-verify --network polygon",
      "verify:avalanche": "hardhat etherscan-verify --network avalanche",
      "deploy:localhost": "hardhat compile && hardhat deploy --network localhost",
2016-02-23 15:45:25,550  INFO Injector:69    -> FactoryProxy{key=Key[type=org.matsim.core.controler.MatsimServices, annotation=[none]], provider=com.google.inject.internal.ConstructorBindingImpl$Factory@815b41f}
AK15	ALASKA	DEADHORSE ALPINE AIRSTRIP	afd	al_59_25OCT2007.png
AK78	ALASKA	DEADHORSE BADAMI	afd	al_59_25OCT2007.png
            with/IN-17  ==  with/IN-5             SUB    $0.979  [E, sim, Esz, d:0.395, pTM, nTM]
CLP	ALASKA	\ 	afd	al_51_25OCT2007.png
Z84	ALASKA	CLEAR	afd	al_51_25OCT2007.png
EUG	ALASKA	EUGENE, OR MAHLON SWEET FLD	afd	al_74_25OCT2007.png
2Z2	ALASKA	EUREKA CREEK	afd	al_74_25OCT2007.png
2Z3	ALASKA	EVA CREEK	afd	al_75_25OCT2007.png
PAE	ALASKA	EVERETT, WA SNOHOMISH CO-PAINE FLD	afd	al_75_25OCT2007.png
EXI	ALASKA	EXCURSION INLET SEAPLANE	afd	al_76_25OCT2007.png
AK28	ALASKA	FAIRBANKS CHENA MARINA	afd	al_76_25OCT2007.png
AK28_1	ALASKA	FAIRBANKS CHENA MARINA SEAPLANE	afd	al_76_25OCT2007.png
2Z5	ALASKA	FAIRBANKS CHENA RIVER SEAPLANE	afd	al_76_25OCT2007.png
FAI	ALASKA	FAIRBANKS INTL	afd	al_77_25OCT2007.png
FAI_1	ALASKA	FAIRBANKS INTL SEAPLANE	afd	al_78_25OCT2007.png
AK7	ALASKA	FAIRBANKS GOLD KING CREEK 	afd	al_78_25OCT2007.png
AK22	ALASKA	FAIRBANKS LAKLOEY AIR PARK 	afd	al_78_25OCT2007.png
AK22_1	ALASKA	FAIRBANKS LAKLOEY AIR PARK SEAPLANE 	afd	al_78_25OCT2007.png
MTF	ALASKA	FAIRBANKS METRO FLD 	afd	al_78_25OCT2007.png
2AK2	ALASKA	FAIRBANKS-FT WAINWRIGHT- CLEAR CREEK	afd	al_79_25OCT2007.png
2Z6	ALASKA	FALSE ISLAND SEAPLANE	afd	al_79_25OCT2007.png
KFP	ALASKA	FALSE PASS	afd	al_79_25OCT2007.png
FWL	ALASKA	FAREWELL	afd	al_80_25OCT2007.png
TNW	ALASKA	FAREWELL LAKE TIN CREEK	afd	al_80_25OCT2007.png
3Z1	ALASKA	FEATHER RIVER	afd	al_80_25OCT2007.png
FVM	ALASKA	FIVE MILE	afd	al_81_25OCT2007.png
FLT	ALASKA	FLAT	afd	al_81_25OCT2007.png
FYU	ALASKA	FORT YUKON	afd	al_82_25OCT2007.png
FHR	ALASKA	FRIDAY HARBOR	afd	al_82_25OCT2007.png
FNR	ALASKA	FUNTER BAY SEAPLANE	afd	al_83_25OCT2007.png
GBH	ALASKA	GALBRAITH LAKE	afd	al_83_25OCT2007.png
GAL	ALASKA	GALENA EDWARD G. PITKA SR	afd	al_84_25OCT2007.png
GAM	ALASKA	GAMBELL	afd	al_85_25OCT2007.png
