     41     0.519057
     42     0.466869
     43     0.419927
     44     0.377706
     45     0.339729
     46     0.305571
     47     0.274848
     48     0.247213
     49     0.222357
     50     0.200000
     51     0.179891
     52     0.161804
     53     0.145535
     54     0.130902
     55     0.117741
     56     0.105903
     57     0.095255
     58     0.085677
     59     0.077063
     60     0.069314
     61     0.062345
     62     0.056077
     63     0.050439
     64     0.045367
     65     0.040806
     66     0.036703
     67     0.033013
     68     0.029693
     69     0.026708
     70     0.024022
NOTE: DATA statement used (Total process time):
      real time           2.12 seconds
      cpu time            0.99 seconds
      

27         proc print data=this.myTicker (obs=10);
28         	title "this.myTicker";
29         run;

NOTE: There were 10 observations read from the data set THIS.MYTICKER.
NOTE: The PROCEDURE PRINT printed page 1.
NOTE: PROCEDURE PRINT used (Total process time):
      real time           0.36 seconds
      cpu time            0.03 seconds
      

30         
31         *__________________________________________________________________________________________________
31       ! _____________________
32         
33         Pull off the records with trades.
34         ___________________________________________________________________________________________________
34       ! _____________________;
35         data trades;	*	Put the values in a new dataset;
36         	set this.myTicker;
37         	where price^=.;
59         	var size;
60         	id date time ex cond;
61         	by symbol;
62         run;

Evaluating hand-tuned model (for inferer phase) on dataset RTE2_dev
41         proc print data=trades (obs=50);
on                   ==> on
the                  ==> the
ofz#4594 integer-overflow [Caolán McNamara]
ofz#4641 fix leaks with exceptions [Caolán McNamara]
ofz#4643 direct-leak [Caolán McNamara]
ofz#4647 integer-overflow [Caolán McNamara]
ofz#4649 don't care about exceptions for testing [Caolán McNamara]
ofz#4677 indirect-leak [Caolán McNamara]
ofz#4703 direct-leak [Caolán McNamara]
ofz#4715 integer-overflow [Caolán McNamara]
ofz#4722 integer-overflow [Caolán McNamara]
ofz#4723 use vector::at [Caolán McNamara]
ofz#4725 integer-overflow [Caolán McNamara]
ofz#4728 null-deref [Caolán McNamara]
ofz#4732 null-dereference [Caolán McNamara]
ofz#4733 align size types [Caolán McNamara]
ofz#4734 null-deref [Caolán McNamara]
ofz#4735 null-dereference [Caolán McNamara]
ofz#4738 integer-overflow [Caolán McNamara]
ofz#5028 direct-leak [Caolán McNamara]
ofz#5154 limit depth to max legal depth [Caolán McNamara]
ofz#5157 direct-leak [Caolán McNamara]
ofz#5193 negative-size-param [Caolán McNamara]
ofz#5211 limit table parsing depth [Caolán McNamara]
ofz#5221 depth protect Prepare [Caolán McNamara]
ofz#5234 direct-leak [Caolán McNamara]
ofz#5235 bad-cast [Caolán McNamara]
ofz#5244 tighten depth check [Caolán McNamara]
ofz#5247 integer-overflow [Caolán McNamara]
ofz#5248 integer-overflow [Caolán McNamara]
ofz#5253 restore some sort of valid state on missing Restore [Caolán McNamara]
ofz#5274 out-of-memory [Caolán McNamara]
    + add a comment about user defined IDs [Eike Rathke]
./Le%20Donjon%20de%20Naheulbeuk/Chanson/Grimoire%20audio%20-%20Chanson%20Naheulbeuk
socorro+caro	01.08.2009 19:21:17	http://www.google.com/search?q=Socorro+Caro&sourceid=ie7&rls=com.microsoft:en-US&ie=utf8&oe=utf8	Mozilla/4.0 (compatible; MSIE 8.0; Windows NT 5.1; Trident/4.0)	96.251.181.98
what+did+greg+mcmackin+say	01.08.2009 19:21:22	http://www.google.com/search?hl=en&q=what+did+greg+mcmackin+say&aq=0z&oq=what+did+greg&aqi=g-z1g9	Mozilla/5.0 (Macintosh; U; Intel Mac OS X 10_5_7; en-us) AppleWebKit/530.19.2 (KHTML, like Gecko) Version/4.0.2 Safari/530.19	69.138.245.137
sono+arts+festival	01.08.2009 19:21:33	http://www.google.com/search?hl=en&q=sono+arts+festival+parking&aq=f&oq=&aqi=	Mozilla/4.0 (compatible; MSIE 6.0; Windows NT 5.1; SV1; .NET CLR 1.1.4322; InfoPath.1; .NET CLR 2.0.50727)	173.2.120.193
