bullet+express	01.08.2009 22:00:33	http://www.google.com/search?hl=en&q=bullet+express+does+it+work&aq=f&oq=&aqi=	Mozilla/4.0 (compatible; MSIE 7.0; Windows NT 5.1; Avant Browser; Avant Browser; .NET CLR 1.1.4322; .NET CLR 2.0.50727; InfoPath.2; MS-RTC LM 8)	71.213.236.164
sayville+summerfest	01.08.2009 22:00:37	http://www.google.com/search?client=safari&rls=en-us&q=sayville+fair+long+island+ny&ie=UTF-8&oe=UTF-8	Mozilla/5.0 (Macintosh; U; Intel Mac OS X 10_5_7; en-us) AppleWebKit/530.18 (KHTML, like Gecko) Version/4.0.1 Safari/530.18	69.117.252.16
market+days+chicago+2009	01.08.2009 22:01:00	http://www.google.com/search?q=market+days+2009&hl=en&rlz=1G1GGLQ_ENUS338&start=10&sa=N	Mozilla/5.0 (Windows; U; Windows NT 6.0; en-US) AppleWebKit/530.5 (KHTML, like Gecko) Chrome/2.0.172.37 Safari/530.5	75.21.67.101
clasica+san+sebastian+live	01.08.2009 22:01:01	http://www.google.it/search?hl=it&q=g+p+san+sebastian+&meta=&aq=f&oq=	Mozilla/4.0 (compatible; MSIE 7.0; Windows NT 5.1; .NET CLR 2.0.50727)	80.183.22.95
market+days+chicago+2009	01.08.2009 22:01:26	http://www.google.com/search?q=market+days+2009&hl=en&rlz=1G1GGLQ_ENUS338&start=10&sa=N	Mozilla/5.0 (Windows; U; Windows NT 6.0; en-US) AppleWebKit/530.5 (KHTML, like Gecko) Chrome/2.0.172.37 Safari/530.5	75.21.67.101
sayville+summerfest	01.08.2009 22:02:31	http://www.google.com/search?client=safari&rls=en-us&q=summerfest+sayville&ie=UTF-8&oe=UTF-8	Mozilla/5.0 (Macintosh; U; Intel Mac OS X 10_5_6; en-us) AppleWebKit/525.27.1 (KHTML, like Gecko) Version/3.2.1 Safari/525.27.1	69.117.122.136
invicta+9212+men%E2%80%99s+gold+plated+stainless+steel+speedway+watch	01.08.2009 22:03:43	http://www.google.com/	Mozilla/5.0 (iPhone; U; CPU iPhone OS 3_0 like Mac OS X; en-us) AppleWebKit/528.18 (KHTML, like Gecko) Version/4.0 Mobile/7A341 Safari/528.16	69.122.58.237
shun+ken+onion+11+piece+knife+block+set	01.08.2009 22:04:28	http://www.google.com/search?hl=en&q=Shun+Ken+Onion+11-Piece+Knife+Block+Set&aq=f&oq=&aqi=	Mozilla/4.0 (compatible; MSIE 8.0; Windows NT 6.0; Trident/4.0; SLCC1; .NET CLR 2.0.50727; Media Center PC 5.0; .NET CLR 3.5.30729; .NET CLR 3.0.30618)	173.24.199.49
mountaineer+race+track	01.08.2009 22:05:00	http://www.google.com/search?hl=en&ie=ISO-8859-1&q=Mountaineer+8%2F1+results	Mozilla/4.0 WebTV/2.6 (compatible; MSIE 4.0)	209.240.206.206
petty+officer+jonathan+campos	01.08.2009 22:06:22	http://www.google.com/search?hl=en&q=Petty+Officer+Jonathan+Campos+gay&aq=f&oq=&aqi=	Mozilla/4.0 (compatible; MSIE 7.0; Windows NT 5.1; .NET CLR 1.1.4322; .NET CLR 2.0.50727)	72.92.89.237
dallas+weather+radar	01.08.2009 22:06:46	http://www.google.com/m/search?ct=fsh&q=radar+loop+dallas%2C+tx	HTC-P4600/1.2 Mozilla/4.0 (compatible; MSIE 6.0; Windows CE; IEMobile 7.11) UP.Link/6.3.1.20.0	166.216.192.6
fayette+county+fair	01.08.2009 22:07:15	http://www.google.com/url?sa=t&source=web&ct=res&cd=3&url=http%3A%2F%2Fcomicsunlimited.com%2Fcomics%2Findex.php%3Ffayette%2Bcounty%2Bfair&ei=grx0SvLdN4qutgfwxt2WCQ&rct=j&q=fayette+county+fair+pa+-++beginning+july+30th&usg=AFQjCNHZWLniOTo-Tp22qe_RNRBjKO1jWA	Mozilla/5.0 (Windows; U; Windows NT 6.0; en-US; rv:1.8.1.20) Gecko/20081217 Firefox/2.0.0.20	207.255.126.55
jonathan+campos	01.08.2009 22:07:40	http://www.google.com/search?ie=UTF-8&oe=UTF-8&sourceid=navclient&gfns=1&q=Jonathan+Campos	Mozilla/5.0 (Macintosh; U; Intel Mac OS X 10.4; en-US; rv:1.9.0.12) Gecko/2009070609 Firefox/3.0.12	76.87.84.247
what+did+greg+mcmackin+say	01.08.2009 22:08:32	http://www.google.com/search?q=what+did+McMackin+call+weiss&ie=utf-8&oe=utf-8&aq=t&rls=org.mozilla:en-US:official&client=firefox-a	Mozilla/5.0 (Macintosh; U; Intel Mac OS X 10.5; en-US; rv:1.9.1.1) Gecko/20090715 Firefox/3.5.1	76.175.161.216
x+games+15+moto+x+best+trick	01.08.2009 22:09:10	http://www.google.com/search?hl=en&q=2009+x+games+MOTO+X+BEST+TRICK&aq=f&oq=&aqi=	Mozilla/4.0 (compatible; MSIE 8.0; Windows NT 5.1; Trident/4.0; GTB6; InfoPath.2; .NET CLR 1.1.4322)	96.229.184.104
sayville+summerfest	01.08.2009 22:09:36	http://www.google.com/search?hl=en&q=sayville+summer+festival&aq=f&oq=&aqi=g3	Mozilla/4.0 (compatible; MSIE 8.0; Windows NT 6.0; Trident/4.0; SLCC1; .NET CLR 2.0.50727; Media Center PC 5.0; .NET CLR 3.5.30729; .NET CLR 3.0.30618; Zango 10.3.75.0; yie8)	24.45.129.212
gold+coast+art+fair+2009	01.08.2009 22:10:06	http://www.google.com/search?q=gold+coast+art+fest&ie=UTF-8&oe=UTF-8&hl=en&client=safari	Mozilla/5.0 (iPhone; U; CPU iPhone OS 3_0 like Mac OS X; en-us) AppleWebKit/528.18 (KHTML, like Gecko) Version/4.0 Mobile/7A341 Safari/528.16	99.13.174.21
beach+to+beacon+2009	01.08.2009 22:10:16	http://www.google.com/search?sourceid=navclient&ie=UTF-8&rlz=1T4GWYA_enUS326US326&q=LOOKING+FOR+BEACH+TO+BEACON+TIMES+	Mozilla/4.0 (compatible; MSIE 6.0; Windows NT 5.1; SV1; GTB6; .NET CLR 1.0.3705; .NET CLR 1.1.4322; Media Center PC 4.0; .NET CLR 2.0.50727)	24.31.159.225
shun+ken+onion+11+piece+knife+block+set	01.08.2009 22:10:36	http://www.google.com/url?sa=t&source=web&ct=res&cd=10&url=http%3A%2F%2Fcomicsunlimited.com%2Fcomics%2Findex.php%3Fshun%2Bken%2Bonion%2B11%2Bpiece%2Bknife%2Bblock%2Bset&ei=T710SvjlKYuqswPbufz0CA&rct=j&q=shun+ken+onion&usg=AFQjCNHuheKdC71qbxY_o4LlUHru3aL6vw	Mozilla/5.0 (Windows; U; Windows NT 6.1; en-US; rv:1.9.1.1) Gecko/20090715 Firefox/3.5.1 (.NET CLR 3.5.30729)	98.148.52.247
buick+open+tee+times	01.08.2009 22:10:38	http://www.google.com/search?q=pga+buick+open+2009+4+round+schedule&hl=en&start=10&sa=N	Mozilla/4.0 (compatible; MSIE 8.0; Windows NT 6.0; Trident/4.0; SLCC1; .NET CLR 2.0.50727; Media Center PC 5.0; .NET CLR 3.0.30618; .NET CLR 3.5.30729)	72.201.35.196
buick+open+tee+times	01.08.2009 22:10:45	http://www.google.com/search?hl=en&rlz=1R2GGIT_enUS333&q=2009+Buick+Open+Final+Round+Tee+Times&btnG=Search&aq=f&oq=&aqi=	Mozilla/4.0 (compatible; MSIE 7.0; Windows NT 5.1; GTB6; .NET CLR 1.0.3705; .NET CLR 1.1.4322; Media Center PC 4.0; .NET CLR 2.0.50727; .NET CLR 3.0.04506.30)	69.14.211.62
gold+coast+art+fair+2009	01.08.2009 22:10:57	http://www.google.com/search?hl=en&q=gold+coast+art+fair+in+Chicago%2C+IL&btnG=Search&aq=f&oq=&aqi=	Mozilla/4.0 (compatible; MSIE 6.0; Windows NT 5.1; SV1; .NET CLR 2.0.50727; .NET CLR 1.1.4322; .NET CLR 3.0.04506.30; .NET CLR 3.0.04506.648)	216.43.193.242
kxas+weather	01.08.2009 22:10:58	http://www.google.com/search?hl=en&q=live+doppler+radar+in+arlington+tx.&aq=f&oq=&aqi=	Mozilla/4.0 (compatible; MSIE 8.0; Windows NT 5.1; Trident/4.0; GTB6; .NET CLR 2.0.50727; .NET CLR 3.0.4506.2152; .NET CLR 3.5.30729)	76.183.45.118
what+did+greg+mcmackin+say	01.08.2009 22:11:33	http://www.google.com/search?q=what+did+greg+mcmackin+say&ie=utf-8&oe=utf-8&aq=t&rls=org.mozilla:en-US:official&client=firefox-a	Mozilla/5.0 (Macintosh; U; Intel Mac OS X 10.4; en-US; rv:1.9.0.12) Gecko/2009070609 Firefox/3.0.12	72.234.140.211
market+days+chicago+2009	01.08.2009 22:11:42	http://www.google.com/search?hl=en&safe=off&q=market+days+chicago+2009+donation&aq=f&oq=&aqi=	Mozilla/4.0 (compatible; MSIE 7.0; Windows NT 6.0; WOW64; SLCC1; .NET CLR 2.0.50727; .NET CLR 3.0.04506; Media Center PC 5.0)	98.226.203.133
mountaineer+race+track	01.08.2009 22:11:50	http://www.google.com/search?hl=en&ie=ISO-8859-1&q=charles+town+horse+races+august1+2009&aq=f&oq=&aqi=	Mozilla/4.1 (compatible; MSIE 6.0; ) 400x240 LGE VX10000	97.33.142.109
invicta+9212+men%E2%80%99s+gold+plated+stainless+steel+speedway+watch	01.08.2009 22:11:53	http://www.google.com/search?sourceid=navclient&ie=UTF-8&rlz=1T4GGLL_en&q=9212+invicta+watch	Mozilla/4.0 (compatible; MSIE 6.0; Windows NT 5.1; SV1; GTB6; .NET CLR 1.1.4322)	74.243.117.140
jonathan+campos	01.08.2009 22:11:58	http://www.google.com/search?hl=en&safe=off&q=%22Jonathan+Campos%22+lancaster&aq=f&oq=&aqi=	Mozilla/5.0 (Windows; U; Windows NT 5.1; en-US; rv:1.9.0.12) Gecko/2009070611 Firefox/3.0.12	24.168.122.158
drake+falls+on+stage	01.08.2009 22:12:18	http://www.google.com/search?ie=UTF-8&oe=UTF-8&sourceid=navclient&gfns=1&q=drake+falls+on+stage+may+not+return+to+tour	Mozilla/5.0 (Windows; U; Windows NT 6.0; en-US; rv:1.9.0.12) Gecko/2009070611 Firefox/3.0.12	70.165.40.148
buick+open+tee+times	01.08.2009 22:12:30	http://www.google.com/search?client=safari&rls=en-us&q=4th+round+tee+times+buick+open&ie=UTF-8&oe=UTF-8	Mozilla/5.0 (Macintosh; U; Intel Mac OS X 10_5_7; en-us) AppleWebKit/530.19.2 (KHTML, like Gecko) Version/4.0.2 Safari/530.19	99.145.164.187
