*
* Archival Utilities
               S/C: 183, DSS: 45, Pass: 2716, Label: SPS134612PX6

             Start: 08/023 23:32:55.000000 UTC (01/23/2008, 23:32:55.00000 UTC)
               END: 08/024 12:35:19.000000 UTC (01/24/2008, 12:35:19.00000 UTC)
          Duration:        13:02:24.000000 UTC 

      Context File: /rw/work/antpx6/SPSOPS/1134612/wo_1134612_CLU12716antpx6.context
    Pdx Param File: /rw/work/antpx6/SPSOPS/1134612/CLU1_ANTPX6.PP.xml
       Output File: /rw/work/antpx6/SPSOPS/1134612/183452716-143777-1134612.px6


Initializing termination status file: /rw/work/antpx6/SPSOPS/1134612/RETURN_STATUS_2716_183

This should be our View Period....
                    Target: 183
                  Observer: 45
              Search Start: 254403175.000 TAI (2008 023 // 23:32:55.00000 UTC)
                Search End: 254450119.000 TAI (2008 024 // 12:35:19.00000 UTC)
      View Period Duration: 46944.000
        Validated One Pass: No
         T3 Prelimit Start: 254403175.000 TAI (2008 023 // 23:32:55.00000 UTC)
           T3 Prelimit End: 254450119.000 TAI (2008 024 // 12:35:19.00000 UTC)
         Prelimit Duration: 46944.000
             T3 Pass Start: 254403328.000 TAI (2008 023 // 23:35:28.00000 UTC)
               T3 Pass End: 254450119.000 TAI (2008 024 // 12:35:19.00000 UTC)
             Pass Duration: 46791.000
               Starting Az: -1000000000000000019884624838656.0
               Pass Number: 2716
           Event Instances: 8
         Cable Wrap Report: 
LaTeX Font Info:    ... okay on input line 90.
LaTeX Font Info:    Checking defaults for PD1/pdf/m/n on input line 90.
LaTeX Font Info:    ... okay on input line 90.
Package caption Info: hyperref package is loaded.
Package caption Info: End \AtBeginDocument code.
-- [download 98% complete]
-- [download 99% complete]
      program main

      end
[22:42:25] Sai: [-] 8079/8249 no engine matches (HTTP-Status: 500) - https://www.plumbingdrainservices.com/tennessee/chattanooga-roofer
[22:42:25] Currency: [-] 7900/8085 no engine matches (HTTP-Status: 501) - https://bzdesign.com/?utm_source=clientsite_nsf
Preprocessing source:
instanceKlass java/util/Dictionary
instanceKlass java/util/Map
[22:42:30] Justice degree: [-] 8015/8289 no engine matches (HTTP-Status: 400) - https://www.bambooroof.com
invicta+9212+men%E2%80%99s+gold+plated+stainless+steel+speedway+watch	01.08.2009 21:21:15	http://www.google.com/search?hl=en&q=Invicta+9212+Men%E2%80%99s+Gold+Plated+Stainless+Steel+Speedway+Watch+&btnG=Google+Search&aq=f&oq=&aqi=	Mozilla/5.0 (Windows; U; Windows NT 5.1; en-US) AppleWebKit/530.5 (KHTML, like Gecko) Chrome/2.0.172.39 Safari/530.5	69.123.228.31
[22:42:46] Sai: [-] 8091/8249 download failed (Return: -) - https://web2innovations.com/money/2008/04/
[22:42:46] Online Degree: [-] 7898/8073 no form at all - http://villanenetes.com/wp-login.php
[22:42:46] Computer: [+] 0317/8028 registration successful - http://www.telkom.co.ke/?q=node/add
[22:42:46] Justice degree: [+] 8024/8289 new URL - https://www.techlato.com/wp-login.php?registration=disabled
[22:42:46] eBay: [-] 8130/8467 download failed (Return: -) - https://we-make-money-not-art.com/
[22:42:46] Hollywood: [-] 8228/8544 download failed (Return: -) - http://www.dotsonscreen.com/
[22:42:46] Injury Lawyers: [-] 7877/7969 no engine matches (HTTP-Status: 502) - http://www.coenmartinus.nl/blog/item/15-auditfile-converter
[22:42:46] Currency: [-] 7914/8085 download failed (Return: -) - http://amupdate.com/2014/08/18/im-in-serious-debt-saidi-balogun-said/
[22:42:46] Mesothelioma: [-] 0532/7981 download failed (Return: -) - http://www.xoonia.com/
[22:42:46] Agriculture: [-] 0009/7854 download failed (Return: -) - http://Www.rwinstallatietechniek.nl/portfolio-view/malesuada-fames-ac/
[22:42:47] Web Design: [-] 0797/7978 download failed (Return: -) - https://www.nationaltaxidermists.com/
[22:42:47] Car Insurance T2: [-] 3378/8966 download failed (Return: -) - http://www.beninsite.net/spip.php?page=recherche&recherche=http%3A%2F%2Fhelveticsolar.com%2Findex.php%2Fcomponent%2Fk2%2Fitemlist%2Fuser%2F230537&debut_messages=1815
[22:42:47] Car Insurance: [-] 4201/8012 no engine matches (HTTP-Status: 502) - http://musicreviews.theurbanmusicscene.com/2013/10/jonathan-butler-merry-christmas-to-you/
[22:42:47] Mortgage: [-] 7944/8168 download failed (Return: -) - https://www.rebuildermedical.com
[22:42:47] Make money online: [-] 7829/8047 no engine matches (HTTP-Status: 400) - https://bleedingedgedesign.com
[22:42:47] Win News Time: [-] 7751/7826 download failed (Return: -) - http://taxlawadvisory.com/in-the-news/feed-levy/
[22:42:47] Bollywood: [-] 0204/7884 download failed (Return: -) - https://www.macissues.com
[22:42:47] Computer: [-] 0318/8028 no engine matches (HTTP-Status: 301) - https://foreignpolicy.com/2019/08/02/trump-hired-robert-lighthizer-to-win-a-trade-war-he-lost/
[22:42:47] Injury Lawyers: [-] 7879/7969 download failed (Return: -) - http://www.free-blog-site.com/depuyhipreplacement
[22:42:47] Justice degree: [-] 8025/8289 download failed (Return: -) - http://toonamifaithful.com/anime-siege-is-coming-to-toonamiasia-starting-in-may
[22:42:47] Mesothelioma T1: [-] 0218/8853 download failed (Return: -) - https://mep.trimble.com/product/ec-cad/
[22:42:47] Web Design T2: [-] 4924/8453 download failed (Return: -) - http://www.bibliotecadecordoba.com/index.php/Apple_s_Apple_ipad_tablet.
[22:42:47] Mesa DUI lawyer T2: [-] 4201/8439 download failed (Return: -) - http://quigleyscabinet.blogspot.com/2011_04_01_archive.html
[22:42:47] Internet VOIP: [-] 0128/8096 download failed (Return: -) - http://dogstar2.com/courses-2/
[22:42:47] Health: [-] 8191/8339 no engine matches (HTTP-Status: 500) - https://starschanges.com/olivia-palermo-style-looks/
[22:42:47] Sports: [+] 8087/8698 matches engine Joomla K2 - http://mwm-zahid.com.ua/index.php/tekhnika/item/1-khorvester-1050h?start=80
[22:42:47] Sai: [-] 8093/8249 no engine matches (HTTP-Status: 502) - http://www.oceanaddicts.com.au/airton-cozzolino-is-coming-to-ocean-addicts/
[22:42:47] Insurance: [-] 8219/8261 download failed (Return: -) - http://www.tarpley.net
[22:42:47] Online Degree: [-] 7900/8073 download failed (Return: -) - https://assuflex.nl/
[22:42:47] Hindu temples T2: [-] 4075/4573 download failed (Return: -) - http://feedproxy.google.com/~r/MichaelGreth/~3/CG7kWjc08jE/
tdf#112323 Category list should be sorted alphabetically in Customize dialog [Muhammet Kara]
tdf#112343 Consider porting to gdbus. [Arkadiy Illarionov]
tdf#112356 LOCALHELP Document the Watermark dialog [Gabor Kelemen, Olivier Hallot]
tdf#112373 cleanup SpellChecker [abstatic]
tdf#112384 Chapter Numbering: Allow line breaks for "separator, after" in the Chapter Numbering dialog [Adolfo Jayme Barrientos, Nithin Kumar Padavu]
tdf#112448 FILEOPEN, DOCX spurious blank line in text [Serge Krot]
tdf#112474 Statusbar: Clicking on page number section should open go to dialog [Jim Raykowski]
tdf#112481 Ability to add sheets on Calc on Android Viewer [Mert Tümer]
tdf#112482 Ability to add slides on Impress on Android Viewer [Mert Tümer]
tdf#112571 FILESAVE XLSX New named range is created every time an Excel made spreadsheet that contains print ranges is saved as XLSX [Eike Rathke]
tdf#112656 selected text is truncated in Calc sort dropdown [Zdeněk Crhonek]
tdf#112689 Replace chained O(U)StringBuffer::append() with operator+ [Shubham Verma]
tdf#112755 [NEWHELP] Reorder module Icons in top of the page [Olivier Hallot]
tdf#112757 [NEWHELP] Improvements required in index search [Ilmari Lauhakangas]
tdf#112758 [NEWHELP] Improve UX of online help pages on tabs attributes [Ilmari Lauhakangas]
tdf#112886 FILESAVE DOCX: Each save adds a tab space to footnotes [Justin Luth]
tdf#113070 Master document: No difference between subdocuments from a master created with outline level 1 and outline level 2 [Ahmed GHANMI]
tdf#113183 FILEOPEN DOCX: Text box alignment "right" from "page" too far right (due to another text box?) [Miklos Vajna]
tdf#113197 FILEOPEN: EMF+ Incorrect lines' height [Armin Le Grand]
tdf#113239 UI Spin button field for Column spacing (in Sections / Page styles) changes with 0,01 cm :) [brian houston morrow]
tdf#113258 FILEOPEN: Text in shape in a docx document is misplaced (partially cut) when opening in LO [Miklos Vajna]
tdf#113275 Last line drop down and expand single word check box should only be show active for Justified [Jim Raykowski]
tdf#113284 Crash opening index dialog [Zdeněk Crhonek]
tdf#113377 Crash in: OpenGLContext::AcquireFramebuffer(OpenGLTexture const &) [Miklos Vajna]
tdf#113413 LibO hangs at the JRE Required dialog when creating a New Database [Michael Stahl]
tdf#113455 Impossible to clear "Width/Height in pages" after converting "Page style" sheet to Widget UI [Mike Kaganski]
tdf#113481 EDITING: it takes multiple backspace to delete one ideographic variation sequence [Mark Hung]
tdf#113558 Replace 'AutoFormat' button with table style listbox in insert table dialog [Gabor Kelemen, Furkan Tokac, heiko tietze]
tdf#113572 Copying a chart converts data ranges to data table [Vasily Melenchuk]
tdf#114477 Can't set character highlighting on a text box using sidebar highlighting icon. [Tamás Zolnai]
