[   1930765] resources::ResourceCacheDeviceV2::DoFetch downloading resource.rpf (hash 4dedd8d7f6ad770a83dd4818582f4f19b97de331) from http://139.99.125.59:30124/files/op-doors/resource.rpf
[   1931031] ResourceCache::AddEntry: Saved cache:v1:4dedd8d7f6ad770a83dd4818582f4f19b97de331 to the index cache.
[   1931047] ResourceCacheDevice: downloaded resource.rpf in 267 msec (size 135168)
[   1931093] resources::ResourceCacheDeviceV2::DoFetch downloading resource.rpf (hash f6b082a35d8e208fd31b1c54897c1e085770e219) from http://139.99.125.59:30124/files/op-health/resource.rpf
[   1931437] ResourceCache::AddEntry: Saved cache:v1:f6b082a35d8e208fd31b1c54897c1e085770e219 to the index cache.
      #   be generally two or three times faster.              #

Platform: 
  darwin x64

Trace: 
invicta+9212+men%E2%80%99s+gold+plated+stainless+steel+speedway+watch	01.08.2009 18:16:18	http://www.google.com/search?hl=en&q=1+Invicta+9212+Men%E2%80%99s+Gold+Plated+Stainless+Steel+Speedway+Watch+&aq=f&oq=&aqi=	Mozilla/4.0 (compatible; MSIE 7.0; Windows NT 6.0; Trident/4.0; SLCC1; .NET CLR 2.0.50727; Media Center PC 5.0; InfoPath.2; .NET CLR 3.5.30729; .NET CLR 3.0.30618; msn OptimizedIE8;ENUS)	69.234.34.226
fedex+field	01.08.2009 18:16:55	http://www.google.com/search?hl=en&client=firefox-a&rls=org.mozilla%3Aen-US%3Aofficial&hs=UBe&q=fedex+field+concert+parking&aq=f&oq=&aqi=	Mozilla/5.0 (Windows; N; Windows NT 5.1; en-US; rv:1.9.0.12) Gecko/2009070611 Firefox/3.0.12	68.228.13.150
fedex+field	01.08.2009 18:17:27	http://www.google.com/search?sourceid=navclient&ie=UTF-8&rlz=1T4TSHB_enUS246US248&q=parking+at+Fed+Ex+field+for+concert	Mozilla/4.0 (compatible; MSIE 8.0; Windows NT 6.0; Trident/4.0; GTB6; SLCC1; .NET CLR 2.0.50727; Media Center PC 5.0; .NET CLR 3.5.30729; .NET CLR 3.0.30618)	96.231.91.242
jonathan+campos	01.08.2009 18:17:33	http://www.google.com/url?sa=t&source=web&ct=res&cd=3&url=http%3A%2F%2Fcomicsunlimited.com%2Fcomics%2Findex.php%3Fjonathan%2Bcampos&ei=uIZ0Sv6rOIj-sQPPoIj0Ag&rct=j&q=Petty+Officer+Jonathan+Campos&usg=AFQjCNGI-cX6oaPhwePbeYlIekSqW1AQYA	Mozilla/5.0 (Windows; U; Windows NT 5.1; en-US; rv:1.9.0.12) Gecko/2009070611 YFF3 Firefox/3.0.12	99.10.165.147
petty+officer+jonathan+campos	01.08.2009 18:17:42	http://www.google.com/url?sa=t&source=web&ct=res&cd=2&url=http%3A%2F%2Fcomicsunlimited.com%2Fcomics%2Findex.php%3Fpetty%2Bofficer%2Bjonathan%2Bcampos&ei=uIZ0Sv6rOIj-sQPPoIj0Ag&rct=j&q=Petty+Officer+Jonathan+Campos&usg=AFQjCNEfwCdxt7slWX7dD8SrXdUGwDcOVQ	Mozilla/5.0 (Windows; U; Windows NT 5.1; en-US; rv:1.9.0.12) Gecko/2009070611 YFF3 Firefox/3.0.12	99.10.165.147
bullet+express	01.08.2009 18:18:20	http://www.google.com/search?hl=en&client=firefox-a&rls=org.mozilla%3Aen-US%3Aofficial&q=smoothies+recipes+for+turbo+chopper+express&aq=f&oq=&aqi=	Mozilla/5.0 (Windows; U; Windows NT 6.0; en-US; rv:1.9.0.12) Gecko/2009070611 Firefox/3.0.12 (.NET CLR 3.5.30729)	72.83.120.79
friendship+quotes	01.08.2009 18:18:36	http://www.google.co.in/search?q=great+famous+friendship+quotations&hl=en&start=20&sa=N	Mozilla/5.0 (Windows; U; Windows NT 5.1; en-US; rv:1.8.1.14) Gecko/20080404 Firefox/2.0.0.14	59.88.117.189
petty+officer+jonathan+campos	01.08.2009 18:29:07	http://www.google.com/search?hl=en&ie=ISO-8859-1&q=Petty+Officer+Jonathan+Campos+&aq=f&oq=&aqi=	Mozilla/4.0 (compatible; MSIE 7.0; AOL 9.1; AOLBuild 4334.5006; Windows NT 6.0; Trident/4.0; SLCC1; .NET CLR 2.0.50727; Media Center PC 5.0; .NET CLR 3.0.30618)	207.200.116.73
tim+hack+and+kelly+drew	01.08.2009 18:29:15	http://www.google.com/search?q=kelly+drew+murder&ie=utf-8&oe=utf-8&aq=t&rls=org.mozilla:en-US:official&client=firefox-a	Mozilla/5.0 (Macintosh; U; Intel Mac OS X 10.4; en-US; rv:1.9.0.12) Gecko/2009070609 Firefox/3.0.12	216.188.240.123
granicrete	01.08.2009 18:29:16	http://www.google.com/url?sa=t&source=web&ct=res&cd=3&url=http%3A%2F%2Fcomicsunlimited.com%2Fcomics%2Findex.php%3Fgranicrete&ei=H4l0Srj-CIiMMu-K2Ag&rct=j&q=granicrete+epoxy&usg=AFQjCNFe1ROCoOhqClBQ5dQlO_kV5JyJvA	Mozilla/5.0 (Windows; U; Windows NT 5.1; en-US; rv:1.9.0.11) Gecko/2009060215 Firefox/3.0.11	68.13.57.157
swift+boat+ads	01.08.2009 18:29:21	http://www.google.com/search?q=swift+boat+accurate&ie=utf-8&oe=utf-8&aq=t&rls=org.mozilla:en-US:official&client=firefox-a	Mozilla/5.0 (Macintosh; U; Intel Mac OS X 10.5; en-US; rv:1.9.0.12) Gecko/2009070609 Firefox/3.0.12	151.200.35.89
socorro+caro	01.08.2009 18:29:47	http://www.google.com/search?hl=en&q=Socorro+Caro+&aq=f&oq=&aqi=	Mozilla/4.0 (compatible; MSIE 6.0; Windows NT 5.1; SV1; .NET CLR 1.1.4322)	69.228.37.117
sono+arts+festival	01.08.2009 18:30:01	http://www.google.com/search?q=sono+festival%2C+ct&rls=com.microsoft:en-us:IE-SearchBox&ie=UTF-8&oe=UTF-8&sourceid=ie7&rlz=1I7GZHZ_en	Mozilla/4.0 (compatible; MSIE 8.0; Windows NT 5.1; Trident/4.0; (R1 1.5); .NET CLR 1.1.4322; .NET CLR 2.0.50727; .NET CLR 3.0.4506.2152; .NET CLR 3.5.30729)	67.87.5.227
fedex+field	01.08.2009 18:30:17	http://www.google.com/search?q=fedex+field+concert+parking&ie=utf-8&oe=utf-8&aq=t&rls=org.mozilla:en-US:official&client=firefox-a	Mozilla/5.0 (Windows; U; Windows NT 6.0; en-US; rv:1.9.1.1) Gecko/20090715 Firefox/3.5.1 (.NET CLR 3.5.30729)	98.231.248.30
drake+falls+on+stage	01.08.2009 18:30:22	http://www.google.com/search?q=drake+bell+falls&ie=utf-8&oe=utf-8&aq=t&rls=org.mozilla:en-US:official&client=firefox-a	Mozilla/5.0 (Windows; U; Windows NT 5.1; en-US; rv:1.9.0.12) Gecko/2009070611 Firefox/3.0.12	75.85.215.174
musikfest	01.08.2009 18:31:11	http://www.google.com/search?hl=en&rlz=1R2ADBF_en&ei=3ol0Ss79CtKPtgehmNWWCQ&sa=X&oi=spell&resnum=0&ct=result&cd=1&q=transportation+to+musikfest&spell=1	Mozilla/4.0 (compatible; MSIE 7.0; Windows NT 6.0; FunWebProducts; GTB6; SLCC1; .NET CLR 2.0.50727; Media Center PC 5.0; .NET CLR 3.5.21022; .NET CLR 3.5.30729; .NET CLR 3.0.30618)	65.78.126.225
drake+falls+on+stage	01.08.2009 18:31:22	http://www.google.com/search?q=drake+bell+falls&ie=utf-8&oe=utf-8&aq=t&rls=org.mozilla:en-US:official&client=firefox-a	Mozilla/5.0 (Windows; U; Windows NT 5.1; en-US; rv:1.9.0.12) Gecko/2009070611 Firefox/3.0.12	75.85.215.174
providence+journal	01.08.2009 18:31:50	http://www.google.com/search?sourceid=navclient&ie=UTF-8&rlz=1T4ADBF_enUS282US325&q=projo+august+1	Mozilla/4.0 (compatible; MSIE 7.0; Windows NT 5.1; GTB6; .NET CLR 1.1.4322)	72.209.61.202
tim+hack+and+kelly+drew	01.08.2009 18:31:51	http://www.google.com/m/search?q=+Tim+Hack+and+Kelly+Drew+photo	Mozilla/4.0 (compatible; MSIE 6.0; Windows CE; IEMobile 7.11) Sprint:PPC6800	99.207.183.91
fedex+field	01.08.2009 18:32:48	http://www.google.com/search?hl=en&q=fedex+field+parking+concert&aq=f&oq=&aqi=	Mozilla/5.0 (Macintosh; U; Intel Mac OS X 10_4_11; en) AppleWebKit/530.19.2 (KHTML, like Gecko) Version/4.0.2 Safari/530.19	71.178.221.193
sayville+summerfest	01.08.2009 18:32:51	http://www.google.com/search?hl=en&client=firefox-a&channel=s&rls=org.mozilla:en-US:official&hs=Z7y&ei=SIp0SvGADdj7tgfJp9yWCQ&sa=X&oi=spell&resnum=0&ct=result&cd=1&q=summerfest+sayville&spell=1	Mozilla/5.0 (Windows; U; Windows NT 6.0; en-US; rv:1.9.0.12) Gecko/2009070611 Firefox/3.0.12	69.113.243.95
x+games+15+moto+x+best+trick	01.08.2009 18:33:05	http://www.google.se/search?hl=sv&ei=N4p0SvzKCJDX-QbR163LBw&sa=X&oi=spell&resnum=0&ct=result&cd=1&q=summer+x+games+15+live+stream&spell=1	Mozilla/5.0 (Windows; U; Windows NT 6.0; sv-SE; rv:1.9.0.12) Gecko/2009070611 Firefox/3.0.12 (.NET CLR 3.5.30729)	195.67.145.212
tim+hack+and+kelly+drew	01.08.2009 18:33:28	http://www.google.com/search?hl=en&q=kelly+drew+killing&rlz=1R2DBMX_es&aq=f&oq=&aqi=	Mozilla/4.0 (compatible; MSIE 7.0; Windows NT 6.0; GTB6; SLCC1; .NET CLR 2.0.50727; .NET CLR 3.5.30729; .NET CLR 3.0.30618)	201.172.124.241
what+did+greg+mcmackin+say	01.08.2009 18:33:53	http://www.google.com/search?hl=en&q=what+did+the+hawaii+coach+say&aq=f&oq=&aqi=	Mozilla/4.0 (compatible; MSIE 7.0; Windows NT 5.1; .NET CLR 1.1.4322)	24.196.133.2
x+games+15+moto+x+best+trick	01.08.2009 18:34:38	http://www.google.com/search?client=firefox-a&rls=org.mozilla%3Aen-US%3Aofficial&channel=s&hl=en&q=x+games+best+trick+7%2F31&btnG=Google+Search	Mozilla/5.0 (Macintosh; U; Intel Mac OS X 10.4; en-US; rv:1.9.0.12) Gecko/2009070609 Firefox/3.0.12	24.188.144.187
petty+officer+jonathan+campos	01.08.2009 18:34:52	http://www.google.com/search?sourceid=navclient&ie=UTF-8&rlz=1T4SNYC_enUS317US317&q=Petty+Officer+Jonathan+Campos+	Mozilla/4.0 (compatible; MSIE 6.0; Windows NT 5.1; SV1; GTB6)	74.131.200.59
fedex+field	01.08.2009 18:35:05	http://www.google.com/search?q=what+time+does+Fedex+Field+open+up&btnG=Search&hl=en&client=firefox-a&channel=s&rls=org.mozilla%3Aen-US%3Aofficial&hs=5jJ&sa=2	Mozilla/5.0 (Windows; U; Windows NT 6.0; en-US; rv:1.9.0.12) Gecko/2009070611 Firefox/3.0.12	71.114.90.26
friendship+quotes	01.08.2009 18:35:13	http://www.google.com/search?hl=en&q=loosing+friends+quotes+for+myspace&aq=f&oq=&aqi=	Mozilla/4.0 (compatible; MSIE 8.0; Windows NT 5.1; Trident/4.0; .NET CLR 1.1.4322)	69.205.149.101
socorro+caro	01.08.2009 18:35:49	http://www.google.com/search?hl=en&q=socorro+caro&aq=0z&oq=socorr&aqi=g-z1g9	Mozilla/4.0 (compatible; MSIE 7.0; Windows NT 5.1; .NET CLR 1.1.4322; .NET CLR 2.0.50727)	173.75.217.130
socorro+caro	01.08.2009 18:36:23	http://www.google.com/search?q=Socorro+Caro&rls=com.microsoft:en-us&ie=UTF-8&oe=UTF-8&startIndex=&startPage=1	Mozilla/4.0 (compatible; MSIE 8.0; Windows NT 6.1; WOW64; Trident/4.0; SLCC2; .NET CLR 2.0.50727; .NET CLR 3.5.30729; .NET CLR 3.0.30729; Media Center PC 6.0; InfoPath.2)	24.148.206.159
                ./.-29  ==  ./.-4                 SUB    $0.867  [E, sim, Esz]
2AK4	ALASKA	HOMER OYSTER COVE 	afd	al_95_25OCT2007.png
KVL	ALASKA	KIVALINA	afd	al_120_25OCT2007.png
nilfs filesystem (FEATURE_VOLUMEID_NILFS) [N/y/?] n
Yarn version: 
[22:42:46] Amazon: [-] 3697/7825 download failed (Return: -) - http://www.puertorealhoy.es/2010/06/26/magister-centro-de-estudios/
[22:42:45] Mesothelioma: [-] 0530/7981 registration failed (user registration is currently not allowed.) - http://lookwestlondon.com/wp-login.php?registration=disabled
)
ciInstanceKlass java/lang/NoClassDefFoundError 0 0 21 10 10 100 100 1 1 1 5 0 1 1 1 1 1 1 1 12 12 1 1
Package: kvsetkeys 2019/12/15 v1.18 Key value parser (HO)
) (/usr/local/texlive/2021/texmf-dist/tex/generic/kvdefinekeys/kvdefinekeys.sty
Package: kvdefinekeys 2019-12-19 v1.6 Define keys (HO)
) (/usr/local/texlive/2021/texmf-dist/tex/generic/pdfescape/pdfescape.sty
Package: pdfescape 2019/12/09 v1.15 Implements pdfTeX's escape features (HO)
) (/usr/local/texlive/2021/texmf-dist/tex/latex/hycolor/hycolor.sty
Package: hycolor 2020-01-27 v1.10 Color options for hyperref/bookmark (HO)
) (/usr/local/texlive/2021/texmf-dist/tex/latex/letltxmacro/letltxmacro.sty
Package: letltxmacro 2019/12/03 v1.6 Let assignment for LaTeX macros (HO)
) (/usr/local/texlive/2021/texmf-dist/tex/latex/auxhook/auxhook.sty
Package: auxhook 2019-12-17 v1.6 Hooks for auxiliary files (HO)
) (/usr/local/texlive/2021/texmf-dist/tex/latex/kvoptions/kvoptions.sty
Package: kvoptions 2020-10-07 v3.14 Key value format for package options (HO)
)
\@linkdim=\dimen284
\Hy@linkcounter=\count336
\Hy@pagecounter=\count337
 (/usr/local/texlive/2021/texmf-dist/tex/latex/hyperref/pd1enc.def
File: pd1enc.def 2021-02-27 v7.00k Hyperref: PDFDocEncoding definition (HO)
Now handling font encoding PD1 ...
... no UTF-8 mapping file for font encoding PD1
) (/usr/local/texlive/2021/texmf-dist/tex/latex/hyperref/hyperref-langpatches.def
File: hyperref-langpatches.def 2021-02-27 v7.00k Hyperref: patches for babel languages
) (/usr/local/texlive/2021/texmf-dist/tex/generic/intcalc/intcalc.sty
Package: intcalc 2019/12/15 v1.3 Expandable calculations with integers (HO)
) (/usr/local/texlive/2021/texmf-dist/tex/generic/etexcmds/etexcmds.sty
Package: etexcmds 2019/12/15 v1.7 Avoid name clashes with e-TeX commands (HO)
)
\Hy@SavedSpaceFactor=\count338
 (/usr/local/texlive/2021/texmf-dist/tex/latex/hyperref/puenc.def
i#111934 block selection area changes slightly on copy to clipboard [Stephan Bergmann]
2016-02-23 15:45:25,573  INFO Injector:68 org.matsim.core.router.RoutingModule @com.google.inject.name.Named(value=bike)
./Film/Willow
make[1]: Leaving directory '/builds/free-electrons/toolchains-builder/buildroot'
>>> host-lzip 1.18 Downloading
--2017-06-13 11:58:54--  http://download.savannah.gnu.org/releases/lzip/lzip-1.18.tar.gz
Resolving download.savannah.gnu.org (download.savannah.gnu.org)... 208.118.235.200
Connecting to download.savannah.gnu.org (download.savannah.gnu.org)|208.118.235.200|:80... connected.
HTTP request sent, awaiting response... 302 Moved Temporarily
Location: http://download-mirror.savannah.gnu.org/releases/lzip/lzip-1.18.tar.gz [following]
--2017-06-13 11:58:54--  http://download-mirror.savannah.gnu.org/releases/lzip/lzip-1.18.tar.gz
Resolving download-mirror.savannah.gnu.org (download-mirror.savannah.gnu.org)... 208.118.235.200
Reusing existing connection to download.savannah.gnu.org:80.
HTTP request sent, awaiting response... 200 OK
Length: 95569 (93K) [application/octet-stream]
Saving to: '/builds/free-electrons/toolchains-builder/build/tmp/test-x86-64-core-i7--uclibc--stable/build/.lzip-1.18.tar.gz.RZzY1w/output'

     0K .......... .......... .......... .......... .......... 53% 3.46M 0s
    50K .......... .......... .......... .......... ...       100% 65.2M=0.01s
make[1]: Leaving directory '/builds/free-electrons/toolchains-builder/build/tmp/test-x86-64-core-i7--uclibc--stable/build/host-lzip-1.18'
>>> skeleton  Extracting
>>> skeleton  Patching
>>> skeleton  Configuring
>>> skeleton  Building
>>> skeleton  Installing to staging directory
/usr/bin/install -d -m 0755 /builds/free-electrons/toolchains-builder/build/tmp/test-x86-64-core-i7--uclibc--stable/host/usr/x86_64-buildroot-linux-uclibc/sysroot/usr/lib
/usr/bin/install -d -m 0755 /builds/free-electrons/toolchains-builder/build/tmp/test-x86-64-core-i7--uclibc--stable/host/usr/x86_64-buildroot-linux-uclibc/sysroot/usr/bin
/usr/bin/install -d -m 0755 /builds/free-electrons/toolchains-builder/build/tmp/test-x86-64-core-i7--uclibc--stable/host/usr/x86_64-buildroot-linux-uclibc/sysroot/usr/sbin
/usr/bin/install -d -m 0755 /builds/free-electrons/toolchains-builder/build/tmp/test-x86-64-core-i7--uclibc--stable/host/usr/x86_64-buildroot-linux-uclibc/sysroot/usr/include
/usr/bin/install -d -m 0755 /builds/free-electrons/toolchains-builder/build/tmp/test-x86-64-core-i7--uclibc--stable/host/usr/x86_64-buildroot-linux-uclibc/sysroot/bin
/usr/bin/install -d -m 0755 /builds/free-electrons/toolchains-builder/build/tmp/test-x86-64-core-i7--uclibc--stable/host/usr/x86_64-buildroot-linux-uclibc/sysroot/sbin
/usr/bin/install -d -m 0755 /builds/free-electrons/toolchains-builder/build/tmp/test-x86-64-core-i7--uclibc--stable/host/usr/x86_64-buildroot-linux-uclibc/sysroot/lib
ln -snf lib /builds/free-electrons/toolchains-builder/build/tmp/test-x86-64-core-i7--uclibc--stable/host/usr/x86_64-buildroot-linux-uclibc/sysroot/lib64
