Driver file for pgf: pgfsys-pdftex.def
 (/usr/local/texlive/2021/texmf-dist/tex/generic/pgf/systemlayer/pgfsys-pdftex.def
petty+officer+jonathan+campos	01.08.2009 23:51:22	http://www.google.com/search?hl=en&q=Petty+Officer+Jonathan+Campos&btnG=Google+Search&aq=f&oq=&aqi=	Mozilla/4.0 (compatible; MSIE 6.0; Windows NT 5.1; Q312461; SV1)	162.136.192.1
sono+arts+festival	01.08.2009 23:51:32	http://search.aol.com/aol/search?s_it=topsearchbox.search&q=sono+arts+fest	Mozilla/4.0 (compatible; MSIE 7.0; AOL 9.5; AOLBuild 4337.29; Windows NT 6.0; GTB6; SLCC1; .NET CLR 2.0.50727; .NET CLR 3.5.30729; .NET CLR 3.0.30618)	64.12.116.139
petty+officer+jonathan+campos	01.08.2009 23:51:47	http://www.google.com/search?client=safari&rls=en-us&q=Petty+Officer+Jonathan+Campos&ie=UTF-8&oe=UTF-8	Mozilla/5.0 (Macintosh; U; Intel Mac OS X 10_5_7; en-us) AppleWebKit/530.19.2 (KHTML, like Gecko) Version/4.0.2 Safari/530.19	12.107.116.131
what+did+greg+mcmackin+say	01.08.2009 23:52:29	http://www.google.com/search?q=what+did+the+uh+coach+say&rls=com.microsoft:en-us:IE-SearchBox&ie=UTF-8&oe=UTF-8&sourceid=ie7&rlz=1I7GCNV_en	Mozilla/4.0 (compatible; MSIE 7.0; Windows NT 5.1; (R1 1.6); .NET CLR 1.1.4322; InfoPath.1; .NET CLR 2.0.50727; .NET CLR 3.0.4506.2152; .NET CLR 3.5.30729)	173.65.107.151
tim+hack+and+kelly+drew	01.08.2009 23:52:45	http://www.google.com/search?q=tim+hack+and+kelly+drew+grave+site&hl=en&rls=com.microsoft%3Aen-us%3AIE-SearchBox&sa=2	Mozilla/4.0 (compatible; MSIE 8.0; Windows NT 5.1; Trident/4.0)	24.196.149.243
ERROR info.magnolia.aws.foundation.AwsCredentialsProvider 15.10.2020 00:12:42 -- AWS credentials are expected to be set in Password manager module.
[22:42:47] Online Degree: [-] 7901/8073 login not possible/awaiting verification (sorry, unrecognized username or password) - http://china.as.uky.edu/?q=user
[22:42:47] Social Media: [+] 0501/7976 new URL - http://madmimi.com/signups/120065/join?action=register
[22:42:48] Make money online: [-] 7831/8047 no engine matches (HTTP-Status: 400) - https://electrek.co
[22:42:48] Win News Time: [-] 7753/7826 download failed (Return: -) - https://unternehmermanufaktur.com
[22:42:48] Bollywood: [-] 0206/7884 download failed (Return: -) - http://enteresenet.blogspot.com/2009/08/cibertec-y-enteresenet-premiaron-con.html
[22:42:48] Mesothelioma: [+] 0535/7981 matches engine Wordpress Article - http://homecoming.journalism.cuny.edu/2012/05/14/map/
[22:42:48] Amazon: [+] 3702/7825 matches engine Wordpress Article - http://ed.gotway.com/
[22:42:47] Currency: [+] 7917/8085 new URL - http://www.aeroporttransport.com/wp-login.php?action=register
[22:42:47] Computer: [-] 0319/8028 no form at all - http://blog.chapterthirtyseven.com/wp-login.php?action=register
[22:42:48] Dwi Attorney: [-] 2918/7988 download failed (Return: -) - http://www.jangjin.kr/?document_srl=716089
[22:42:47] Justice degree: [+] 8027/8289 new URL - http://asmartpioneeragent.com/wp-login.php?action=register
[22:42:48] Make money online T2: [-] 3850/8483 download failed (Return: -) - http://www.trobank.com/h-e-edward-kiwanuka-ssekandi-pays-visit-to-our-newly-opened-kaliro-branch/
[22:42:48] Health: [-] 8193/8339 no engine matches - http://julieroys.com/can-you-lose-your-salvation-calvinism-vs-arminianism-explained/
[22:42:48] Car Insurance: [+] 4204/8012 matches engine Drupal - Blog - http://www.guardianms.com/content/sending-snmp-traps-splunk
[22:42:47] Sports: [-] 8087/8698 wrong engine detected (ezblog-dashboard|implement(easyblog) - http://mwm-zahid.com.ua/index.php?option=com_easyblog&view=dashboard&layout=write
[22:42:48] Precious metals: [-] 0108/8003 download failed (Return: -) - https://uniwaybezcanta.com/
[22:42:47] Social Media: [-] 0501/7976 no form at all - http://madmimi.com/signups/120065/join?action=register
[22:42:48] Mesothelioma: [+] 0535/7981 new URL - http://blogs.journalism.cuny.edu/wp-login.php?redirect_to=http%3A%2F%2Fblogs.journalism.cuny.edu%2Fwp-admin%2F&reauth=1
[22:42:48] Sports: [-] 8088/8698 download failed (Return: -) - http://www.cheapbreitlingsale.com/a-breitling-watch/
[22:42:48] Social Media: [-] 0502/7976 download failed (Return: -) - https://v-g.me.uk/blog/?p=139
[22:42:48] Currency: [-] 7918/8085 download failed (Return: -) - http://www.chimyen.biz
[22:42:48] Digital Marketing: [-] 0142/7912 no engine matches - http://www.cameraaxe.com/wiki/index.php?title=Main_Page
[22:42:48] Win News Time: [+] 7755/7826 matches engine Wordpress Article - http://ikwro.org.uk/2011/12/nearly-3000-cases-of-honour-violence-every-year-in-the-uk/
[22:42:48] Structured Settlement: [-] 8360/8547 no engine matches (HTTP-Status: 502) - http://www.rybarimb.cz
[22:42:48] Cooking TIPS: [-] 0208/7845 download failed (Return: -) - http://marlins.blog.palmbeachpost.com/2015/03/10/miami-marlins-shortstop-adeiny-hechavarria-to-throw-on-backfield-return-to-lineup-wednesday/
[22:42:48] Mesa DUI lawyer: [-] 8191/8413 download failed (Return: -) - http://www.crackingleaks.com.htmlserialize.co/
[22:42:48] Travels: [-] 8132/8261 download failed (Return: -) - http://diondee.com@clash-of-clans-hack-tool.net/
[22:42:48] Injury Lawyers: [+] 7883/7969 matches engine Wordpress Article - https://www.expertinsurancereviews.com/insurance-company-reviews/auto-owners-insurance-review/
[22:42:48] Health: [-] 8195/8339 download failed (Return: -) - http://bukbu.nodong.org/zbxe/?document_srl=10724108&mid=freeboard
[22:42:48] Amazon: [-] 3702/7825 submission failed (wp-login.php?redirect_to=) - http://ed.gotway.com/wp-login.php?redirect_to=http%3A%2F%2Fed.gotway.com%2Fwp-admin%2F&reauth=1
[2023.05.20-22.07.40:636][  0]LogTargetPlatformManager: Display: Loaded TargetPlatform 'Android_DXT'
Enable locale support (system needs locale for this to work) (LOCALE_SUPPORT) [N/y/?] n
\c@tcbbreakpart=\count324
\c@tcblayer=\count325
\c@tcolorbox@number=\count326
\tcb@temp=\box69
\tcb@temp=\box70
[      2422] [    GTAProcess]             MainThrd/ pre-gameload component scripting:gta
[      2422] [    GTAProcess]             MainThrd/ pre-gameload component conhost:v2
[      2532] [    GTAProcess]             MainThrd/ pre-gameload component citizen:scripting:core
[      2532] [    GTAProcess]             MainThrd/ pre-gameload component citizen:resources:client
[      2532] [    GTAProcess]             MainThrd/ pre-gameload component rage:device:five
[      2532] [    GTAProcess]             MainThrd/ pre-gameload component rage:nutsnbolts:five
[      2532] [    GTAProcess]             MainThrd/ Skipping XAudio2 patches - XAudio 2.7 is present.
[      2532] [    GTAProcess]             MainThrd/ pre-gameload component rage:input:five
[      2532] [    GTAProcess]             MainThrd/ pre-gameload component rage:graphics:five
[      2532] [    GTAProcess]             MainThrd/ pre-gameload component gta:core:five
[      2547] [    GTAProcess]             MainThrd/ pre-gameload component gta:game:five
[      2547] [    GTAProcess]             MainThrd/ pre-gameload component gta:mission-cleanup:five
[      2547] [    GTAProcess]             MainThrd/ pre-gameload component rage:formats:x
[      2547] [    GTAProcess]             MainThrd/ pre-gameload component gta:streaming:five
[      2547] [    GTAProcess]             MainThrd/ >16 GiB of system RAM, increasing streaming allocator size to 2 GiB
[      2547] [    GTAProcess]             MainThrd/ pre-gameload component citizen:level-loader:five
[      2547] [    GTAProcess]             MainThrd/ pre-gameload component net:base
[      2547] [    GTAProcess]             MainThrd/ pre-gameload component profiles
[      2547] [    GTAProcess]             MainThrd/ pre-gameload component net
[      2547] [    GTAProcess]             MainThrd/ pre-gameload component net:tcp-server
[      2547] [    GTAProcess]             MainThrd/ pre-gameload component scrbind:base
[      2547] [    GTAProcess]             MainThrd/ pre-gameload component voip:mumble
[      2547] [    GTAProcess]             MainThrd/ pre-gameload component gta:net:five
[      2563] [    GTAProcess]        CrBrowserMain/ failed to set discourse identity: [json.exception.type_error.302] type must be string, but is null
[      2688] [    GTAProcess]             MainThrd/ pre-gameload component citizen:resources:gta
[      2688] [    GTAProcess]             MainThrd/ pre-gameload component font-renderer
[      2688] [    GTAProcess]             MainThrd/ [FontRenderer] Initializing DirectWrite.
[      2688] [    GTAProcess]             MainThrd/ pre-gameload component nui:core
[      2688] [    GTAProcess]             MainThrd/ pre-gameload component nui:resources
[      2688] [    GTAProcess]             MainThrd/ pre-gameload component net:http-server
          Initialized FC_LINKER_FLAGS to []
          Initialized CUDAC_LINKER_FLAGS to []
          Initialized sharedLibraryFlags to []
          Initialized dynamicLibraryFlags to []
================================================================================
TEST checkCCompiler from config.setCompilers(/sandbox/petsc/petsc.next/config/BuildSystem/config/setCompilers.py:555)
TESTING: checkCCompiler from config.setCompilers(/sandbox/petsc/petsc.next/config/BuildSystem/config/setCompilers.py:555)
}
Executing: mpicc  -o /tmp/petsc-uGvYRc/config.setCompilers/conftest    /tmp/petsc-uGvYRc/config.setCompilers/conftest.o 
Testing executable /tmp/petsc-uGvYRc/config.setCompilers/conftest to see if it can be run
Executing: /tmp/petsc-uGvYRc/config.setCompilers/conftest
Executing: /tmp/petsc-uGvYRc/config.setCompilers/conftest
Executing: mpicc --version
stdout:
gcc (Ubuntu 5.4.0-6ubuntu1~16.04.11) 5.4.0 20160609
Copyright (C) 2015 Free Software Foundation, Inc.
This is free software; see the source for copying conditions.  There is NO
warranty; not even for MERCHANTABILITY or FITNESS FOR A PARTICULAR PURPOSE.
================================================================================
TEST checkCPreprocessor from config.setCompilers(/sandbox/petsc/petsc.next/config/BuildSystem/config/setCompilers.py:592)
TESTING: checkCPreprocessor from config.setCompilers(/sandbox/petsc/petsc.next/config/BuildSystem/config/setCompilers.py:592)
  Locate a functional C preprocessor
Checking for program /home/petsc/soft/mpich-3.3/bin/mpicc...found
              Defined make macro "CPP" to "mpicc -E"
Preprocessing source:
#include "confdefs.h"
#include "conffix.h"
#include <stdlib.h>
Executing: mpicc -E  -I/tmp/petsc-uGvYRc/config.setCompilers  /tmp/petsc-uGvYRc/config.setCompilers/conftest.c 
Preprocess stderr before filtering::
