21:38:12 T:139832867932032 WARNING: VIDEO database configuration is experimental.
21:38:12 T:139832867932032  NOTICE: Default DVD Player: dvdplayer
21:38:12 T:139832867932032  NOTICE: Default Video Player: dvdplayer
 Version 1.25.0 (7 JULY 2018)
  ... 678702 links, 0 broken links (0%)                                          (23:55.882)
Build final .zip                                                                 (23:55.882)
[2023.05.20-22.07.39:933][  0]LogConfig: Set CVar [[r.DOF.Gather.RingCount:4                 ; medium number of samples when gathering]]
x+games+15+moto+x+best+trick	01.08.2009 19:06:19	http://www.google.com/search?client=safari&rls=en-us&q=x+games+15+best+trick+moto+bilko&ie=UTF-8&oe=UTF-8	Mozilla/5.0 (Macintosh; U; Intel Mac OS X 10_5_6; en-us) AppleWebKit/525.27.1 (KHTML, like Gecko) Version/3.2.1 Safari/525.27.1	75.85.175.181
market+days+chicago+2009	01.08.2009 19:06:34	http://www.google.com/search?client=safari&rls=en-us&q=market+days+admission&ie=UTF-8&oe=UTF-8	Mozilla/5.0 (Macintosh; U; Intel Mac OS X 10_5_7; en-us) AppleWebKit/530.19.2 (KHTML, like Gecko) Version/4.0.2 Safari/530.19	67.184.177.204
socorro+caro	01.08.2009 18:02:00	http://www.google.com/search?sourceid=navclient&aq=0&oq=socorr&ie=UTF-8&rlz=1T4HPND_enUS239US241&q=socorro+caro	Mozilla/4.0 (compatible; MSIE 6.0; Windows NT 5.1; SV1; GTB6; .NET CLR 1.1.4322; .NET CLR 2.0.50727; .NET CLR 3.0.04506.30; InfoPath.1)	74.1.234.74
Matching relations are: []

                ,/,-42  ==                        DEL    $0.429  [D]
              in/IN-43  ==                        DEL    $0.429  [D]
        response/NN-44  ==                        DEL    $0.429  [D]
              to/TO-45  ==                        DEL    $0.429  [D]
           our/PRP$-46  ==                        DEL    $0.429  [D]
tdf#114913 FILEOPEN: PPTX: Bullets size is too small [Paul Trojahn]
tdf#114935 Document will lose focus after using the floating windows color picker [Maxim Monastirsky]
tdf#114939 rtl_digest SHA1 and MD5 code both have an off by 1 bug [Stephan Bergmann, Michael Stahl]
tdf#114952 filep is still used in soltools/mkdepend/parse.c [Noel Grandin]
tdf#114992 Delete a sheet in a calc document and LO crashes. [Zdeněk Crhonek]
     Temperature Stabiliz.    : none
[   1962672] overriding handle for mp_f_freemode_01/accs_diff_015_j_uni.ytd (was 4cd011e) -> 213
./Film/by_John_Williams/JOHN%20WILLIAMS%20GREATEST%20HITS/CD01
[      2688] [    GTAProcess]             MainThrd/ pre-gameload component nui:resources
PCSetUp                1 1.0 4.0531e-06 1.0 0.00e+00 0.0 0.0e+00 0.0e+00 0.0e+00  0  0  0  0  0   0  0  0  0  0     0
PCApply            21548 1.0 1.4163e+00 1.0 4.69e+08 1.0 0.0e+00 0.0e+00 0.0e+00  1  0  0  0  0   1  0  0  0  0   331
* checking for hidden files and directories ... OK
	at info.magnolia.cms.filters.MgnlFilterChain.doFilter(MgnlFilterChain.java:79) [magnolia-core-6.2.3.jar:?]
	at info.magnolia.cms.filters.MgnlFilterChain.doFilter(MgnlFilterChain.java:81) [magnolia-core-6.2.3.jar:?]
	at java.lang.Thread.run(Thread.java:748) [?:1.8.0_252]
Caused by: java.lang.reflect.InvocationTargetException
socorro+caro	01.08.2009 18:50:14	http://www.google.ca/search?q=Socorro+Caro&ie=utf-8&oe=utf-8&aq=t&rls=org.mozilla:en-US:official&client=firefox-a	Mozilla/5.0 (Windows; U; Windows NT 5.1; en-US; rv:1.9.0.12) Gecko/2009070611 Firefox/3.0.12	70.51.230.158
pan+mass+challenge+route	01.08.2009 18:50:15	http://www.google.com/search?sourceid=navclient&ie=UTF-8&rlz=1T4GZAZ_enUS270US270&q=pan+mass+challenge+route	Mozilla/4.0 (compatible; MSIE 8.0; Windows NT 5.1; Trident/4.0; GTB6; .NET CLR 1.1.4322; yie8)	24.128.164.170
beach+to+beacon+2009	01.08.2009 18:50:19	http://www.google.com/search?hl=en&q=beach+to+beacon+2009+list+of+times&aq=f&oq=&aqi=	Mozilla/5.0 (Macintosh; U; Intel Mac OS X 10_4_11; en) AppleWebKit/525.27.1 (KHTML, like Gecko) Version/3.2.1 Safari/525.27.1	72.224.222.157
                        ==  Fenastras/NNS-0       INS    $0.377  [I]
            FMLN/NNP-0  ==  FMLN/NNP-4            SUB    $0.849  [E, sim, Esz, d:0.800]
   900K .......... .......... .......... .......... .......... 45%  146M 2s

	... 121 more
ERROR info.magnolia.admincentral.AdmincentralErrorHandler 15.10.2020 00:15:59 -- AdmincentralUI has encountered an unhandled exception.
com.vaadin.server.ServerRpcManager$RpcInvocationException: Unable to invoke method setNodeCollapsed in com.vaadin.shared.ui.treegrid.NodeCollapseRpc
	at com.vaadin.server.ServerRpcManager.applyInvocation(ServerRpcManager.java:159) ~[vaadin-server-8.9.4.jar:8.9.4]
	at com.vaadin.server.ServerRpcManager.applyInvocation(ServerRpcManager.java:116) ~[vaadin-server-8.9.4.jar:8.9.4]
	at com.vaadin.server.communication.ServerRpcHandler.handleInvocation(ServerRpcHandler.java:445) [vaadin-server-8.9.4.jar:8.9.4]
	at com.vaadin.server.communication.ServerRpcHandler.handleInvocations(ServerRpcHandler.java:410) [vaadin-server-8.9.4.jar:8.9.4]
	at com.vaadin.server.communication.ServerRpcHandler.handleRpc(ServerRpcHandler.java:274) [vaadin-server-8.9.4.jar:8.9.4]
	at com.vaadin.server.communication.UidlRequestHandler.synchronizedHandleRequest(UidlRequestHandler.java:90) [vaadin-server-8.9.4.jar:8.9.4]
	at com.vaadin.server.SynchronizedRequestHandler.handleRequest(SynchronizedRequestHandler.java:40) [vaadin-server-8.9.4.jar:8.9.4]
	at com.vaadin.server.VaadinService.handleRequest(VaadinService.java:1602) [vaadin-server-8.9.4.jar:8.9.4]
	at com.vaadin.server.VaadinServlet.service(VaadinServlet.java:448) [vaadin-server-8.9.4.jar:8.9.4]
	at info.magnolia.admincentral.AdmincentralServlet.service(AdmincentralServlet.java:119) [magnolia-admincentral-6.2.3.jar:?]
	at javax.servlet.http.HttpServlet.service(HttpServlet.java:741) [servlet-api.jar:?]
	at info.magnolia.cms.filters.ServletDispatchingFilter.doFilter(ServletDispatchingFilter.java:148) [magnolia-core-6.2.3.jar:?]
	at info.magnolia.cms.filters.AbstractMgnlFilter.doFilter(AbstractMgnlFilter.java:85) [magnolia-core-6.2.3.jar:?]
	at info.magnolia.cms.filters.MgnlFilterChain.doFilter(MgnlFilterChain.java:79) [magnolia-core-6.2.3.jar:?]
	at info.magnolia.cms.filters.MgnlFilterChain.doFilter(MgnlFilterChain.java:81) [magnolia-core-6.2.3.jar:?]
	at info.magnolia.cms.filters.MgnlFilterChain.doFilter(MgnlFilterChain.java:81) [magnolia-core-6.2.3.jar:?]
	at info.magnolia.cms.filters.MgnlFilterChain.doFilter(MgnlFilterChain.java:81) [magnolia-core-6.2.3.jar:?]
	at info.magnolia.cms.filters.MgnlFilterChain.doFilter(MgnlFilterChain.java:81) [magnolia-core-6.2.3.jar:?]
	at info.magnolia.cms.filters.MgnlFilterChain.doFilter(MgnlFilterChain.java:81) [magnolia-core-6.2.3.jar:?]
	at info.magnolia.cms.filters.MgnlFilterChain.doFilter(MgnlFilterChain.java:81) [magnolia-core-6.2.3.jar:?]
	at info.magnolia.cms.filters.CompositeFilter.doFilter(CompositeFilter.java:65) [magnolia-core-6.2.3.jar:?]
	at info.magnolia.cms.filters.AbstractMgnlFilter.doFilter(AbstractMgnlFilter.java:85) [magnolia-core-6.2.3.jar:?]
	at info.magnolia.cms.filters.MgnlFilterChain.doFilter(MgnlFilterChain.java:79) [magnolia-core-6.2.3.jar:?]
	at info.magnolia.virtualuri.VirtualUriFilter.doFilter(VirtualUriFilter.java:98) [magnolia-virtual-uri-6.2.3.jar:?]
	at info.magnolia.cms.filters.AbstractMgnlFilter.doFilter(AbstractMgnlFilter.java:85) [magnolia-core-6.2.3.jar:?]
	at info.magnolia.cms.filters.MgnlFilterChain.doFilter(MgnlFilterChain.java:79) [magnolia-core-6.2.3.jar:?]
	at info.magnolia.module.cache.executor.Bypass.processCacheRequest(Bypass.java:58) [magnolia-cache-core-5.9.1.jar:?]

Executing: uname -s
-- [download 10% complete]
<09:38AM tasm> why?????????
<09:38AM tasm> ??
(KD4CQY/#earthquake) Northridge fashion mall, Bullocks completeley destroyed
(KD4CQY/#earthquake) IF thishad happened during the day.. wow
<09:38AM DrStupid> KCRA-NBC - OES - National Guard have been activated (and are the ones flying the Governor to LA)
<09:38AM KFWB> 5 freeway shutdown near mcbean parkware
<09:38AM KFWB> Bullocks is NOT completely destroyed (I saw pictures) I portion collapsed however.
(KD4CQY/#earthquake) Amateur Radio Radiograms OUTBOUND of stricken area, go to channel #ARES to send radiogram OUTBOUND from LA
<09:39AM KFWB> 118 Shutdown from Reseda to the 5
*** Netsplit at 09:39:33 (irc-2.mit.edu polaris.ctr.columbia.edu)
(KD4CQY/#earthquake) KFWB, what I'm looking at on TV looks COMPLETELY DESTROYED
(KD4CQY/#earthquake) all floors collapsed
<09:39AM DrStupid> KCRA-NBC - OES - Director of FEMA is on the way out to LA from East Coast.
<09:39AM KNBC> I dont have specific city info but if you need any other info, /msg me
(Sea-Marie/#earthquake) <-- will relay for ppl w/out voice
<09:40AM KRON-SF> KNBC -- see this?
<09:40AM KFWB> KD4: REally?  It looked like a portion of the roof collapsed.  That's not an old building (I've shopped their) and it looked like it was at least 70% ok
(WildEep/#earthquake) KNBC: Granda Hills hospital calling for medical personal available to report for volunteer help.  They are swamped.
<09:40AM KNBC> kron- yes
<09:41AM tasm> cbs - 50,000 lines down in culver city
--> "+v NPR_News" mode change by KNBC on #earthquake
<09:41AM DrStupid> KCRA-NBC - OES - there are a number of roads closed.  high wind advisories...
<09:41AM KNBC> NPR news you can talk now
(KD4CQY/#earthquake) KFWB, just what I see. All floors collapsed. :( I'm from LA but been gone 10 years... :)
<09:41AM KFWB> I have info for Northridge area (I live(d) there)  /msg me
<09:49AM tasm> and Katey cut her off
<09:49AM DrStupid> tasm: :)
<09:50AM DrStupid> Northridge Meadows Apartments
<09:50AM KNBC> NPRnews- no
<09:50AM DrStupid> 5 confirmed dead at the 3story -> 2 story collapse
PROC_CREATOR_COUNT N14 : protonInelastic = 256
what+did+greg+mcmackin+say	01.08.2009 21:45:31	http://www.google.com/search?client=firefox-a&rls=org.mozilla%3Aen-US%3Aofficial&channel=s&hl=en&q=Greg+McMackin&btnG=Google+Search	Mozilla/5.0 (Windows; U; Windows NT 5.1; en-US; rv:1.9.1.1) Gecko/20090715 Firefox/3.5.1	76.93.95.186
;
  return 0;
}
Executing: mpicxx -c -o /tmp/petsc-uGvYRc/config.setCompilers/conftest.o -I/tmp/petsc-uGvYRc/config.setCompilers     /tmp/petsc-uGvYRc/config.setCompilers/conftest.cc 
Successful compile:
Source:
#include "confdefs.h"
#include "conffix.h"
#include <stdio.h>
int (*fprintf_ptr)(FILE*,const char*,...) = fprintf;
void  foo(void){
  fprintf_ptr(stdout,"hello");
  return;
}
void bar(void){foo();}
Executing: mpicc  -o /tmp/petsc-uGvYRc/config.setCompilers/libconftest.so  -shared  /tmp/petsc-uGvYRc/config.setCompilers/conftest.o 
          Accepted Cxx PIC code without compiler flag
          Trying FC for PIC code without any compiler flag
Executing: mpif90 -c -o /tmp/petsc-uGvYRc/config.setCompilers/conftest.o -I/tmp/petsc-uGvYRc/config.setCompilers     /tmp/petsc-uGvYRc/config.setCompilers/conftest.F90 
Successful compile:
Source:
      program main

      end
Executing: mpif90 -c -o /tmp/petsc-uGvYRc/config.setCompilers/conftest.o -I/tmp/petsc-uGvYRc/config.setCompilers   /tmp/petsc-uGvYRc/config.setCompilers/conftest.F90 
Successful compile:
Source:
      function foo(a)
      real:: a,x,bar
      common /xx/ x
0V7	ARIZONA	KAYENTA	afd	sw_16_25OCT2007.png
[2023.05.20-22.07.39:932][  0]LogConfig: Applying CVar settings from Section [AntiAliasingQuality@3] File [Scalability]
ERROR info.magnolia.ai.text.TextClassificationModule 15.10.2020 00:12:42 -- Submission of text classification request has been failed at page path '/travel/members' with error code: 'null'.
ERROR info.magnolia.aws.foundation.AwsCredentialsProvider 15.10.2020 00:12:42 -- AWS credentials are expected to be set in Password manager module.
ERROR info.magnolia.ai.text.TextClassificationModule 15.10.2020 00:12:42 -- Submission of text classification request has been failed at page path '/travel/tour-finder' with error code: 'null'.
\currentminute=\count304
\currentsecond=\count305
Package datetime Info: No datetime.cfg file found, using default settings on input line 308.
\@dtctr=\count306
\dayofyear=\count307
\dayofweek=\count308
LaTeX Info: Redefining \today on input line 736.
\dt@a=\toks35
\dt@b=\toks36
) (/usr/local/texlive/2021/texmf-dist/tex/latex/titlesec/titlesec.sty
Package: titlesec 2019/10/16 v2.13 Sectioning titles
\ttl@box=\box53
\beforetitleunit=\skip68
\aftertitleunit=\skip69
\ttl@plus=\dimen163
 (/usr/local/texlive/2021/texmf-dist/tex/latex/adjustbox/tc-pdftex.def
File: tc-pdftex.def 2019/01/04 v2.2 Clipping driver for pdftex
))
\adjbox@Width=\dimen172
\adjbox@Height=\dimen173
\adjbox@Depth=\dimen174
\adjbox@Totalheight=\dimen175
\adjbox@pwidth=\dimen176
\adjbox@pheight=\dimen177
\adjbox@pdepth=\dimen178
\adjbox@ptotalheight=\dimen179
 (/usr/local/texlive/2021/texmf-dist/tex/latex/ifoddpage/ifoddpage.sty
Package: ifoddpage 2016/04/23 v1.1 Conditionals for odd/even page detection
\c@checkoddpage=\count309
) (/usr/local/texlive/2021/texmf-dist/tex/latex/varwidth/varwidth.sty
./JeuxVideos/Shining_Soul_1
./JeuxVideos/Soul_Calibur_Broken_Destiny
[   1966000] overriding handle for mp_f_freemode_01_female_freemode_hipster/accs_000_u.ydd (was 5ba001e) -> 38e
[   1966015] overriding handle for mp_f_freemode_01_female_freemode_hipster/jbib_001_u.ydd (was 5ba0029) -> 398
  <p>Hands Across the Divide was formed in March_2001 , and one of its immediate aims was to press for more freedom of contact and communication right away between the two parts of Cyprus , and for early progress towards a solution to ` the Cyprus problem ' .</p>
  <h>Cyprus was divided into two parts in March_2001 .</h>
12:32:05 T:6472  NOTICE:         m_deviceType      : AE_DEVTYPE_IEC958
12:32:05 T:6472  NOTICE:         m_channels        : FL,FR
12:32:05 T:6472  NOTICE:         m_sampleRates     : 192000,96000,48000,44100
12:32:05 T:6472  NOTICE:         m_dataFormats     : AE_FMT_DTS,AE_FMT_AC3,AE_FMT_S24NE4MSB,AE_FMT_S16NE,AE_FMT_S16LE,AE_FMT_S16BE
12:32:05 T:6472  NOTICE:     Device 3
12:32:05 T:6472  NOTICE:         m_deviceName      : {DB3351B6-289B-4C6C-80E7-00F9526BF2B7}
12:32:05 T:6472  NOTICE:         m_displayName     : Speakers - Lautsprecher (2- Realtek High Definition Audio)
12:32:05 T:6472  NOTICE:         m_displayNameExtra: WASAPI: Lautsprecher (2- Realtek High Definition Audio)
12:32:05 T:6472  NOTICE:         m_deviceType      : AE_DEVTYPE_PCM
12:32:05 T:6472  NOTICE:         m_channels        : FL,FR,FC,LFE,SL,SR,BL,BR
12:32:05 T:6472  NOTICE:         m_sampleRates     : 192000,96000,48000,44100
12:32:05 T:6472  NOTICE:         m_dataFormats     : AE_FMT_S24NE4MSB,AE_FMT_S16NE,AE_FMT_S16LE,AE_FMT_S16BE,AE_FMT_LPCM
12:32:05 T:6472  NOTICE:     Device 4
12:32:05 T:6472  NOTICE:         m_deviceName      : default
12:32:05 T:6472  NOTICE:         m_displayName     : default
12:32:05 T:6472  NOTICE:         m_displayNameExtra:
12:32:05 T:6472  NOTICE:         m_deviceType      : AE_DEVTYPE_PCM
12:32:05 T:6472  NOTICE:         m_channels        : FL,FR,FC,LFE,SL,SR,BL,BR
12:32:05 T:6472  NOTICE:         m_sampleRates     : 192000,96000,48000,44100
12:32:05 T:6472  NOTICE:         m_dataFormats     : AE_FMT_S24NE4MSB,AE_FMT_S16NE,AE_FMT_S16LE,AE_FMT_S16BE,AE_FMT_LPCM
12:32:05 T:2676    INFO: CActiveAESink::OpenSink - initialize sink
12:32:05 T:2676   DEBUG: CActiveAESink::OpenSink - trying to open device DIRECTSOUND:default
12:32:05 T:2676   DEBUG: CAESinkDirectSound::Initialize: Using Window handle: 65552
12:32:05 T:2676   DEBUG: CAESinkDirectSound::Initialize: secondary buffer created
12:32:05 T:2676   DEBUG: CAESinkDirectSound::Initialize: Initializing DirectSound with the following parameters:
12:32:05 T:2676   DEBUG:   Audio Device    : Lautsprecher (2- Realtek High Definition Audio)
12:32:05 T:2676   DEBUG:   Sample Rate     : 44100
12:32:05 T:2676   DEBUG:   Sample Format   : AE_FMT_FLOAT
12:32:05 T:2676   DEBUG:   Bits Per Sample : 32
12:32:05 T:2676   DEBUG:   Valid Bits/Samp : 32
<09:16AM DrStupid> I just emailed gore telling him he's an idiot.
(KD4CQY/#earthquake) You earned your nick
-- [download 90% complete]
-- [download 91% complete]
  GEN     printutils/Config.in
  GEN     debianutils/Kbuild
  GEN     debianutils/Config.in
  GEN     sysklogd/Kbuild
  GEN     sysklogd/Config.in
 [10] [11]
Initializing featurizer...
Activated AlignmentScore featurizer
Activated Alignment featurizer
    + always copying to a different bitmap [Caolán McNamara]
    + always provide control points for beziers (tdf#99165) [Armin Le Grand]
    + always save cell format (tdf#92296, tdf#98083) [Katarina Behrens]
	at com.vaadin.data.provider.HierarchicalDataCommunicator.expand(HierarchicalDataCommunicator.java:289) ~[vaadin-server-8.9.4.jar:8.9.4]
LaTeX Font Info:    Redeclaring font encoding OML on input line 743.
LaTeX Font Info:    Redeclaring font encoding OMS on input line 744.
  GEN     selinux/Kbuild
  GEN     selinux/Config.in
  GEN     printutils/Kbuild
\currentsecond=\count305
Package datetime Info: No datetime.cfg file found, using default settings on input line 308.
PROC_CREATOR_COUNT Mg25 : ionInelastic = 4
#include <stdio.h>
  Support mounting NFS file systems on Linux < 2.6.23 (FEATURE_MOUNT_NFS) [N/y/?] n
  Support mounting CIFS/SMB file systems (FEATURE_MOUNT_CIFS) [Y/n/?] y
socorro+caro	01.08.2009 18:22:45	http://www.google.com/search?q=socorro+caro&rls=com.microsoft:en-us:IE-SearchBox&ie=UTF-8&oe=UTF-8&sourceid=ie7&rlz=1I7GGLL_en	Mozilla/4.0 (compatible; MSIE 8.0; Windows NT 6.0; Trident/4.0; GTB6; SLCC1; .NET CLR 2.0.50727; .NET CLR 1.1.4322; .NET CLR 3.5.30729; .NET CLR 3.0.30618)	98.119.154.65
shun+ken+onion+11+piece+knife+block+set	01.08.2009 18:22:48	http://www.google.com/search?q=shun+ken+10+piece&ie=UTF-8&oe=UTF-8&hl=en&client=safari	Mozilla/5.0 (iPod; U; CPU iPhone OS 3_0 like Mac OS X; en-us) AppleWebKit/528.18 (KHTML, like Gecko) Version/4.0 Mobile/7A341 Safari/528.16	216.221.98.65
invicta+9212+men%E2%80%99s+gold+plated+stainless+steel+speedway+watch	01.08.2009 18:23:05	http://www.google.com/search?sourceid=navclient&aq=0&oq=Invicta+9212+&ie=UTF-8&rlz=1T4SUNA_enUS243US244&q=invicta+9212+men%e2%80%99s+gold+plated+stainless+steel+speedway+watch	Mozilla/4.0 (compatible; MSIE 8.0; Windows NT 5.1; Trident/4.0; GTB6; .NET CLR 2.0.50727; Windows-Media-Player/10.00.00.3990; .NET CLR 3.0.4506.2152; .NET CLR 3.5.30729)	71.97.84.129
drake+falls+on+stage	01.08.2009 18:23:21	http://www.google.com/search?hl=en&q=drake+falls+on+stage&aq=0z&oq=drake+fa&aqi=g-z1g9	Mozilla/5.0 (Macintosh; U; Intel Mac OS X 10_5_5; en-us) AppleWebKit/525.27.1 (KHTML, like Gecko) Version/3.2.1 Safari/525.27.1	71.93.175.177
petty+officer+jonathan+campos	01.08.2009 18:23:57	http://www.google.ca/search?hl=en&q=Petty%20Officer%20Jonathan%20Campos&um=1&ie=UTF-8&sa=N&tab=iw&start=0	Mozilla/4.0 (compatible; MSIE 6.0; Windows NT 5.1; SV1; .NET CLR 1.0.3705; .NET CLR 1.1.4322; .NET CLR 2.0.50727; .NET CLR 3.0.04506.648; .NET CLR 3.5.21022)	24.114.255.3
mcmackin+slur	01.08.2009 18:24:12	http://www.google.com/search?q=McMackin++derogatory+slur&hl=en&client=firefox-a&channel=s&rls=org.mozilla:en-US:official&hs=uyy&start=10&sa=N	Mozilla/5.0 (Windows; U; Windows NT 6.0; en-US; rv:1.9.0.12) Gecko/2009070611 Firefox/3.0.12	96.255.182.71
jerry+garcia+birthday	01.08.2009 18:24:19	http://www.google.com/search?q=jerry+garcia+birthday+mclaren+park&rls=com.microsoft:en-us:IE-SearchBox&ie=UTF-8&oe=UTF-8&sourceid=ie7&rlz=1I7TSHA_en	Mozilla/4.0 (compatible; MSIE 8.0; Windows NT 5.1; Trident/4.0; Comcast Install 1.0; GTB5; .NET CLR 1.1.4322; .NET CLR 2.0.50727; .NET CLR 3.0.4506.2152; .NET CLR 3.5.30729)	76.236.65.29
fedex+field	01.08.2009 18:24:31	http://www.google.com/search?q=fedex+field+advice&rls=com.microsoft:en-us&ie=UTF-8&oe=UTF-8&startIndex=&startPage=1	Mozilla/4.0 (compatible; MSIE 7.0; Windows NT 5.1; .NET CLR 1.0.3705; .NET CLR 1.1.4322; Media Center PC 4.0; InfoPath.1)	68.50.45.0
invicta+9212+men%E2%80%99s+gold+plated+stainless+steel+speedway+watch	01.08.2009 18:24:40	http://www.google.com/url?sa=t&source=web&ct=res&cd=3&url=http%3A%2F%2Fcomicsunlimited.com%2Fcomics%2Findex.php%3Finvicta%2B9212%2Bmen%25E2%2580%2599s%2Bgold%2Bplated%2Bstainless%2Bsteel%2Bspeedway%2Bwatch&ei=P4h0SunODYKntgfr4M2WCQ&rct=j&q=+Invicta+9212+Men%E2%80%99s+Gold+Plated+Stainless+Steel+Speedway+Watch+&usg=AFQjCNHVHhg9g3_QCeShED4dzi5sUc7CTg&sig2=U6SdmoaHOQL6XE7PWaqbNg	Mozilla/5.0 (Windows; U; Windows NT 6.0; en-US; rv:1.9.0.12) Gecko/2009070611 Firefox/3.0.12	65.182.40.200
jerry+garcia+birthday	01.08.2009 18:24:41	http://www.google.com/search?hl=en&rls=com.microsoft%3Aen-us%3AIE-SearchBox&rlz=1I7SUNA_en&q=August+1%2C+2009+Jerry+Day+McLaren+Park+San+Francisco&btnG=Search&aq=f&oq=&aqi=	Mozilla/4.0 (compatible; MSIE 8.0; Windows NT 5.1; Trident/4.0; GTB6; .NET CLR 1.1.4322)	75.55.49.233
socorro+caro	01.08.2009 18:24:51	http://www.google.com/search?q=Socorro+Caro&ie=utf-8&oe=utf-8&aq=t&rls=org.mozilla:en-US:official&client=firefox-a	Mozilla/5.0 (Windows; U; Windows NT 6.0; en-US; rv:1.9.0.12) Gecko/2009070611 Firefox/3.0.12	69.149.171.241
buick+open+tee+times	01.08.2009 18:25:14	http://www.google.com/search?hl=en&ei=Moh0SpeJJce_tgeH8tCWCQ&sa=X&oi=spell&resnum=0&ct=result&cd=1&q=third+round+of+buick+open+tv+time&spell=1	Mozilla/4.0 (compatible; MSIE 7.0; Windows NT 6.0; GTB6; SLCC1; .NET CLR 2.0.50727; Media Center PC 5.0; .NET CLR 3.0.04506)	65.12.127.151
what+did+greg+mcmackin+say	01.08.2009 18:25:18	http://www.google.com/search?q=what+did+hawaii+coach+say&ie=utf-8&oe=utf-8&aq=t&rls=org.mozilla:en-US:official&client=firefox-a	Mozilla/5.0 (Windows; U; Windows NT 5.1; en-US; rv:1.9.0.12) Gecko/2009070611 Firefox/3.0.12	98.192.42.208
nstar	01.08.2009 18:25:36	http://www.google.com/search?q=nstar%20electric%20boston&hl=en&tbo=1&tbs=rcnt:1,sbd:1	Mozilla/5.0 (Windows; U; Windows NT 6.0; en-US) AppleWebKit/531.3 (KHTML, like Gecko) Chrome/3.0.193.2 Safari/531.3	122.161.19.26
first+midwest+bank+amphitheatre+address	01.08.2009 18:25:48	http://www.google.com/search?hl=en&client=ms-rim&channel=browser&ie=ISO-8859-1&q=first+midwest+band+ampitheater+address&btnG=Search	BlackBerry8310/4.2.2 Profile/MIDP-2.0 Configuration/CLDC-1.1 VendorID/102	206.53.157.63
invicta+9212+men%E2%80%99s+gold+plated+stainless+steel+speedway+watch	01.08.2009 18:25:52	http://www.google.com/search?q=Invicta+Men%27s+Stainless+Steel+Pro+Diver+Speedway&rls=com.microsoft:en-us&ie=UTF-8&oe=UTF-8&startIndex=&startPage=1	Mozilla/4.0 (compatible; MSIE 8.0; Windows NT 6.0; WOW64; Trident/4.0; SLCC1; .NET CLR 2.0.50727; Media Center PC 5.0; OfficeLiveConnector.1.3; OfficeLivePatch.0.0; .NET CLR 3.5.30729; .NET CLR 3.0.30618; .NET CLR 1.1.4322)	65.24.54.85
socorro+caro	01.08.2009 18:26:23	http://www.google.com/search?hl=en&client=firefox-a&rls=org.mozilla%3Aen-US%3Aofficial&hs=zzy&q=socorro+caro+death+row&aq=f&oq=&aqi=	Mozilla/5.0 (Windows; U; Windows NT 6.0; en-US; rv:1.9.0.12) Gecko/2009070611 Firefox/3.0.12	71.145.159.165
tim+hack+and+kelly+drew	01.08.2009 18:26:40	http://www.google.com/search?rlz=1C1CHMZ_enUS317US318&aq=0&oq=tim+hac&sourceid=chrome&ie=UTF-8&q=tim+hack+and+kelly+drew	Mozilla/5.0 (Windows; U; Windows NT 5.1; en-US) AppleWebKit/531.3 (KHTML, like Gecko) Chrome/3.0.193.2 Safari/531.3	76.203.30.154
tim+hack+and+kelly+drew	01.08.2009 18:26:50	http://www.google.com/search?sourceid=navclient&ie=UTF-8&rlz=1T4DKUS_enUS291US291&q=tim+hack+and+kelly+drew	Mozilla/4.0 (compatible; MSIE 8.0; Windows NT 6.0; Trident/4.0; GTB6; SLCC1; .NET CLR 2.0.50727; Media Center PC 5.0; Platrium 1.2.103.0; P_IT_EF70067FB176595237A095; .NET CLR 3.5.30729; .NET CLR 3.0.30618)	98.219.234.170
what+did+greg+mcmackin+say	01.08.2009 18:26:53	http://www.google.com/search?q=mcmackin+what+did+he+say&ie=UTF-8&oe=UTF-8&hl=en&client=safari	Mozilla/5.0 (iPhone; U; CPU iPhone OS 3_0 like Mac OS X; en-us) AppleWebKit/528.18 (KHTML, like Gecko) Version/4.0 Mobile/7A341 Safari/528.16	207.68.242.58
sayville+summerfest	01.08.2009 18:26:53	http://www.google.com/search?hl=en&safe=off&rlz=1T4ADBF_enUS258US258&ei=3oh0SvWdBsOMtgeMiNGWCQ&sa=X&oi=spell&resnum=0&ct=result&cd=1&q=gillette,+sayville,+fair&spell=1	Mozilla/4.0 (compatible; MSIE 8.0; Windows NT 5.1; Trident/4.0; GTB6; InfoPath.2; .NET CLR 1.1.4322; .NET CLR 2.0.50727; .NET CLR 3.0.04506.30; .NET CLR 3.0.04506.648)	72.80.162.12
park+ave+fest+rochester+ny+2009	01.08.2009 18:27:11	http://www.google.com/m/search?oe=UTF-8&client=safari&hl=en&q=first+annual+bronx+summer+festival+august+1+2009	Mozilla/5.0 (iPhone; U; CPU iPhone OS 3_0 like Mac OS X; en-us) AppleWebKit/528.18 (KHTML, like Gecko) Version/4.0 Mobile/7A341 Safari/528.16	173.2.53.47
x+games+15+moto+x+best+trick	01.08.2009 18:27:13	http://www.google.com/search?client=ms-rim&hl=en&q=x+games+2009+mtx+best+trick&ie=UTF-8&channel=browser	BlackBerry8330/4.5.0.77 Profile/MIDP-2.0 Configuration/CLDC-1.1 VendorID/105	206.53.153.88
socorro+caro	01.08.2009 18:27:41	http://www.google.com/search?sourceid=navclient&ie=UTF-8&rlz=1T4ADBR_enUS311US311&q=socorro+caro	Mozilla/4.0 (compatible; MSIE 8.0; Windows NT 6.0; WOW64; Trident/4.0; GTB6; SLCC1; .NET CLR 2.0.50727; .NET CLR 3.0.04506; Media Center PC 5.0; .NET CLR 3.5.21022; InfoPath.2)	24.253.143.219
invicta+9212+men%E2%80%99s+gold+plated+stainless+steel+speedway+watch	01.08.2009 18:27:42	http://www.google.com/search?client=opera&rls=en&q=invicta+9212+men%E2%80%99s+gold+plated+stainless+steel+speedway+watch&sourceid=opera&ie=utf-8&oe=utf-8	Opera/9.64 (Windows NT 5.1; U; en) Presto/2.1.1	195.5.124.98
invicta+9212+men%E2%80%99s+gold+plated+stainless+steel+speedway+watch	01.08.2009 18:27:56	http://www.google.com/search?sourceid=navclient&aq=0&oq=invicta+9212&ie=UTF-8&rlz=1T4SUNA_enUS281US281&q=invicta+9212+men%e2%80%99s+gold+plated+stainless+steel+speedway+watch	Mozilla/4.0 (compatible; MSIE 8.0; Windows NT 6.0; Trident/4.0; FunWebProducts; GTB6; SLCC1; .NET CLR 2.0.50727; Media Center PC 5.0; .NET CLR 3.5.30729; .NET CLR 3.0.30618)	69.137.139.206
petty+officer+jonathan+campos	01.08.2009 18:28:16	http://www.google.com/search?hl=en&um=1&q=Petty%20Officer%20Jonathan%20Campos&ndsp=21&ie=UTF-8&sa=N&tab=iw&start=0	Mozilla/4.0 (compatible; MSIE 8.0; Windows NT 6.0; WOW64; Trident/4.0; SLCC1; .NET CLR 2.0.50727; Media Center PC 5.0; .NET CLR 3.5.30729; .NET CLR 3.0.30618)	68.107.60.131
what+did+greg+mcmackin+say	01.08.2009 18:28:39	http://www.google.com/search?client=safari&rls=en&q=what%20did%20greg%20mcmackin%20say&ie=UTF-8&oe=UTF-8	Mozilla/5.0 (Windows; U; Windows NT 6.0; en-US) AppleWebKit/530.19.2 (KHTML, like Gecko) Version/4.0.2 Safari/530.19.1	76.114.112.190
socorro+caro	01.08.2009 18:28:42	http://www.google.com/search?hl=en&q=Socorro+Caro+&btnG=Google+Search&aq=f&oq=	Mozilla/4.0 (compatible; MSIE 7.0; Windows NT 5.1; .NET CLR 1.1.4322; .NET CLR 2.0.50727)	64.209.143.132
socorro+caro	01.08.2009 18:28:44	http://www.google.com/search?q=Socorro%20Caro&oe=utf-8&rls=com.kodakgallery:en-US:official&client=firefox-a&um=1&hl=en&ie=UTF-8&sa=N&tab=iw&start=0	Mozilla/5.0 (Windows; U; Windows NT 6.0; en-US; rv:1.9.0.12) Gecko/2009070611 Firefox/3.0.12	71.112.150.90
[    450406] EndpointMapper::HandleRequest: POST /gta5/11/gameservices/presence.asmx/GetPresenceServers
[    478750] EndpointMapper::HandleRequest: POST /gta5/11/gameservices/GeoLocation.asmx/GetLocationInfoFromIP
[    541234] EndpointMapper::HandleRequest: POST /gta5/11/gameservices/GeoLocation.asmx/GetLocationInfoFromIP
[    570578] EndpointMapper::HandleRequest: POST /gta5/11/gameservices/Telemetry.asmx/SubmitCompressed
[    596593] EndpointMapper::HandleRequest: POST /gta5/11/gameservices/presence.asmx/GetPresenceServers
Importing posts...
0 posts imported
0 medias imported
./Lindsey_Stirling
./Bobby_Lapointe
./Carpenters
./Carpenters/The_Singles__1969-1973
./Indochine
./Indochine/Indochine%20-%201982%20-%20L'aventurier
./Indochine/Indochine%20-%201983%20-%20Le%20Péril%20Jaune
./Indochine/Indochine%20-%201985%20-%203
./Indochine/Indochine%20-%201987%20-%207000%20Danses
./Indochine/Indochine%20-%201990%20-%20Le%20Baiser
./Indochine/Indochine%20-%201993%20-%20Un%20Jour%20dans%20Notre%20Vie
./Indochine/Indochine%20-%201996%20-%20Wax
./Indochine/Indochine%20-%201999%20-%20Danceteria
./Indochine/Indochine%20-%202002%20-%20Paradize
./Indochine/Indochine%20-%202005%20-%20Alice_June
./Indochine/Indochine%20-%202005%20-%20Alice_June/CD1
./The_Notting_Hillbillies/Missing_-_Presumed_having_a_good_time
./Turisas
./Turisas/Battle%20Metal
./Turisas/Rasputin
./Turisas/Stand%20Up%20And%20Fight
./Turisas/Stand%20Up%20And%20Fight/CD%2001
./Turisas/Stand%20Up%20And%20Fight/CD%2002
./Turisas/The%20Heart%20of%20Turisas
./Turisas/The%20Varangian%20Way
./Turisas/To%20Holmgard%20and%20Beyond
./Classique
./Classique/Antonio%20Vivaldi
./Classique/Antonio%20Vivaldi/CD%206%20Sonates%20n°%208%20à%2012%20pour%20violon
./Classique/Antonio%20Vivaldi/CD%209%20Concertos%20pour%20orgue%20et%20orchestre
-- [download 66% complete]
-- [download 67% complete]
-- [download 68% complete]
ofz#4952 avoid liblangtag config when fuzzing enabled [Caolán McNamara]
ofz#4966 loop in text styles [Caolán McNamara]
ofz#4971 bad-cast [Caolán McNamara]
ofz#4976 integer-overflow [Caolán McNamara]
ofz#4979 divide-by-zero [Caolán McNamara]
 There are     1 symmetry adapted basis functions of A2  symmetry.
instanceKlass com/android/dx/rop/annotation/AnnotationsList
instanceKlass com/android/dx/rop/cst/CstArray$List

add-shell (ADD_SHELL) [N/y/?] n
remove-shell (REMOVE_SHELL) [N/y/?] n
        Model:   G4ElectroVDNuclearModel: 0 eV  ---> 1 PeV
instanceKlass java/lang/ArithmeticException
instanceKlass java/lang/NullPointerException
instanceKlass java/lang/IllegalMonitorStateException
instanceKlass java/lang/ArrayStoreException
instanceKlass java/lang/ClassCastException
@@@ G4ParticleHPInelastic instantiated for particle deuteron data directory variable is G4DEUTERONHPDATA pointing to /home/arce/gamos/external/geant4/geant4.10.04.p02.gamos/../data/G4TENDL1.3.2/Deuteron/Inelastic
@@@ G4ParticleHPInelasticData instantiated for particle deuteron data directory variable is G4DEUTERONHPDATA pointing to /home/arce/gamos/external/geant4/geant4.10.04.p02.gamos/../data/G4TENDL1.3.2/Deuteron
NeutronHP: .3.2/Deuteron/Inelastic file for Z = 8, A = 18 is not found and CrossSection set to 0.
/home/arce/gamos/external/geant4/geant4.10.04.p02.gamos/../data/G4TENDL1.3.2/Triton
@@@ G4ParticleHPInelastic instantiated for particle triton data directory variable is G4TRITONHPDATA pointing to /home/arce/gamos/external/geant4/geant4.10.04.p02.gamos/../data/G4TENDL1.3.2/Triton/Inelastic
     Cr_sctns: Glauber-Gribov nucleus nucleus: 0 eV  ---> 2.88022e+295 J  
Alignment score: 10.157

[18/Jun/2019:19:43:09] (ℹ️): [PLUGIN] Gutenberg Blocks and Template Library by Otter : v1.2.3 (ThemeIsle)
LogPluginManager: Mounting Engine plugin OpenImageDenoise
[22:42:48] Mesothelioma: [+] 0535/7981 new URL - http://blogs.journalism.cuny.edu/wp-login.php?redirect_to=http%3A%2F%2Fblogs.journalism.cuny.edu%2Fwp-admin%2F&reauth=1
    [0m  [BC (full coverage with learning-based abstraction)] Starting running cartography…
    [0m
    [0m
    **************************************************[0m
    [0m START THE BEHAVIORAL CARTOGRAPHY ALGORITHM[0m
    [0m**************************************************[0m
    [0m Parametric rectangle V0: [0m
    [0m  delta = 1..10
    & Delta = 1..10[0m
    [0m Number of points inside V0: 100[0m
    [0m
    **************************************************[0m
    [0mALGORITHM BC (full coverage with learning-based abstraction): iteration 1[0m
    [0mConsidering the following pi1[0m
    [0m  delta = 1
    & Delta = 1[0m
    [0mExecuting: 'python /home/etienne/Boulot/SVN/andre/papiers/2017/learning/IMICV/bin/../interfaceCV.py ./examples/Fischer/FERA3.imi ./examples/Fischer/FERA3-learning_learning_1.imi delta=1,Delta=1'[0m
[0;36;40m*-**--***---****---***--**-*[0;36;40m
[0;36;40mHello, this is Interfaçator![0;36;40m
Building reference valuation…
Pi0:
    v(delta) = 1
    v(Delta) = 1
Valuating component A with pi0…
Writing content to "./examples/Fischer/FERA3.cv"…
[0;36;40mExecuting "/home/etienne/Boulot/SVN/andre/papiers/2017/learning/IMICV/bin/../CV/Compositional_Verifier -imi ./examples/Fischer/FERA3.cv"…[0;36;40m
[0;36;40mCounter-example detected[0;36;40m
[0;36;40mMoving learning result from "/home/etienne/Boulot/SVN/andre/papiers/2017/learning/IMICV/bin/../CV/tmp/counterexample.imi" to "./examples/Fischer/FERA3-learning_learning_1.imi-output.cv"…[0;36;40m
[0;36;40mCopying abstract model into "./examples/Fischer/FERA3-learning_learning_1.imi"…[0;36;40m
[0;36;40m[0;36;40m
 PROC_COUNT Na21 : Transportation = 234
 PROC_COUNT Na21 : ALL = 234
 PROC_COUNT Na22 : Transportation = 447
--> "+v FOX_Live" mode change by KNBC on #earthquake
--> "+oo Jup1 NeilM" mode change by eff.org on #earthquake
--> "+vv Metallica NeilM" mode change by eff.org on #earthquake
<10:15AM cavalier> AutoMaton Update: Amateur Radio Assistance. OUTBOUND Messaging from stricken area for ALL USA. JOIN #ARES
<10:15AM cavalier> AutoMaton Update: EXTENDED SUMMARY TEXT of EARTHQUAKE available by /MSG CAVALIER XDCC SEND #1
[   1963234] overriding handle for mp_f_freemode_01/jbib_diff_005_e_uni.ytd (was 4cd03bf) -> 23e
[   1963250] overriding handle for mp_f_freemode_01/jbib_diff_005_f_uni.ytd (was 4cd03c0) -> 23f
TEST checkCUDAPreprocessor from config.setCompilers(/sandbox/petsc/petsc.next/config/BuildSystem/config/setCompilers.py:670)
2016-02-23 15:45:25,617  INFO Injector:68 org.matsim.core.events.EventsManagerModule$EventHandlerRegistrator 
[22:42:46] Precious metals: [-] 0105/8003 download failed (Return: -) - http://www.ewtn.de/
            Substituting "CUDAPPFLAGS" with "-Wno-deprecated-gpu-targets"
[     13062] hello from "D:\Rockstar Games\FiveM.app\cache\subprocess\FiveM_ROSSubProcess" ros:subprocess "C:\Program Files\Rockstar Games\Social Club\SocialClubHelper.exe" --type=gpu-process --no-sandbox --lang=en --log-file="C:\Program Files\Rockstar Games\Social Club\debug.log" --log-severity=disable --gpu-preferences=GAAAAAAAAAAABwAAAQAAAAAAAAAAAGAA --use-gl=swiftshader-webgl --gpu-vendor-id=0x1002 --gpu-device-id=0x6660 --gpu-driver-vendor="Google Inc." --gpu-driver-version=3.3.0.2 --gpu-driver-date=2017/04/07 --gpu-secondary-vendor-ids=0x8086 --gpu-secondary-device-ids=0x5917 --amd-switchable --lang=en --log-file="C:\Program Files\Rockstar Games\Social Club\debug.log" --log-severity=disable --service-request-channel-token=530B1E36471F4695ED2A401BE6547AB7 --mojo-platform-channel-handle=2252 /prefetch:2 --remote-debugging-port=13171 --ignore-certificate-errors
[     13250] sub! "D:\Rockstar Games\FiveM.app\cache\subprocess\FiveM_ROSSubProcess" ros:subprocess "C:\Program Files\Rockstar Games\Social Club\SocialClubHelper.exe" --type=renderer --enable-browser-side-navigation --no-sandbox --disable-gpu-compositing --service-pipe-token=5A5D8084D6E634170CD77DD64DBEB197 --lang=en-US --lang=en --log-file="C:\Program Files\Rockstar Games\Social Club\debug.log" --log-severity=disable --disable-extensions --disable-spell-checking --enable-pinch --device-scale-factor=1.25 --num-raster-threads=4 --enable-main-frame-before-activation --enable-gpu-async-worker-context --content-image-texture-target=0,0,3553;0,1,3553;0,2,3553;0,3,3553;0,4,3553;0,5,3553;0,6,3553;0,7,3553;0,8,3553;0,9,3553;0,10,3553;0,11,3553;0,12,3553;0,13,3553;0,14,3553;0,15,3553;0,16,3553;0,17,3553;0,18,3553;1,0,3553;1,1,3553;1,2,3553;1,3,3553;1,4,3553;1,5,3553;1,6,3553;1,7,3553;1,8,3553;1,9,3553;1,10,3553;1,11,3553;1,12,3553;1,13,3553;1,14,3553;1,15,3553;1,16,3553;1,17,3553;1,18,3553;2,0,3553;2,1,3553;2,2,3553;2,3,3553;2,4,3553;2,5,3553;2,6,3553;2,7,3553;2,8,3553;2,9,3553;2,10,3553;2,11,3553;2,12,3553;2,13,3553;2,14,3553;2,15,3553;2,16,3553;2,17,3553;2,18,3553;3,0,3553;3,1,3553;3,2,3553;3,3,3553;3,4,3553;3,5,3553;3,6,3553;3,7,3553;3,8,3553;3,9,3553;3,10,3553;3,11,3553;3,12,3553;3,13,3553;3,14,3553;3,15,3553;3,16,3553;3,17,3553;3,18,3553;4,0,3553;4,1,3553;4,2,3553;4,3,3553;4,4,3553;4,5,3553;4,6,3553;4,7,3553;4,8,3553;4,9,3553;4,10,3553;4,11,3553;4,12,3553;4,13,3553;4,14,3553;4,15,3553;4,16,3553;4,17,3553;4,18,3553;5,0,3553;5,1,3553;5,2,3553;5,3,3553;5,4,3553;5,5,3553;5,6,3553;5,7,3553;5,8,3553;5,9,3553;5,10,3553;5,11,3553;5,12,3553;5,13,3553;5,14,3553;5,15,3553;5,16,3553;5,17,3553;5,18,3553;6,0,3553;6,1,3553;6,2,3553;6,3,3553;6,4,3553;6,5,3553;6,6,3553;6,7,3553;6,8,3553;6,9,3553;6,10,3553;6,11,3553;6,12,3553;6,13,3553;6,14,3553;6,15,3553;6,16,3553;6,17,3553;6,18,3553 --disable-accelerated-video-decode --service-request-channel-token=5A5D8084D6E634170CD77DD64DBEB197 --renderer-client-id=2 --mojo-platform-channel-handle=2236 /prefetch:1 --rgsc_ipc_channel_name=rgsc_ipc_341c_channel_1 --remote-debugging-port=13171 --ignore-certificate-errors
Connecting to download.savannah.gnu.org (download.savannah.gnu.org)|208.118.235.200|:80... connected.
HTTP request sent, awaiting response... 302 Moved Temporarily
Location: http://download-mirror.savannah.gnu.org/releases/lzip/lzip-1.18.tar.gz [following]
--2017-06-13 11:58:54--  http://download-mirror.savannah.gnu.org/releases/lzip/lzip-1.18.tar.gz
Resolving download-mirror.savannah.gnu.org (download-mirror.savannah.gnu.org)... 208.118.235.200
Reusing existing connection to download.savannah.gnu.org:80.
HTTP request sent, awaiting response... 200 OK
Length: 95569 (93K) [application/octet-stream]
Saving to: '/builds/free-electrons/toolchains-builder/build/tmp/test-x86-64-core-i7--uclibc--stable/build/.lzip-1.18.tar.gz.RZzY1w/output'

     0K .......... .......... .......... .......... .......... 53% 3.46M 0s
    50K .......... .......... .......... .......... ...       100% 65.2M=0.01s
make[1]: Leaving directory '/builds/free-electrons/toolchains-builder/build/tmp/test-x86-64-core-i7--uclibc--stable/build/host-lzip-1.18'
>>> skeleton  Extracting
>>> skeleton  Patching
>>> skeleton  Configuring
>>> skeleton  Building
>>> skeleton  Installing to staging directory
/usr/bin/install -d -m 0755 /builds/free-electrons/toolchains-builder/build/tmp/test-x86-64-core-i7--uclibc--stable/host/usr/x86_64-buildroot-linux-uclibc/sysroot/usr/lib
/usr/bin/install -d -m 0755 /builds/free-electrons/toolchains-builder/build/tmp/test-x86-64-core-i7--uclibc--stable/host/usr/x86_64-buildroot-linux-uclibc/sysroot/usr/bin
/usr/bin/install -d -m 0755 /builds/free-electrons/toolchains-builder/build/tmp/test-x86-64-core-i7--uclibc--stable/host/usr/x86_64-buildroot-linux-uclibc/sysroot/usr/sbin
/usr/bin/install -d -m 0755 /builds/free-electrons/toolchains-builder/build/tmp/test-x86-64-core-i7--uclibc--stable/host/usr/x86_64-buildroot-linux-uclibc/sysroot/usr/include
/usr/bin/install -d -m 0755 /builds/free-electrons/toolchains-builder/build/tmp/test-x86-64-core-i7--uclibc--stable/host/usr/x86_64-buildroot-linux-uclibc/sysroot/bin
/usr/bin/install -d -m 0755 /builds/free-electrons/toolchains-builder/build/tmp/test-x86-64-core-i7--uclibc--stable/host/usr/x86_64-buildroot-linux-uclibc/sysroot/sbin
/usr/bin/install -d -m 0755 /builds/free-electrons/toolchains-builder/build/tmp/test-x86-64-core-i7--uclibc--stable/host/usr/x86_64-buildroot-linux-uclibc/sysroot/lib
ln -snf lib /builds/free-electrons/toolchains-builder/build/tmp/test-x86-64-core-i7--uclibc--stable/host/usr/x86_64-buildroot-linux-uclibc/sysroot/lib64
ln -snf lib /builds/free-electrons/toolchains-builder/build/tmp/test-x86-64-core-i7--uclibc--stable/host/usr/x86_64-buildroot-linux-uclibc/sysroot/usr/lib64
>>> skeleton  Fixing libtool files
>>> skeleton  Installing to target
rsync -a --ignore-times --exclude .svn --exclude .git --exclude .hg --exclude .bzr --exclude CVS --chmod=u=rwX,go=rX --exclude .empty --exclude '*~' system/skeleton/ /builds/free-electrons/toolchains-builder/build/tmp/test-x86-64-core-i7--uclibc--stable/target/
Give more precise messages when copy fails (cp, mv etc) (FEATURE_VERBOSE_CP_MESSAGE) [N/y/?] n
  .                    ==&gt; .
  Alignment score: 16.857
</alignment>
instanceKlass java/nio/file/attribute/FileTime
instanceKlass java/util/zip/ZipUtils
PROC_CREATOR_COUNT neutron : He3Inelastic = 4
PROC_CREATOR_COUNT neutron : alphaInelastic = 27
fedex+field	01.08.2009 17:40:33	http://www.google.com/search?hl=en&q=fedex+field+concert+parking&aq=f&oq=&aqi=	Mozilla/4.0 (compatible; MSIE 7.0; Windows NT 6.0; Trident/4.0; SLCC1; .NET CLR 2.0.50727; Media Center PC 5.0; Zune 3.0; .NET CLR 3.5.30729; .NET CLR 3.0.30618; MSN Optimized;US)	96.244.235.18
2021-10-26T21:51:44.819Z,55.819080,ab3bf380,6 [FLog::Graphics] Future is bright shadows
carlos+justo	01.08.2009 18:49:55	http://www.google.com/search?hl=en&q=carlos+justo%2C+lost+millions&aq=f&oq=&aqi=	Mozilla/4.0 (compatible; MSIE 6.0; Windows NT 5.1; SV1; InfoPath.1; .NET CLR 2.0.50727; .NET CLR 3.0.04506.30)	66.211.202.20
socorro+caro	01.08.2009 18:50:14	http://www.google.ca/search?q=Socorro+Caro&ie=utf-8&oe=utf-8&aq=t&rls=org.mozilla:en-US:official&client=firefox-a	Mozilla/5.0 (Windows; U; Windows NT 5.1; en-US; rv:1.9.0.12) Gecko/2009070611 Firefox/3.0.12	70.51.230.158
pan+mass+challenge+route	01.08.2009 18:50:15	http://www.google.com/search?sourceid=navclient&ie=UTF-8&rlz=1T4GZAZ_enUS270US270&q=pan+mass+challenge+route	Mozilla/4.0 (compatible; MSIE 8.0; Windows NT 5.1; Trident/4.0; GTB6; .NET CLR 1.1.4322; yie8)	24.128.164.170
 [54 </Users/natera/Dropbox/PhD/thesis/images/datadriven/SI_Lengths_Bike_Streets.png>] [55 </Users/natera/Dropbox/PhD/thesis/images/datadriven/5km.png (PNG copy)>]
200 Type okay.
250 "/" is new cwd.
(YaZoO/#earthquake) Airport is closed, nuthing is getting out
<KNBC> If you dont want to see all this signoff crap type /IGNORE * CRAP
<DrStupid> the mercedes looks like it's in good condition, but it's prepped for a ride down a hill
          <feature name="d" codomain="Double" range="" hidden="false" />
}
Executing: mpicc  -o /tmp/petsc-uGvYRc/config.setCompilers/conftest  -Wl,-rpath,/sandbox/petsc/petsc.next   /tmp/petsc-uGvYRc/config.setCompilers/conftest.o 
            Valid C linker flag -Wl,-rpath,/sandbox/petsc/petsc.next
     38     0.713308
     39     0.641589
     40     0.577080
     41     0.519057
     42     0.466869
ciInstanceKlass java/lang/ThreadGroup 1 1 275 10 9 8 9 7 9 9 10 10 10 10 10 9 9 10 10 9 10 9 9 10 100 10 10 10 9 10 10 9 10 10 10 10 10 10 10 10 10 10 10 100 10 10 10 7 10 100 10 9 10 8 10 10 10 10 11 100 9 100 10 8 10 10 8 10 10 10 10 10 8 10 8 10 8 7 100 1 1 1 1 1 1 1 1 1 1 1 1 1 1 1 1 1 1 1 1 1 1 1 1 1 1 1 1 1 1 1 1 1 1 1 1 1 1 1 1 100 100 100 1 1 1 100 1 1 1 1 1 1 1 1 1 1 1 1 1 1 1 1 1 100 1 1 1 1 1 1 1 1 1 1 1 100 1 1 100 1 1 1 1 12 12 1 12 1 12 12 12 12 12 12 12 12 12 12 12 12 100 12 12 12 100 12 12 7 12 100 12 12 12 12 12 12 12 12 12 12 12 12 12 12 1 12 12 1 12 12 12 12 1 100 12 12 12 12 1 12 1 1 12 12 1 12 100 12 100 12 12 100 1 1 12 1 1 1 1 1 1 1 1 1 1 1 1 1 1 1 1 1 1 1 1 1 1 1 1 1 1 1 1 1 1 1 1 1 1 1 1 1 1 1 1 1 1
instanceKlass java/util/Hashtable
-- [download 50% complete]
-- [download 51% complete]
-- [download 52% complete]
-- [download 53% complete]
-- [download 54% complete]
-- [download 55% complete]
-- [download 56% complete]
-- [download 57% complete]
-- [download 58% complete]
-- [download 59% complete]
-- [download 60% complete]
-- [download 61% complete]
-- [download 62% complete]
-- [download 63% complete]
-- [download 64% complete]
-- [download 65% complete]
-- [download 66% complete]
-- [download 67% complete]
-- [download 68% complete]
-- [download 69% complete]
-- [download 70% complete]
-- [download 71% complete]
-- [download 72% complete]
-- [download 73% complete]
-- [download 74% complete]
-- [download 75% complete]
-- [download 76% complete]
-- [download 77% complete]
-- [download 78% complete]
-- [download 79% complete]
instanceKlass java/lang/IllegalStateException
instanceKlass com/android/dex/util/ExceptionWithContext
instanceKlass java/lang/ref/Reference$ReferenceHandler
	at info.magnolia.cms.i18n.I18nContentSupportFilter.doFilter(I18nContentSupportFilter.java:85) [magnolia-core-6.2.3.jar:?]
tr (TR) [Y/n/?] y
  Enable character classes (such as [:upper:]) (FEATURE_TR_CLASSES) [Y/n/?] y
ciInstanceKlass java/lang/invoke/MethodHandleNatives 1 1 442 100 10 9 10 100 10 10 10 10 8 8 8 8 8 8 8 8 8 8 100 10 100 10 10 100 10 10 8 10 8 10 8 10 9 8 10 100 10 100 100 8 100 7 10 10 100 9 10 10 10 100 10 10 10 10 100 10 9 8 10 8 10 8 8 8 100 8 10 10 10 10 10 100 10 10 8 8 10 10 10 8 10 8 8 9 10 10 10 100 100 10 10 10 100 100 10 10 100 10 10 100 100 10 10 10 10 100 10 10 10 10 10 10 10 8 8 100 10 100 10 10 10 10 7 10 10 10 9 10 10 10 1 1 1 1 1 1 1 1 1 1 1 1 1 1 1 1 100 1 1 1 1 1 1 1 1 1 1 1 1 1 1 1 1 1 1 1 1 1 1 1 1 1 1 1 1 1 1 1 1 1 1 1 100 100 100 1 1 100 100 100 100 1 1 100 1 1 100 1 1 1 1 1 1 1 1 1 1 1 1 1 100 100 100 100 1 1 1 100 100 1 1 1 1 1 1 1 1 1 12 12 12 1 12 12 12 1 1 1 1 1 1 1 1 1 1 1 12 1 12 100 12 1 12 1 12 1 12 1 12 100 12 1 100 12 1 12 1 1 1 1 1 12 1 100 12 12 12 100 12 1 12 100 12 12 12 1 100 12 12 1 12 1 12 1 1 1 1 1 12 12 12 12 12 1 12 12 1 1 12 12 1 100 12 1 1 100 12 12 12 12 1 1 12 1 1 1 1 1 100 12 12 1 12 100 12 12 12 12 12 1 1 1 12 1 12 12 12 12 1 12 12 12 12 7 12 12 12 1 1 1 1 1 1 1 1 1 1 1 1 1 1 1 1 1 1 1 1 1 1 1 1 1 1 1 1 1 1 1 1 1 1 1 1 1 1 1 1 1 1 1 1 1 1 1 1 1 1 1 1 1 1 1 100 1 1 1 1 1 1 1 1 1 1 1 1 1 1 1 1 1 1 1 1 1 1 1 1 1 1 1
_check_dlsym();
_check_dlclose();;
  return 0;
}
Executing: mpicc  -o /tmp/petsc-uGvYRc/config.libraries/conftest    /tmp/petsc-uGvYRc/config.libraries/conftest.o  -ldl 
-- [download 22% complete]
[     14718] somefunc found dlc_PATCHDAY18NG:/!
[     14734] LoadDefDats: dlc_PATCHDAY18NGCRC:/content.xml
[     14734] somefunc found dlc_PATCHDAY17NG:/!
[     14750] LoadDefDats: dlc_PATCHDAY17NGCRC:/content.xml
[     14765] somefunc found dlc_PATCHDAY16NG:/!
[     14781] LoadDefDats: dlc_PATCHDAY16NGCRC:/content.xml
[     14781] EndpointMapper::HandleRequest: GET /cfx/login
[     14797] somefunc found dlc_PATCHDAY15NG:/!
[     14797] LoadDefDats: dlc_PATCHDAY15NGCRC:/content.xml
[     14812] somefunc found dlc_PATCHDAY14NG:/!
[     14828] LoadDefDats: dlc_PATCHDAY14NGCRC:/content.xml
[     14843] somefunc found dlc_PATCHDAY13NG:/!
[     14859] LoadDefDats: dlc_PATCHDAY13NGCRC:/content.xml
[     14875] somefunc found dlc_PATCHDAY12NG:/!
[     14875] LoadDefDats: dlc_PATCHDAY12NGCRC:/content.xml
[     14890] somefunc found dlc_PATCHDAY11NG:/!
[     14906] LoadDefDats: dlc_PATCHDAY11NGCRC:/content.xml
[     14922] somefunc found dlc_PATCHDAY10NG:/!
[     14922] LoadDefDats: dlc_PATCHDAY10NGCRC:/content.xml
[     14937] somefunc found dlc_patchday9NG:/!
[     14953] LoadDefDats: dlc_patchday9NGCRC:/content.xml
[     14968] somefunc found dlc_PATCHDAY8NG:/!
[     14968] LoadDefDats: dlc_PATCHDAY8NGCRC:/content.xml
[     14984] somefunc found dlc_patchDay7NG:/!
[     15000] LoadDefDats: dlc_patchDay7NGCRC:/content.xml
[     17562] rage::gameSkeleton::RunInitFunctions: Invoking InitSystem INIT_CORE init (1 out of 52)
[     17578] rage::gameSkeleton::RunInitFunctions: Invoking CShaderLib INIT_CORE init (2 out of 52)
[     17718] rage::gameSkeleton::RunInitFunctions: Invoking PostFX INIT_CORE init (3 out of 52)
[     17750] rage::gameSkeleton::RunInitFunctions: Invoking CGtaAnimManager INIT_CORE init (4 out of 52)
[     17765] rage::gameSkeleton::RunInitFunctions: Invoking fwClipSetManager INIT_CORE init (5 out of 52)
