
8.4.x Water Vapor Radiometer  : 
12:32:06 T:6224   DEBUG: AddOnLog: Tvheadend HTSP Client: pvr.hts - tag updated id:4, name:UNSER
bbconfig (BBCONFIG) [N/y/?] n
beep (BEEP) [N/y/?] n
chat (CHAT) [N/y/?] n
chrt (CHRT) [Y/n/?] y
conspy (CONSPY) [N/y/?] n
crond (CROND) [Y/n/?] y
  Support option -d to redirect output to stderr (FEATURE_CROND_D) [N/y/?] n
  Report command output via email (using sendmail) (FEATURE_CROND_CALL_SENDMAIL) [N/y/?] n
  crond spool directory (FEATURE_CROND_DIR) [/var/spool/cron] /var/spool/cron
crontab (CRONTAB) [Y/n/?] y
dc (DC) [Y/n/?] y
  Enable power and exp functions (requires libm) (FEATURE_DC_LIBM) [N/y/?] n
devfsd (obsolete) (DEVFSD) [N/y/?] n
Use devfs names for all devices (obsolete) (FEATURE_DEVFS) [N/y/?] n
devmem (DEVMEM) [Y/n/?] y
eject (EJECT) [Y/n/?] y
  SCSI support (FEATURE_EJECT_SCSI) [N/y/?] n
fbsplash (FBSPLASH) [N/y/?] n
flash_eraseall (FLASH_ERASEALL) [N/y/?] n
flash_lock (FLASH_LOCK) [N/y/?] n
flash_unlock (FLASH_UNLOCK) [N/y/?] n
flashcp (FLASHCP) [N/y/?] n
hdparm (HDPARM) [Y/n/?] y
  Support obtaining detailed information directly from drives (FEATURE_HDPARM_GET_IDENTITY) [Y/n/?] y
  Register an IDE interface (DANGEROUS) (FEATURE_HDPARM_HDIO_SCAN_HWIF) [N/y/?] n
  Un-register an IDE interface (DANGEROUS) (FEATURE_HDPARM_HDIO_UNREGISTER_HWIF) [N/y/?] n
  Perform device reset (DANGEROUS) (FEATURE_HDPARM_HDIO_DRIVE_RESET) [N/y/?] n
  Tristate device for hotswap (DANGEROUS) (FEATURE_HDPARM_HDIO_TRISTATE_HWIF) [N/y/?] n
  Get/set using_dma flag (FEATURE_HDPARM_HDIO_GETSET_DMA) [N/y/?] n
i2cget (I2CGET) [Y/n/?] y
45         *__________________________________________________________________________________________________
45       ! _____________________
<09:26AM DrStupid> NBC has not been able to contact Ventura county
) (/usr/local/texlive/2021/texmf-dist/tex/generic/pgf/basiclayer/pgfcoreshade.code.tex
  choice[1-2]: 2
-- [download 94% complete]
-- [download 95% complete]
21:38:12 T:139832867932032  NOTICE: load settings...
21:38:12 T:139832640640768  NOTICE: Thread FDEventMonitor start, auto delete: false
21:38:12 T:139832867932032  NOTICE: Found 1 Lists of Devices
    + -Werror,-Wunused-parameter (clang-cl) [Stephan Bergmann]
    + -Werror,-Wunused-private-field [Stephan Bergmann]
    + -Werror,-Wunused-private-field (clang-cl) [Stephan Bergmann]
45       ! _____________________
46         
    + "Ugandan" is better than "Uganda" (tdf#98403) [Julien Nabet]
    + 'Constant' variable guards dead code (cid#1357163, coverity#1351878, coverity#1351882, coverity#1351755, coverity#1351877, tdf#96414) [Stephan Bergmann, Caolán McNamara]
./Notre_Dame_de_Paris/Acte_II
./Tari%20Tari
./Walt%20Disney
[      1797] [    GTAProcess]             MainThrd/ No such command rbind.
 R. L. Martin, K. Morokuma, V. G. Zakrzewski, G. A. Voth, 
 P. Salvador, J. J. Dannenberg, S. Dapprich, A. D. Daniels, 
 O. Farkas, J. B. Foresman, J. V. Ortiz, J. Cioslowski, 
 and D. J. Fox, Gaussian, Inc., Wallingford CT, 2009.
 
 ******************************************
 Gaussian 09:  AM64L-G09RevA.01  8-May-2009
                31-Aug-2015 
 ******************************************
 %chk=wat-sp.chk
 %nproc=1
 Will use up to    1 processors via shared memory.
 %mem=1GB
 ----------------------
 # RHF/6-31G* SCF=Tight
 ----------------------
 1/38=1/1;
 2/12=2,17=6,18=5,40=1/2;
 3/5=1,6=6,7=1,11=1,16=1,25=1,30=1,116=1/1,2,3;
 4//1;
 5/5=2,32=2,38=5/2;
 6/7=2,8=2,9=2,10=2,28=1/1;
 99/5=1,9=1/99;
 ------
 wat-sp
 ------
 Symbolic Z-matrix:
 Charge =  0 Multiplicity = 1
 O1
 H2                   1     0.9572 
LogPluginManager: Mounting Engine plugin WaveTable
LogPluginManager: Mounting Engine plugin Synthesis
LogPluginManager: Mounting Engine plugin WindowsDeviceProfileSelector
0 K2 categories imported
\c@pgfmathroundto@lastzeros=\count320
[22:42:38] eBay: [-] 8125/8467 no engine matches (HTTP-Status: 503) - http://www.wolviston.org.uk/?p=696
[22:42:38] Currency: [-] 7908/8085 no engine matches (HTTP-Status: 503) - https://northeastnow.com/
tdf#94055 Sorting rows makes autofilter disappear (EDITING) [Zdeněk Crhonek]
fsync (FSYNC) [N/y/?] n

US Core Comparison: compare StructureDefinition[http://hl7.org/fhir/us/ph-library/StructureDefinition/us-ph-pregnancy-outcome-observation|1.0.0] to StructureDefinition[http://hl7.org/fhir/us/core/StructureDefinition/us-core-simple-observation|6.1.0]
DUT	ALASKA	UNALASKA	afd	al_230_25OCT2007.png
VDZ	ALASKA	VALDEZ PIONEER FIELD	afd	al_231_25OCT2007.png
 PROC_COUNT Be10 : ALL = 3461
.                    ==> .
12:32:06 T:6224   DEBUG: AddOnLog: Tvheadend HTSP Client: pvr.hts - recording id:627707058, state:completed, title:SOKO Stuttgart, desc:Krimiserie, Deutschland 2016Sandy, Besitzerin eines Hundesalons, wurde bei der Arbeit an einem Hund erschlagen. Führt das Tier zum Täter?Bo Bollmann, Ehemann des Opfers und Mitinhaber des Hundesalons, hat angeblich mit Sandy eine glückliche Ehe geführt. Bald steht der Verdacht im Raum, dass Sandy Bo mit ihrem alten Schulfreund Jens Fink betrogen hat.Darsteller:Martina Seiffert - Astrid M. FünderichJoachim Stoll - Peter KetnathRico Sander - Benjamin StreckerSelma Kirsch - Yve BurbachMichael Kaiser - Karl KranzkowskiJan Arnaud - Mike Zaka SommerfeldtProf. Dr. Lisa Wolter - Eva Maria BayerwaltesFriedemann Sonntag - Christian PätzoldBenedikt Förster - Florian WünscheThomas "Bo" Bollmann - Martin KapsJens Fink - Michael PinkRosalie Eisele - Annekathrin BürgerDaniel Karlsberg - Urs RemondKundin - Tara Maria Linkeund andereRegie: Daniel AndersonBuch/Autor: Stephan WuschanskyKamera: Notker MahrMusik: Peter GromerHD-ProduktionAltersfreigabe: 12, error:none
G4ParticleHPManager::GetDataStream FILE /home/arce/gamos/external/geant4/geant4.10.04.p02.gamos/../data/G4TENDL1.3.2/Deuteron/Inelastic/F02//7_15_Nitrogen.z
-- [download 36% complete]
PROC_CREATOR_COUNT deuteron : neutronInelastic = 85
[     48579] [    GTAProcess]  UV loop: httpClient/ 
[     48766] [    GTAProcess]             MainThrd/ rage::gameSkeleton::RunInitFunctions: Invoking ViewportSystemInit INIT_CORE init (4 out of 11)
12:32:04 T:7432  NOTICE: Kodi compiled Oct 19 2015 by MSVC 180030723 for Windows NT x86 32-bit version 6.0 (0x06000000)
12:32:04 T:7432  NOTICE: Running on Windows 7 SP1, kernel: Windows NT x86 64-bit version 6.1
	at com.vaadin.server.communication.UidlWriter.write(UidlWriter.java:126) [vaadin-server-8.9.4.jar:8.9.4]
	at com.vaadin.server.communication.UidlRequestHandler.writeUidl(UidlRequestHandler.java:124) [vaadin-server-8.9.4.jar:8.9.4]
#include "confdefs.h"
     Additional Information   : RECEIVER UPDATED

3.3  Receiver Type            : TRIMBLE NETR5
     Satellite System         : GPS+GLO
     Serial Number            : 4933K63128
     Firmware Version         : 4.03
     Elevation Cutoff Setting : 5 DEG
     Date Installed           : 2009-10-01
     Date Removed             : 2011-11-30
     Temperature Stabiliz.    :
     Additional Information   : Receiver failure

3.4  Receiver Type            : TRIMBLE NETRS
     Satellite System         : GPS
     Serial Number            : 4350230189
     Firmware Version         : 1.20
     Elevation Cutoff Setting : 5 DEG
     Date Installed           : 2011-11-30
     Date Removed             : 2011-12-07
     Temperature Stabiliz.    :
     Additional Information   : spare receiver replaced

3.5  Receiver Type            : TRIMBLE NETR5
     Satellite System         : GPS+GLO
     Serial Number            : 4933K63128
     Firmware Version         : 4.03
     Elevation Cutoff Setting : 5 deg
     Date Installed           : 2011-12-07
     Date Removed             : 2013-02-13
     Temperature Stabiliz.    :
Package: titlesec 2019/10/16 v2.13 Sectioning titles
\ttl@box=\box53
\beforetitleunit=\skip68
\aftertitleunit=\skip69
\ttl@plus=\dimen163
 (/usr/local/texlive/2021/texmf-dist/tex/latex/adjustbox/tc-pdftex.def
File: tc-pdftex.def 2019/01/04 v2.2 Clipping driver for pdftex
))
\adjbox@Width=\dimen172
\adjbox@Height=\dimen173
\adjbox@Depth=\dimen174
\adjbox@Totalheight=\dimen175
\adjbox@pwidth=\dimen176
\adjbox@pheight=\dimen177
\adjbox@pdepth=\dimen178
\adjbox@ptotalheight=\dimen179
 (/usr/local/texlive/2021/texmf-dist/tex/latex/ifoddpage/ifoddpage.sty
Package: ifoddpage 2016/04/23 v1.1 Conditionals for odd/even page detection
\c@checkoddpage=\count309
) (/usr/local/texlive/2021/texmf-dist/tex/latex/varwidth/varwidth.sty
Package: varwidth 2009/03/30 ver 0.92;  Variable-width minipages
\@vwid@box=\box57
\sift@deathcycles=\count310
\@vwid@loff=\dimen180
\@vwid@roff=\dimen181
)) (/usr/local/texlive/2021/texmf-dist/tex/latex/algorithms/algorithm.sty
Package: algorithm 2009/08/24 v0.1 Document Style `algorithm' - floating environment
\@float@every@algorithm=\toks39
\c@algorithm=\count311
) (/usr/local/texlive/2021/texmf-dist/tex/latex/tcolorbox/tcolorbox.sty
wells+fargo+arena	01.08.2009 20:39:06	http://www.google.com/hws/search?hl=en&client=dell-usuk-rel&channel=us-psp&ibd=4070620&q=arena+motocross+arizona	Mozilla/4.0 (compatible; MSIE 6.0; Windows NT 5.1; SV1; .NET CLR 1.1.4322; .NET CLR 2.0.50727; InfoPath.1; .NET CLR 3.0.04506.30; .NET CLR 3.0.04506.648)	206.207.43.7
sayville+summerfest	01.08.2009 20:39:11	http://www.google.com/search?hl=en&rls=com.microsoft%3Aen-US&q=time+for+sayville+summer+fest&aq=f&oq=&aqi=	Mozilla/4.0 (compatible; MSIE 8.0; Windows NT 5.1; Trident/4.0; .NET CLR 1.1.4322; .NET CLR 2.0.50727; .NET CLR 3.0.4506.2152; .NET CLR 3.5.30729)	173.2.216.164
#include "confdefs.h"
    [0mThis model is an L/U-PTA:[0m
    [0m- lower-bound parameters {Delta}[0m
    [0m- upper-bound parameters {delta}[0m
File: lstmisc.sty 2020/03/24 1.8d (Carsten Heinz)
[     10265] RgscStub::Initialize
[     10703] Got ROS subprocess - pid 16520
stty (STTY) [Y/n/?] y
sum (SUM) [N/y/?] n
[22:42:47] Justice degree: [-] 8025/8289 download failed (Return: -) - http://toonamifaithful.com/anime-siege-is-coming-to-toonamiasia-starting-in-may
[22:42:47] Mesothelioma T1: [-] 0218/8853 download failed (Return: -) - https://mep.trimble.com/product/ec-cad/
[22:42:47] Web Design T2: [-] 4924/8453 download failed (Return: -) - http://www.bibliotecadecordoba.com/index.php/Apple_s_Apple_ipad_tablet.
[   1965281] overriding handle for mp_f_freemode_01/teef_003_u.ydd (was 4cd05fd) -> 2d0
2A8	ALABAMA	ADDISON MUNI	afd	se_1_25OCT2007.png
EET	ALABAMA	ALABASTER SHELBY CO	afd	se_1_25OCT2007.png
8A0	ALABAMA	ALBERTVILLE RGNL-THOMAS J BRUMLIK FLD	afd	se_2_25OCT2007.png
ALX	ALABAMA	ALEXANDER CITY THOMAS C RUSSELL FLD	afd	se_2_25OCT2007.png
AIV	ALABAMA	ALICEVILLE GEORGE DOWNER	afd	se_3_25OCT2007.png
79J	ALABAMA	SOUTH ALABAMA RGNL AT BILL BENTON FLD	afd	se_3_25OCT2007.png
ANB	ALABAMA	ANNISTON METROPOLITAN	afd	se_4_25OCT2007.png
1M3	ALABAMA	ARDMORE	afd	se_4_25OCT2007.png
26A	ALABAMA	ASHLAND-LINEVILLE	afd	se_4_25OCT2007.png
0R1	ALABAMA	ATMORE MUNI	afd	se_5_25OCT2007.png
AUO	ALABAMA	AUBURN-OPELIKA ROBERT G. PITTS	afd	se_5_25OCT2007.png
1R8	ALABAMA	BAY MINETTE MUNI 	afd	se_6_25OCT2007.png
5R7	ALABAMA	BAYOU LA BATRE ROY E. RAY	afd	se_6_25OCT2007.png
EKY	ALABAMA	BESSEMER	afd	se_6_25OCT2007.png
BHM	ALABAMA	BIRMINGHAM INTL	afd	se_7_25OCT2007.png
04A	ALABAMA	LUVERNE FRANK SIKES	afd	se_30_25OCT2007.png
A08	ALABAMA	MARION VAIDEN FLD	afd	se_31_25OCT2007.png
MXF	ALABAMA	MAXWELL AFB 	afd	se_31_25OCT2007.png
BFM	ALABAMA	MOBILE DOWNTOWN	afd	se_32_25OCT2007.png
MOB	ALABAMA	MOBILE RGNL	afd	se_33_25OCT2007.png
MVC	ALABAMA	MONROEVILLE MONROE CO	afd	se_33_25OCT2007.png
MGM	ALABAMA	MONTGOMERY RGNL-DANNELLY FLD	afd	se_34_25OCT2007.png
L44	ALABAMA	MOUNDVILLE	afd	se_34_25OCT2007.png
MSL	ALABAMA	MUSCLE SHOALS NORTHWEST ALABAMA RGNL	afd	se_35_25OCT2007.png
20A	ALABAMA	ONEONTA ROBBINS FLD	afd	se_35_25OCT2007.png
71J	ALABAMA	OZARK BLACKWELL FLD	afd	se_36_25OCT2007.png
PLR	ALABAMA	PELL CITY ST CLAIR CO	afd	se_36_25OCT2007.png
71A	ALABAMA	PINE HILL MUNI	afd	se_36_25OCT2007.png
1A9	ALABAMA	PRATTVILLE-GROUBY FLD	afd	se_37_25OCT2007.png
HUA	ALABAMA	REDSTONE AAF 	afd	se_37_25OCT2007.png

     FLAI Site Information Form (site log)
     Florida Department of Transportation
x+games+15+moto+x+best+trick	01.08.2009 23:43:48	http://www.google.com/search?client=safari&rls=en&q=x+games+hometown+hero+results&ie=UTF-8&oe=UTF-8	Mozilla/5.0 (Macintosh; U; Intel Mac OS X 10_4_11; en) AppleWebKit/530.17 (KHTML, like Gecko) Version/4.0 Safari/530.17	99.160.166.107
clasica+san+sebastian+live	01.08.2009 23:44:27	http://www.google.co.uk/search?client=firefox-a&rls=org.mozilla%3Aen-GB%3Aofficial&channel=s&hl=en&q=san+sebastian+highlights+watch&meta=&btnG=Google+Search	Mozilla/5.0 (Windows; U; Windows NT 5.1; en-GB; rv:1.9.0.12) Gecko/2009070611 Firefox/3.0.12	88.106.135.76
cancun+beach+closed	01.08.2009 22:49:58	http://www.google.com/search?q=is+the+beach+at+the+gran+caribe+real+still+closed%3F&rls=com.microsoft:en-us:IE-SearchBox&ie=UTF-8&oe=UTF-8&sourceid=ie7	Mozilla/4.0 (compatible; MSIE 8.0; Windows NT 6.0; Trident/4.0; SLCC1; .NET CLR 2.0.50727; .NET CLR 1.1.4322; InfoPath.1; .NET CLR 3.5.30729; .NET CLR 3.0.30618)	75.32.207.166
carlos+justo	01.08.2009 22:50:32	http://www.google.com/search?q=carlos%20justo&hl=en&client=safari&rls=en-us&output=search&tbs=rcnt:1&tbo=1	Mozilla/5.0 (Macintosh; U; Intel Mac OS X 10_5_7; en-us) AppleWebKit/530.19.2 (KHTML, like Gecko) Version/4.0.2 Safari/530.19	69.235.19.238
market+days+chicago+2009	01.08.2009 22:51:31	http://www.google.com/search?client=safari&rls=en&q=halsted+market+fest+chicago+il&ie=UTF-8&oe=UTF-8	Mozilla/5.0 (Macintosh; U; PPC Mac OS X 10_4_11; en) AppleWebKit/525.27.1 (KHTML, like Gecko) Version/3.2.1 Safari/525.27.1	67.173.101.44
clasica+san+sebastian+live	01.08.2009 22:52:05	http://www.google.com/search?client=safari&rls=en&q=2009+Cl%C3%A1sica+de+San+Sebasti%C3%A1n+standings&ie=UTF-8&oe=UTF-8	Mozilla/5.0 (Macintosh; U; Intel Mac OS X 10_4_11; en) AppleWebKit/530.17 (KHTML, like Gecko) Version/4.0 Safari/530.17	71.232.15.225
market+days+chicago+2009	01.08.2009 22:52:43	http://www.google.com/m/search?ct=fsh&q=market+days+chicago	Mozilla/5.0 (SymbianOS/9.4; U; Series60/5.0 Nokia5800d-1b/20.2.014; Profile/MIDP-2.1 Configuration/CLDC-1.1 ) AppleWebKit/413 (KHTML, like Gecko) Safari/413	66.42.235.254
mcmackin+slur	01.08.2009 22:53:04	http://www.google.com/search?hl=en&q=Audio+of+Greg+McMackin%27s+gay+slur	Mozilla/5.0 (Macintosh; U; Intel Mac OS X 10_5_7; en-us) AppleWebKit/530.19.2 (KHTML, like Gecko) Version/4.0.2 Safari/530.19	66.220.122.165
sayville+summerfest	01.08.2009 22:53:09	http://www.google.com/search?hl=en&q=street+closings+sayville%2C+ny	Mozilla/4.0 (compatible; MSIE 7.0; Windows NT 6.0; SLCC1; .NET CLR 2.0.50727; Media Center PC 5.0; .NET CLR 3.5.30729; .NET CLR 3.0.30618)	24.46.146.190
petty+officer+jonathan+campos	01.08.2009 22:53:20	http://www.google.com/search?hl=en&q=Petty+Officer+Jonathan+Campos&aq=f&oq=&aqi=	Opera/9.63 (Windows NT 5.1; U; en) Presto/2.1.1	98.168.178.86
mardomak	01.08.2009 22:53:24	http://www.google.co.uk/search?hl=en&q=mardomak+news&meta=&aq=5&oq=mardoma	Mozilla/4.0 (compatible; MSIE 7.0; Windows NT 6.0; Mozilla/4.0 (compatible; MSIE 6.0; Windows NT 5.1; SV1) ; SLCC1; .NET CLR 2.0.50727; .NET CLR 3.0.04506; InfoPath.2)	90.211.81.243
donnie+wahlberg	01.08.2009 22:54:21	http://www.google.com/search?q=donnie%20wahlberg&hl=en&client=safari&rls=en-us&output=search&tbs=qdr:d&tbo=1	Mozilla/5.0 (Macintosh; U; Intel Mac OS X 10_5_7; en-us) AppleWebKit/530.19.2 (KHTML, like Gecko) Version/4.0.2 Safari/530.19	98.229.72.238
what+did+greg+mcmackin+say	01.08.2009 22:54:29	http://www.google.com/search?hl=en&q=what+did+mcmackin+say%3F+faggot&aq=f&oq=&aqi=	Mozilla/5.0 (Windows; U; Windows NT 5.1; en-US) AppleWebKit/530.19.2 (KHTML, like Gecko) Version/4.0.2 Safari/530.19.1	98.220.201.18
carolina+panthers	01.08.2009 22:54:31	http://search.hp.my.aol.com/aol/search?query=carolina+panthers++aug+2009+depth+chart&page=4&nt=SG4&s_it=topsearchbox.search&s_cs=1733591324790804189	Mozilla/4.0 (compatible; MSIE 7.0; Windows NT 6.0; SLCC1; .NET CLR 2.0.50727; Media Center PC 5.0; .NET CLR 3.5.21022; .NET CLR 3.5.30729; .NET CLR 3.0.30618)	24.129.85.219
jerry+garcia+birthday	01.08.2009 22:54:37	http://www.google.com/search?hl=en&q=jerry+garcia+birthday+parties+pennsylvania&aq=f&oq=&aqi=	Mozilla/4.0 (compatible; MSIE 7.0; Windows NT 5.1; Comcast Install 1.0; .NET CLR 1.0.3705; Tablet PC 1.7)	69.139.94.132
jonathan+campos	01.08.2009 22:54:44	http://www.google.com/search?q=Petty+Officer+Jonathan+Campos&hl=en&start=10&sa=N	Opera/9.63 (Windows NT 5.1; U; en) Presto/2.1.1	98.168.178.86
ohio+state+fair	01.08.2009 22:54:48	http://www.ask.com/bar?q=2009+ohio+state+fair+truck%2Ftractor+pull&page=1&qsrc=2020&ab=9&u=http%3A%2F%2Fcomicsunlimited.com%2Fcomics%2Findex.php%3Fohio%2Bstate%2Bfair	Mozilla/5.0 (Windows; U; Windows NT 5.1; en-US; rv:1.8.1.12) Gecko/20080219 Firefox/2.0.0.12 Navigator/9.0.0.6	67.140.99.137
joel+tenenbaum	01.08.2009 22:54:54	http://www.google.com/search?hl=en&rlz=1T4GGLJ_en&ei=jcd0Ss34GYj-M6jbtbEM&sa=X&oi=spell&resnum=0&ct=result&cd=1&q=joel+tenenbaum+providence+r+i&spell=1	Mozilla/4.0 (compatible; MSIE 8.0; Windows NT 5.1; Trident/4.0; GTB6; .NET CLR 2.0.50727; .NET CLR 3.0.4506.2152; .NET CLR 3.5.30729)	68.231.61.223
carolina+panthers	01.08.2009 22:55:21	http://search.hp.my.aol.com/aol/search?query=carolina+panthers++aug+2009+depth+chart&page=4&nt=SG4&s_it=topsearchbox.search&s_cs=1733591324790804189	Mozilla/4.0 (compatible; MSIE 7.0; Windows NT 6.0; SLCC1; .NET CLR 2.0.50727; Media Center PC 5.0; .NET CLR 3.5.21022; .NET CLR 3.5.30729; .NET CLR 3.0.30618)	24.129.85.219
petty+officer+jonathan+campos	01.08.2009 22:57:10	http://www.google.com/search?hl=en&q=Petty+Officer+Jonathan+Campos&aq=f&oq=&aqi=	Mozilla/4.0 (compatible; MSIE 8.0; Windows NT 6.0; Trident/4.0; SLCC1; .NET CLR 2.0.50727; Media Center PC 5.0; .NET CLR 3.5.30729; .NET CLR 3.0.30618)	75.50.170.144
pan+mass+challenge+route	01.08.2009 22:57:18	http://search.aol.com/aol/search?s_it=topsearchbox.search&q=pan+mass+challenge+map	Mozilla/4.0 (compatible; MSIE 7.0; AOL 9.1; AOLBuild 4334.5006; Windows NT 5.1; Trident/4.0; GTB6; .NET CLR 1.0.3705; .NET CLR 1.1.4322; Media Center PC 4.0; .NET CLR 3.0.04506.30; .NET CLR 2.0.50727)	205.188.116.131
pan+mass+challenge+route	01.08.2009 22:58:25	http://www.google.com/search?q=2009+pan+mass+route&rls=com.microsoft:en-us:IE-SearchBox&ie=UTF-8&oe=UTF-8&sourceid=ie7&rlz=1I7GZXZ_en	Mozilla/4.0 (compatible; MSIE 8.0; Windows NT 5.1; Trident/4.0; .NET CLR 1.1.4322; .NET CLR 2.0.50727)	173.76.236.130
jonathan+campos	01.08.2009 22:59:43	http://www.google.com/search?hl=en&as_q=&as_epq=Jonathan+Campos&as_oq=&as_eq=&num=10&lr=&as_filetype=&ft=i&as_sitesearch=&as_qdr=all&as_rights=&as_occt=any&cr=&as_nlo=&as_nhi=&safe=images	Mozilla/5.0 (Windows; U; Windows NT 5.1; en-US; rv:1.9.1.1) Gecko/20090715 Firefox/3.5.1	209.107.217.10
spiedie+fest	01.08.2009 23:00:17	http://www.google.com/search?client=ms-rim&hl=en&q=dickenson%2C%20ny%20hot%20air%20balloons&ie=UTF-8&channel=browser	BlackBerry9000/4.6.0.167 Profile/MIDP-2.0 Configuration/CLDC-1.1 VendorID/102	206.53.153.109
spiedie+fest	01.08.2009 23:01:26	http://www.google.com/m?hl=en&gl=us&client=ms-android-tmobile-us&source=android-launcher-widget&q=speedie+chicken+festival	Mozilla/5.0 (Linux; U; Android 1.5; en-us; T-Mobile G1 Build/CRC1) AppleWebKit/528.5+ (KHTML, like Gecko) Version/3.1.2 Mobile Safari/525.20.1	208.54.87.63
spiedie+fest	01.08.2009 23:01:58	http://www.google.com/m?hl=en&gl=us&client=ms-android-tmobile-us&source=android-launcher-widget&q=speedie+chicken+festival	Mozilla/5.0 (Linux; U; Android 1.5; en-us; T-Mobile G1 Build/CRC1) AppleWebKit/528.5+ (KHTML, like Gecko) Version/3.1.2 Mobile Safari/525.20.1	208.54.87.79
drake+falls+on+stage	01.08.2009 23:02:12	http://www.google.com/search?ie=UTF-8&oe=UTF-8&sourceid=navclient&gfns=1&q=drake+bell+falls+on+stage%3F	Mozilla/5.0 (Windows; U; Windows NT 5.1; en-GB; rv:1.9.0.12) Gecko/2009070611 Firefox/3.0.12	86.25.183.157
laguardia+airport	01.08.2009 23:02:15	http://www.google.com/search?hl=en&q=laguardia+airport+arrivals&aq=9&oq=laguardia+airport+&aqi=g-z1g9	Mozilla/4.0 (compatible; MSIE 6.0; Windows NT 5.1; SV1; .NET CLR 2.0.50727; .NET CLR 3.0.04506.30)	173.68.102.113
spiedie+fest	01.08.2009 23:02:19	http://www.google.com/m?hl=en&gl=us&client=ms-android-tmobile-us&source=android-launcher-widget&q=speedie+chicken+festival	Mozilla/5.0 (Linux; U; Android 1.5; en-us; T-Mobile G1 Build/CRC1) AppleWebKit/528.5+ (KHTML, like Gecko) Version/3.1.2 Mobile Safari/525.20.1	208.54.87.63
joel+tenenbaum	01.08.2009 23:02:28	http://www.google.co.uk/search?rlz=1C1DVCB_enGB330GB331&sourceid=chrome&ie=UTF-8&q=Joel+Tenenbaum%2C+of+Providence%2C+R.I	Mozilla/5.0 (Windows; U; Windows NT 5.1; en-US) AppleWebKit/530.5 (KHTML, like Gecko) Chrome/2.0.172.37 Safari/530.5	86.22.73.137
market+days+chicago+2009	01.08.2009 23:02:48	http://search.comcast.net/?cat=web&con=homepage&form_submit=1&q=North+Halsted+Market+Days	Mozilla/4.0 (compatible; MSIE 8.0; Windows NT 5.1; Trident/4.0; .NET CLR 1.1.4322; yie8)	98.206.0.53
101+dalmations	01.08.2009 23:03:42	http://www.google.com/search?hl=en&client=firefox-a&rls=org.mozilla%3Aen-US%3Aofficial&hs=PzN&q=watch+101+dalmations+cartoon+online&aq=f&oq=&aqi=	Mozilla/5.0 (Windows; U; Windows NT 6.0; en-US; rv:1.9.0.12) Gecko/2009070611 Firefox/3.0.12	68.227.114.77
<09:44AM DrStupid> KNBC - Holy Cross hospital was under evacuation of its patients
<09:44AM KNBC> Gr hills is hurting
 CreateHisto1D RTPSPDoseHistos: Dose = 36201
sono+arts+festival	01.08.2009 18:19:25	http://www.google.com/search?hl=en&ie=ISO-8859-1&q=2009+SoNo+Festival%2C+Stamford%2C+CT&btnG=Google+Search&aq=f&oq=&aqi=	Mozilla/4.0 (compatible; MSIE 7.0; AOL 9.0; Windows NT 5.1; .NET CLR 1.0.3705; .NET CLR 1.1.4322; .NET CLR 2.0.50727)	64.12.116.139
CDH	ARKANSAS	CAMDEN HARRELL FLD	afd	sc_7_25OCT2007.png
4M3	ARKANSAS	CARLISLE MUNI	afd	sc_7_25OCT2007.png
invicta+9212+men%E2%80%99s+gold+plated+stainless+steel+speedway+watch	01.08.2009 18:36:57	http://www.google.com/url?sa=t&source=web&ct=res&cd=1&url=http%3A%2F%2Fcomicsunlimited.com%2Fcomics%2Findex.php%3Finvicta%2B9212%2Bmen%25E2%2580%2599s%2Bgold%2Bplated%2Bstainless%2Bsteel%2Bspeedway%2Bwatch&ei=RYt0SruGL4iqtgO6usXHCA&rct=j&q=Invicta+9212+Men%E2%80%99s+Gold+Plated+Stainless+Steel+Speedway+Watch&usg=AFQjCNHVHhg9g3_QCeShED4dzi5sUc7CTg	Mozilla/5.0 (Windows; U; Windows NT 6.0; en-US; rv:1.9.0.12) Gecko/2009070611 Firefox/3.0.12	71.95.17.212
2021-10-26T21:51:43.159Z,54.159012,43ba000,7 [FLog::Network] Assigned peer id = 6
2021-10-26T21:51:43.159Z,54.159294,43ba000,7 [FLog::Network] Join snapshot timer: 0.183192
2021-10-26T21:51:43.408Z,54.408955,43ba000,6 [FLog::LocalStorage] LocalStorage flushing
2021-10-26T21:51:43.409Z,54.409172,44c0000,6 [FLog::LocalStorage] LocalStorage writing to file: /Users/studioagain/Library/Roblox/LocalStorage/appStorage.json
2021-10-26T21:51:43.409Z,54.409241,44c0000,6 [FLog::LocalStorage] LocalStorage will flush 11290 bytes to /Users/studioagain/Library/Roblox/LocalStorage/appStorage.json
Executing: mpicc  -o /tmp/petsc-uGvYRc/config.setCompilers/conftest    /tmp/petsc-uGvYRc/config.setCompilers/conftest.o -ldl 
          Using dynamic linker mpicc with flags ['-shared'] and library extension so
instanceKlass java/util/zip/ZipFile$1
instanceKlass sun/misc/JavaUtilZipFileAccess
instanceKlass java/util/zip/ZipFile
            Population analysis using the SCF density.

 **********************************************************************
) (/usr/local/texlive/2021/texmf-dist/tex/latex/listings/listings.sty (/usr/local/texlive/2021/texmf-dist/tex/latex/graphics/keyval.sty
Package: keyval 2014/10/28 v1.15 key=value parser (DPC)
\KV@toks@=\toks17
)
\lst@mode=\count188
	at java.util.concurrent.ThreadPoolExecutor$Worker.run(ThreadPoolExecutor.java:624) [?:1.8.0_252]
	at org.apache.tomcat.util.threads.TaskThread$WrappingRunnable.run(TaskThread.java:61) [tomcat-util.jar:9.0.34]
tdf#57274 EDITING: Paste Special Link Checkbox fails to insert cell references when the source cell is blank [Zdeněk Crhonek]
tdf#57950 Replace chained O(U)StringBuffer::append() with operator+ [ekuiitr]
tdf#58407 Call inserted images Figure rather than Illustration by default in caption [Nickson Thanda]
tdf#58874 OFFSET function in array context compatibility with Excel [Eike Rathke]
tdf#84205 FILESAVE: Theme Colors inverted in drawings after PPTX roundtrip (black part turned to white) [Szymon Kłos]
build	14-Jul-2020 09:19:57	[DEBUG]   Imported: javax.enterprise.inject.* < plexus.core
0 posts imported
12:32:05 T:7432   DEBUG: ADDON: cpluff: 'Plug-in plugin.video.zdf_de_lite has been installed.'
12:32:05 T:7432   DEBUG: ADDON: cpluff: 'Plug-in metadata.album.universal has been installed.'
Lockfile: 
-- [download 63% complete]
-- [download 64% complete]
-- [download 65% complete]
-- [download 66% complete]
-- [download 67% complete]
	at info.magnolia.cms.filters.AbstractMgnlFilter.doFilter(AbstractMgnlFilter.java:85) [magnolia-core-6.2.3.jar:?]
	at info.magnolia.cms.filters.SafeDestroyMgnlFilterWrapper.doFilter(SafeDestroyMgnlFilterWrapper.java:107) [magnolia-core-6.2.3.jar:?]
-- [download 40% complete]

LaTeX Warning: `!h' float specifier changed to `!ht'.
[2023.05.20-22.07.43:062][  0]LogDeviceProfileManager: 	[00000A60F7A87E00][00000A60ED6D0000 52] WindowsClient, 
[2023.05.20-22.07.43:062][  0]LogDeviceProfileManager: 	[00000A60F9920A00][00000A60F993C800 52] iPadPro3_11, 
exFAT filesystem (FEATURE_VOLUMEID_EXFAT) [Y/n/?] y
Ext filesystem (FEATURE_VOLUMEID_EXT) [Y/n/?] y
f2fs filesystem (FEATURE_VOLUMEID_F2FS) [Y/n/?] y
fat filesystem (FEATURE_VOLUMEID_FAT) [Y/n/?] y
hfs filesystem (FEATURE_VOLUMEID_HFS) [N/y/?] n
iso9660 filesystem (FEATURE_VOLUMEID_ISO9660) [N/y/?] n
jfs filesystem (FEATURE_VOLUMEID_JFS) [N/y/?] n
linuxraid (FEATURE_VOLUMEID_LINUXRAID) [N/y/?] n
linux swap filesystem (FEATURE_VOLUMEID_LINUXSWAP) [N/y/?] n
luks filesystem (FEATURE_VOLUMEID_LUKS) [N/y/?] n
nilfs filesystem (FEATURE_VOLUMEID_NILFS) [N/y/?] n
ntfs filesystem (FEATURE_VOLUMEID_NTFS) [N/y/?] n
ocfs2 filesystem (FEATURE_VOLUMEID_OCFS2) [N/y/?] n
Reiser filesystem (FEATURE_VOLUMEID_REISERFS) [N/y/?] n
romfs filesystem (FEATURE_VOLUMEID_ROMFS) [N/y/?] n
sysv filesystem (FEATURE_VOLUMEID_SYSV) [N/y/?] n
UBIFS filesystem (FEATURE_VOLUMEID_UBIFS) [Y/n/?] y
udf filesystem (FEATURE_VOLUMEID_UDF) [N/y/?] n
xfs filesystem (FEATURE_VOLUMEID_XFS) [N/y/?] n
makedevs (MAKEDEVS) [Y/n/?] y
  Choose makedevs behaviour
    1. leaf (FEATURE_MAKEDEVS_LEAF)
  > 2. table (FEATURE_MAKEDEVS_TABLE)
  choice[1-2]: 2
man (MAN) [N/y/?] n
microcom (MICROCOM) [Y/n/?] y
mountpoint (MOUNTPOINT) [Y/n/?] y
mt (MT) [Y/n/?] y
nandwrite (NANDWRITE) [N/y/?] n
nanddump (NANDDUMP) [N/y/?] n
[2023.05.20-22.07.43:062][  0]LogDeviceProfileManager: 	[00000A60F7A8AA00][00000A60EEFC2800 52] WindowsServer, 
     MPG Build Date: Tue Apr 24 12:25:56 PDT 2007
       MPG Build OS: Linux
     MPG Build Node: Linux sps-linux-srv-1.jpl.nasa.gov 2.4.20-28.7smp #1 SMP Thu Dec 18 11:18:31 EST 2003 i686 unknown
ofz#6102 null-dereference [Caolán McNamara]
     Cr_sctns:          GheishaInelastic: 0 eV  ---> 100 TeV

PROC_CREATOR_COUNT neutron : neutronInelastic = 865
PROC_CREATOR_COUNT neutron : protonInelastic = 3780
\titlewidthlast=\dimen166
<10:02AM tasm> be back guys!!!
<10:02AM KNBC> Yes looting
tim+hack+and+kelly+drew	01.08.2009 17:53:32	http://www.google.com/search?client=safari&rls=en-us&q=kelly+drew,+WI&ie=UTF-8&oe=UTF-8	Mozilla/5.0 (Macintosh; U; Intel Mac OS X 10_5_7; en-us) AppleWebKit/525.28.3 (KHTML, like Gecko) Version/3.2.1 Safari/525.27.1	68.101.113.148
what+did+greg+mcmackin+say	01.08.2009 17:53:42	http://www.google.com/search?hl=en&client=firefox-a&rls=org.mozilla%3Aen-US%3Aofficial&hs=1Uy&q=what+did+he+say+hawaii+coach+gay&aq=f&oq=&aqi=	Mozilla/5.0 (Windows; U; Windows NT 6.0; en-US; rv:1.9.0.12) Gecko/2009070611 Firefox/3.0.12	76.27.237.6
market+days+chicago+2009	01.08.2009 17:53:43	http://www.google.com/search?hl=en&q=halsted+street+fair+2009&aq=0&oq=halsted+street+fa&aqi=g1	Mozilla/4.0 (compatible; MSIE 7.0; Windows NT 5.1; GTB6; .NET CLR 1.1.4322; .NET CLR 2.0.50727)	24.1.244.83
fayette+county+fair	01.08.2009 17:54:10	http://www.google.com/search?sourceid=navclient&ie=UTF-8&rlz=1T4ADBS_enUS256US264&q=Fayette+County+Indiana+fairgrounds	Mozilla/4.0 (compatible; MSIE 8.0; Windows NT 6.0; Trident/4.0; GTB6; SLCC1; .NET CLR 2.0.50727; .NET CLR 3.0.04506; yie8)	208.102.174.30
tim+hack+and+kelly+drew	01.08.2009 17:55:02	http://www.google.com/search?hl=en&q=Tim+Hack+and+Kelly+Drew+&btnG=Google+Search&aq=f&oq=&aqi=	Mozilla/4.0 (compatible; MSIE 6.0; Windows NT 5.1; SV1; InfoPath.1; .NET CLR 1.1.4322)	65.40.60.156
12:32:05 T:6472  NOTICE:         m_sampleRates     : 192000,96000,48000,44100
[22:42:43] Health: [+] 8183/8339 matches engine Wordpress Article - http://www.inbloom.info/archives/51
[22:42:43] Travels: [-] 8127/8263 no form at all - http://absorbentesdecolombia.com/index.php/component/users/?view=registration
[22:42:43] Amazon: [-] 3690/7825 Drupal - Blog captcha url resolve failed (proxy: 138.68.53.44:8118) http://www.yessbackpack.org/?q=user
[22:42:43] Health: [+] 8183/8339 new URL - http://www.inbloom.info/wp-login.php?action=register
[22:42:43] Travels: [+] 8127/8263 matches engine EasyBlog - http://absorbentesdecolombia.com/?option=com_k2&view=itemlist&task=user&id=8751
[22:42:43] Health: [+] 8183/8339 new URL - http://www.inbloom.info/wp-login.php?action=register
[22:42:43] Amazon: [-] 3691/7825 no engine matches (HTTP-Status: 503) - http://markgroves.tv/theyre-not-gender-issues-theyre-human-issues-heforshe/
[22:42:43] Travels: [-] 8127/8263 wrong engine detected (ezblog-dashboard|implement(easyblog) - http://absorbentesdecolombia.com/index.php?option=com_easyblog&view=dashboard&layout=write
[22:42:43] Health: [-] 8183/8339 no form at all - http://www.inbloom.info/wp-login.php?action=register
[22:42:43] Mesothelioma T1: [+] 0213/8853 matches engine SupeSite - http://www.ietrade.com.cn
[22:42:43] Cooking TIPS: [-] 0202/7845 no engine matches (HTTP-Status: 400) - https://www.newscorpaustralia.com
[22:42:43] Mesothelioma T1: [+] 0213/8853 unknown registration status - http://www.ietrade.com.cn
[22:42:43] Insurance: [+] 8214/8262 matches engine Wordpress Article - http://www.inktippitchsummit.com/
[22:42:43] Car Insurance: [-] 4195/8012 no engine matches - http://quantitycosts.com/building-construction-costings/forecasting-and-reporting/benefits-of-forecasting-and-reporting/
[22:42:43] Insurance: [+] 8214/8262 new URL - http://www.inktippitchsummit.com/wp-login.php?registration=disabled
[22:42:43] Insurance: [-] 8214/8262 registration failed (registration=disabled) - http://www.inktippitchsummit.com/wp-login.php?registration=disabled
[22:42:43] Make money online: [-] 7820/8047 no engine matches (HTTP-Status: 400) - https://kliniksehatbahagia.com
[22:42:43] Precious metals: [-] 0100/8003 no engine matches (HTTP-Status: 400) - https://www.purplealienplanet.com/
[22:42:43] Win News Time: [-] 7746/7826 no engine matches (HTTP-Status: 400) - https://tealashes.com/
[22:42:43] Precious metals: [-] 0101/8003 no engine matches (HTTP-Status: 0) - http://mikethomastv.com/?p=1103
[22:42:43] Cooking TIPS: [-] 0203/7845 no engine matches (HTTP-Status: 503) - http://www.badmoebel-markenshop.de/blog/4-haeufig-gestellte-fragen-zu-spiegeln-mit-farbtemperaturwechsel/
[22:42:43] Mesa DUI lawyer: [-] 8181/8414 no engine matches (HTTP-Status: 400) - https://tapchiphunu.net.vn
[22:42:44] Agriculture: [+] 8481/8495 matches engine Wordpress Article - http://www.stopsmartmetersbc.com
[22:42:44] Agriculture: [+] 8481/8495 new URL - http://www.stopsmartmetersbc.com/wp-login.php
[22:42:44] Hindu temples: [-] 0576/8054 no engine matches (HTTP-Status: 0) - http://ecovirtual.com.bo/?attachment_id=35
[22:42:44] Agriculture: [+] 8481/8495 new URL - http://www.stopsmartmetersbc.com/wp-login.php?action=lostpassword
[22:42:44] Hindu temples: [-] Verification of Wordpress Article not successful->removed - http://sportmat.dk [Registration] http://sportmat.dk/wp-login.php?redirect_to=http%3A%2F%2Fsportmat.dk%2F
[22:42:44] Agriculture: [-] 8481/8495 required variable "your e-mail" was not used in form. http://www.stopsmartmetersbc.com/wp-login.php?action=lostpassword
[22:42:44] Hindu temples: [ ] E-Mail Verification finished.
[22:42:44] Hindu temples: [ ] Verifying finished (3 checks done)
[22:42:40] Car Insurance: [-] 4193/8012 no engine matches - http://travelblog.seales.co.nz/
[     19218] rage::gameSkeleton::RunInitFunctions: Invoking CPlantMgr INIT_CORE init (20 out of 52)
[     19281] Got ROS subprocess - pid 14144
[22:42:31] Online Degree: [-] 7888/8074 no form at all - http://musingonmedia.com/wp-login.php?action=register
[22:42:31] Precious metals: [-] 0093/8003 no engine matches (HTTP-Status: 500) - https://studiograficomaio.it/it/component/k2/item/19-festa-cuori-gioiosi.html?start=99250
[22:42:31] Social Media: [-] 0491/7976 no engine matches (HTTP-Status: 503) - http://www.beautysalonandrea.nl
[22:42:31] Mortgage: [-] 7932/8168 download failed (Return: -, SockError: Connection reset by peer) - https://www.filter-supplier.com/
[22:42:31] Win News Time: [-] 7742/7826 no engine matches (HTTP-Status: 503) - http://homesick.nu/
[22:42:31] Mortgage: [-] 7933/8168 download failed (Return: 301 Moved Permanently, Proxy: 160.2.52.234:8080) - https://www.bretstable.com/general-blog/blue-cheese-pecan-crackers-with-cocoa-nibs/
[22:42:31] Mortgage: [-] 7934/8168 no engine matches - http://www.cruzteng.com/2016/12/28/woohoo-2016/
[22:42:31] Bollywood: [-] 0187/7884 no engine matches (HTTP-Status: 501) - https://redheadcandecorate.com/2015/06/inspiration-monday-party-89/
[22:42:31] Health: [-] 8176/8339 no engine matches (HTTP-Status: 400) - https://www.irbbarcelona.org
[22:42:31] Sai: [-] 8082/8249 download failed (Return: -, SockError: Connection reset by peer) - https://www.carehomeprofessional.com/e-magazines/care-home-professional-july-2019/
[22:42:31] Car Insurance: [-] 4188/8012 no engine matches (HTTP-Status: 400) - https://www.centerfordrugtestinformation.com
[22:42:32] Computer: [-] 0310/8028 no engine matches - http://danaemarie.blogspot.com/2013/08/walden-on-wheels-on-open-road-from-debt.html
[22:42:32] Travels: [+] 8122/8261 matches engine Wordpress Article - http://www.fix-review.com
[22:42:32] Travels: [+] 8122/8261 new URL - http://www.fix-review.com/wp-login.php?action=register
[22:42:32] Travels: [+] 8122/8261 new URL - http://www.fix-review.com
[22:42:32] Travels: [-] 8122/8261 no form at all - http://www.fix-review.com
[22:42:32] Injury Lawyers T2: [-] 3901/8161 no engine matches (HTTP-Status: 301) - https://e-diy.net/wiki/index.php?title=Special:UserLogin&action=submitlogin&type=signup&returnto=User:ShermanMathews
[22:42:32] Social Media: [+] 0492/7976 matches engine Wordpress Article - http://universalknowledge.pl/pl/?p=224
[22:42:32] Social Media: [+] 0492/7976 new URL - http://universalknowledge.pl/pl/wp-login.php
[22:42:32] Social Media: [+] 0492/7976 new URL - http://universalknowledge.pl/pl/wp-login.php
[22:42:32] Social Media: [-] 0492/7976 required variable "your e-mail" was not used in form. http://universalknowledge.pl/pl/wp-login.php
[22:42:32] Hollywood: [-] 8221/8544 no engine matches (HTTP-Status: 500) - https://www.rs-royal.com/?topic=2041511.0
[22:42:32] Precious metals: [-] 0094/8003 no engine matches (HTTP-Status: 400) - https://www.frogyellowart.net/
[22:42:32] Online Degree: [-] 7889/8073 no engine matches (HTTP-Status: 503) - http://www.basketballgearonline.com/
[22:42:32] Make money online: [-] 7816/8047 no engine matches (HTTP-Status: 503) - https://www.twingalaxies.com
[22:42:32] Bollywood: [-] 0188/7884 no engine matches (HTTP-Status: 501) - https://thedebut.net/xe/?document_srl=3064
[22:42:32] Currency: [-] 7903/8085 no engine matches (HTTP-Status: 503) - http://globalinfoonline.com/bubonic-plague-outburst-occured-in-1330/
[22:42:32] Bollywood: [-] 0189/7884 no engine matches (HTTP-Status: 400) - https://queduong.com
[22:42:32] Insurance: [-] 8208/8262 no engine matches (HTTP-Status: 500) - https://cjworld.co.kr/?document_srl=91464
[22:42:32] Health: [-] 8177/8339 no engine matches (HTTP-Status: 504) - http://www.shepherds-rod-speaks.org/2015/06/who-is-to-come-in-the-spirit-and-power-of-elijah/
28         	title "this.myTicker";
29         run;

  Fetching:

Installing hl7.fhir.r5.core#5.0.0 done.
status code: 200

2021-10-26T21:51:36.724Z,47.724064,4231000,6 [FLog::GameJoinUtil] GameJoinUtil::makePlaceLauncherRequestForTeleport: requestCount: 6, url: https://gamejoin.roblox.com/v1/join-reserved-game
2021-10-26T21:51:36.724Z,47.724113,4231000,6 [FLog::GameJoinUtil] Delaying request by 0.42 seconds
2021-10-26T21:51:37.235Z,48.235489,4231000,6 [FLog::GameJoinUtil] GameJoinUtil::makePlaceLauncherRequestForTeleport, response:
{"jobId":"JoinPrivateGame:PlaceId=4996049426&AccessCode=405cc706-a41d-4d4f-b250-4b6784555e4e","status":0,"joinScriptUrl":null,"authenticationUrl":null,"authenticationTicket":null,"message":null,"joinScript":null}
status code: 200

2021-10-26T21:51:37.235Z,48.235695,4231000,6 [FLog::GameJoinUtil] GameJoinUtil::makePlaceLauncherRequestForTeleport: requestCount: 7, url: https://gamejoin.roblox.com/v1/join-reserved-game
2021-10-26T21:51:37.235Z,48.235821,4231000,6 [FLog::GameJoinUtil] Delaying request by 0.49 seconds
2021-10-26T21:51:37.822Z,48.822605,4231000,6 [FLog::GameJoinUtil] GameJoinUtil::makePlaceLauncherRequestForTeleport, response:
{"jobId":"JoinPrivateGame:PlaceId=4996049426&AccessCode=405cc706-a41d-4d4f-b250-4b6784555e4e","status":0,"joinScriptUrl":null,"authenticationUrl":null,"authenticationTicket":null,"message":null,"joinScript":null}
status code: 200

2021-10-26T21:51:37.822Z,48.822769,4231000,6 [FLog::GameJoinUtil] GameJoinUtil::makePlaceLauncherRequestForTeleport: requestCount: 8, url: https://gamejoin.roblox.com/v1/join-reserved-game
2021-10-26T21:51:37.822Z,48.822845,4231000,6 [FLog::GameJoinUtil] Delaying request by 0.41 seconds
2021-10-26T21:51:38.335Z,49.335609,4231000,6 [FLog::GameJoinUtil] GameJoinUtil::makePlaceLauncherRequestForTeleport, response:
{"jobId":"JoinPrivateGame:PlaceId=4996049426&AccessCode=405cc706-a41d-4d4f-b250-4b6784555e4e","status":0,"joinScriptUrl":null,"authenticationUrl":null,"authenticationTicket":null,"message":null,"joinScript":null}
status code: 200

2021-10-26T21:51:38.335Z,49.335754,4231000,6 [FLog::GameJoinUtil] GameJoinUtil::makePlaceLauncherRequestForTeleport: requestCount: 9, url: https://gamejoin.roblox.com/v1/join-reserved-game
2021-10-26T21:51:38.335Z,49.335842,4231000,6 [FLog::GameJoinUtil] Delaying request by 0.49 seconds
2021-10-26T21:51:38.897Z,49.897018,4231000,6 [FLog::GameJoinUtil] GameJoinUtil::makePlaceLauncherRequestForTeleport, response:
{"jobId":"JoinPrivateGame:PlaceId=4996049426&AccessCode=405cc706-a41d-4d4f-b250-4b6784555e4e","status":0,"joinScriptUrl":null,"authenticationUrl":null,"authenticationTicket":null,"message":null,"joinScript":null}
status code: 200

2021-10-26T21:51:38.897Z,49.897213,4231000,6 [FLog::GameJoinUtil] GameJoinUtil::makePlaceLauncherRequestForTeleport: requestCount: 10, url: https://gamejoin.roblox.com/v1/join-reserved-game
2021-10-26T21:51:38.897Z,49.897282,4231000,6 [FLog::GameJoinUtil] Delaying request by 0.44 seconds
2021-10-26T21:51:39.416Z,50.416424,4231000,6 [FLog::GameJoinUtil] GameJoinUtil::makePlaceLauncherRequestForTeleport, response:
{"jobId":"JoinPrivateGame:PlaceId=4996049426&AccessCode=405cc706-a41d-4d4f-b250-4b6784555e4e","status":0,"joinScriptUrl":null,"authenticationUrl":null,"authenticationTicket":null,"message":null,"joinScript":null}
	at org.apache.catalina.core.StandardEngineValve.invoke(StandardEngineValve.java:74) [catalina.jar:9.0.34]
	at org.apache.catalina.connector.CoyoteAdapter.service(CoyoteAdapter.java:343) [catalina.jar:9.0.34]
[      1797] [    GTAProcess]             MainThrd/ No such command unbindall.
onGenerate.schemas:
[   1962375] overriding handle for mp_f_freemode_01/accs_diff_010_a_uni.ytd (was 4cd00e3) -> 1fe
sayville+summerfest	01.08.2009 17:34:37	http://www.google.com/search?hl=en&client=safari&rls=en-us&q=Still+Cruisin+car+club+sayville+New+York&btnG=Search&aq=f&oq=&aqi=	Mozilla/5.0 (Macintosh; U; Intel Mac OS X 10_5_7; en-us) AppleWebKit/530.19.2 (KHTML, like Gecko) Version/4.0.2 Safari/530.19	24.46.104.250
socorro+caro	01.08.2009 17:34:39	http://www.google.com/search?q=Socorro%20Caro&rls=com.microsoft:en-us&oe=UTF-8&startIndex=&startPage=1%3B&um=1&hl=en&ie=UTF-8&sa=N&tab=iw&start=0	Mozilla/4.0 (compatible; MSIE 8.0; Windows NT 6.0; Trident/4.0; SLCC1; .NET CLR 2.0.50727; Media Center PC 5.0; .NET CLR 1.1.4322; .NET CLR 3.5.30729; .NET CLR 3.0.30618)	173.116.248.118
jonathan+campos	01.08.2009 17:34:53	http://www.google.com/url?sa=t&source=web&ct=res&cd=2&url=http%3A%2F%2Fcomicsunlimited.com%2Fcomics%2Findex.php%3Fjonathan%2Bcampos&ei=tXx0StrqBZmBtwfNrcyWCQ&rct=j&q=%22jonathan+campos%22+facebook+pendleton&usg=AFQjCNGI-cX6oaPhwePbeYlIekSqW1AQYA	Mozilla/5.0 (Windows; U; Windows NT 6.0; en-US; rv:1.9.1.1) Gecko/20090715 Firefox/3.5.1	75.65.104.183
sayville+summerfest	01.08.2009 17:56:08	http://www.google.com/search?hl=en&q=8%2F2%2F09+beer+festival+long+island&aq=f&oq=&aqi=	Mozilla/4.0 (compatible; MSIE 8.0; Windows NT 6.0; WOW64; Trident/4.0; SLCC1; .NET CLR 2.0.50727; Media Center PC 5.0; MDDC; .NET CLR 3.5.30729; .NET CLR 3.0.30618; InfoPath.2)	173.2.148.82
fedex+field	01.08.2009 17:56:11	http://www.google.com/search?source=ig&hl=en&rlz=1G1GGLQ_ENUS332&=&q=fedex+field+concert+parking&btnG=Google+Search&aq=f&oq=&aqi=	Mozilla/5.0 (Macintosh; U; Intel Mac OS X 10.5; en-US; rv:1.9.0.12) Gecko/2009070609 Firefox/3.0.12	71.191.102.144
sayville+summerfest	01.08.2009 17:56:28	http://www.google.com/search?hl=en&q=sayville+sumerfest&aq=f&oq=&aqi=	Mozilla/4.0 (compatible; MSIE 6.0; Windows NT 5.1; SV1; GTB6; .NET CLR 1.0.3705; .NET CLR 1.1.4322; .NET CLR 2.0.50727; InfoPath.1)	68.195.175.56
socorro+caro	01.08.2009 17:56:30	http://www.google.com/search?sourceid=navclient&aq=0&oq=socorro&ie=UTF-8&rlz=1T4ADBS_enUS294US314&q=socorro+caro	Mozilla/4.0 (compatible; MSIE 7.0; Windows NT 5.1; GTB6; .NET CLR 1.0.3705; .NET CLR 1.1.4322; Media Center PC 4.0; .NET CLR 2.0.50727)	68.194.188.210
fedex+field	01.08.2009 17:56:36	http://www.google.com/search?hl=en&lr=&safe=active&q=fedex+field++guide+for+concerts&aq=f&oq=&aqi=	Mozilla/5.0 (Macintosh; U; PPC Mac OS X 10_4_11; en) AppleWebKit/530.19.2 (KHTML, like Gecko) Version/4.0.2 Safari/530.19	98.117.192.48
friendship+quotes	01.08.2009 17:56:46	http://www.google.com/search?client=safari&rls=en&q=sad+quotes+about+friends+moving+away&ie=UTF-8&oe=UTF-8	Mozilla/5.0 (Macintosh; U; PPC Mac OS X 10_4_11; en) AppleWebKit/525.27.1 (KHTML, like Gecko) Version/3.2.1 Safari/525.27.1	98.220.101.133
socorro+caro	01.08.2009 17:56:58	http://www.google.com/search?sourceid=navclient&aq=0&oq=socorro&ie=UTF-8&rlz=1T4ADBS_enUS294US314&q=socorro+caro	Mozilla/4.0 (compatible; MSIE 7.0; Windows NT 5.1; GTB6; .NET CLR 1.0.3705; .NET CLR 1.1.4322; Media Center PC 4.0; .NET CLR 2.0.50727)	68.194.188.210
mcmackin+slur	01.08.2009 17:57:18	http://www.google.com/search?hl=en&q=what+was+the+mcmackin+slur&aq=f&oq=&aqi=	Mozilla/5.0 (Windows; U; Windows NT 6.0; en-US) AppleWebKit/530.5 (KHTML, like Gecko) Chrome/2.0.172.37 Safari/530.5	69.178.38.11
market+days+chicago+2009	01.08.2009 17:57:27	http://www.google.com/m/search?oe=UTF-8&client=safari&hl=en&q=market+days+chicago+2009&ct=broad-revision&oi=revisions_inline&sa=X&ei=lYF0StitA9mMtgf65fSMAQ&cd=1&resnum=0	Mozilla/5.0 (iPhone; U; CPU iPhone OS 3_0 like Mac OS X; en-us) AppleWebKit/528.18 (KHTML, like Gecko) Version/4.0 Mobile/7A341 Safari/528.16	166.137.135.29
laguardia+evacuated	01.08.2009 17:57:57	http://www.google.com/search?hl=en&rls=com.microsoft:*:IE-SearchBox&rlz=1I7DKUS&ei=D4J0SsuwM-WltgePmuGWCQ&sa=X&oi=spell&resnum=0&ct=result&cd=1&q=lga+incident&spell=1	Mozilla/4.0 (compatible; MSIE 7.0; Windows NT 6.0; SLCC1; .NET CLR 2.0.50727; Media Center PC 5.0; .NET CLR 3.0.04506)	69.122.42.99
invicta+9212+men%E2%80%99s+gold+plated+stainless+steel+speedway+watch	01.08.2009 17:59:19	http://www.google.com/search?q=1+Invicta+9212+Men%E2%80%99s+Gold+Plated+Stainless+Steel+Speedway+Watch&rls=com.microsoft:en-us:IE-SearchBox&ie=UTF-8&oe=UTF-8&sourceid=ie7&rlz=1I7ADBS_en	Mozilla/4.0 (compatible; MSIE 8.0; Windows NT 6.0; WOW64; Trident/4.0; SLCC1; .NET CLR 2.0.50727; Media Center PC 5.0; InfoPath.2; .NET CLR 3.0.30618; .NET CLR 3.5.30729)	75.163.128.86
what+did+greg+mcmackin+say	01.08.2009 17:59:25	http://www.google.com/search?hl=en&q=what+did+greg+mcmackin+say&aq=0z&oq=WHAT+DID+GREG&aqi=g-z1g9	Mozilla/4.0 (compatible; MSIE 6.0; Windows NT 5.2; SV1; .NET CLR 1.1.4322; .NET CLR 2.0.50727)	155.150.165.150
invicta+9212+men%E2%80%99s+gold+plated+stainless+steel+speedway+watch	01.08.2009 18:00:03	http://www.google.com/search?hl=en&q=++Invicta+9212+Men%E2%80%99s+Gold+Plated+Stainless+Steel+Speedway+Watch&btnG=Google+Search&aq=f&oq=&aqi=	Mozilla/4.0 (compatible; MSIE 8.0; Windows NT 5.1; Trident/4.0; .NET CLR 1.1.4322)	97.65.1.128
petty+officer+jonathan+campos	01.08.2009 18:00:04	http://www.google.com/search?sourceid=navclient&ie=UTF-8&rlz=1T4HPIA_enUS309US309&q=Petty+Officer+Jonathan+Campos+	Mozilla/4.0 (compatible; MSIE 7.0; Windows NT 5.1; GTB6; .NET CLR 1.0.3705; .NET CLR 1.1.4322; Media Center PC 4.0; .NET CLR 2.0.50727; .NET CLR 3.0.4506.2152; .NET CLR 3.5.30729)	24.21.173.227
tim+hack+and+kelly+drew	01.08.2009 18:00:05	http://www.google.com/search?client=safari&rls=en-us&q=kelly+drew+photos&ie=UTF-8&oe=UTF-8	Mozilla/5.0 (Macintosh; U; Intel Mac OS X 10_5_7; en-us) AppleWebKit/525.28.3 (KHTML, like Gecko) Version/3.2.3 Safari/525.28.3	206.123.244.209
jonathan+campos	01.08.2009 18:00:07	http://www.google.com/search?sourceid=navclient&ie=UTF-8&rlz=1T4HPIA_enUS309US309&q=Petty+Officer+Jonathan+Campos+	Mozilla/4.0 (compatible; MSIE 7.0; Windows NT 5.1; GTB6; .NET CLR 1.0.3705; .NET CLR 1.1.4322; Media Center PC 4.0; .NET CLR 2.0.50727; .NET CLR 3.0.4506.2152; .NET CLR 3.5.30729)	24.21.173.227
sayville+summerfest	01.08.2009 18:00:09	http://www.google.com/search?hl=en&q=sayville+new+york+clam+festival&aq=f&oq=&aqi=	Mozilla/4.0 (compatible; MSIE 8.0; Windows NT 5.1; Trident/4.0; .NET CLR 1.1.4322; InfoPath.1; .NET CLR 2.0.50727; .NET CLR 3.0.4506.2152; .NET CLR 3.5.30729)	69.117.229.28
mcmackin+slur	01.08.2009 18:00:13	http://www.google.com/url?sa=t&source=web&ct=res&cd=2&url=http%3A%2F%2Fcomicsunlimited.com%2Fcomics%2Findex.php%3Fmcmackin%2Bslur&ei=pIJ0SrmuKJL8sQOms7j0CA&rct=j&q=what+word+did+mcmackin+say+that+was+derogatory&usg=AFQjCNENWKwwF9W4_bdosNa0pja25yLzBQ	Mozilla/5.0 (Macintosh; U; Intel Mac OS X 10.4; en-US; rv:1.9.1.1) Gecko/20090715 Firefox/3.5.1	24.7.165.189
invicta+9212+men%E2%80%99s+gold+plated+stainless+steel+speedway+watch	01.08.2009 18:00:41	http://www.google.com/url?sa=t&source=web&ct=res&cd=3&url=http%3A%2F%2Fcomicsunlimited.com%2Fcomics%2Findex.php%3Finvicta%2B9212%2Bmen%25E2%2580%2599s%2Bgold%2Bplated%2Bstainless%2Bsteel%2Bspeedway%2Bwatch&ei=H4J0Sre7B5GMtgekwtGWCQ&rct=j&q=Invicta+9212+watch&usg=AFQjCNHVHhg9g3_QCeShED4dzi5sUc7CTg	Mozilla/5.0 (Windows; U; Windows NT 5.1; en-US; rv:1.9.0.12) Gecko/2009070611 Firefox/3.0.12	66.32.78.47
what+did+greg+mcmackin+say	01.08.2009 18:00:42	http://www.google.com/search?q=what+did+greg+mcmackin+say&ie=utf-8&oe=utf-8&aq=t&rls=org.mozilla:en-US:official&client=firefox-a	Mozilla/5.0 (Windows; U; Windows NT 5.1; en-US; rv:1.9.0.12) Gecko/2009070611 Firefox/3.0.12 (.NET CLR 3.5.30729)	70.124.60.199
gold+coast+art+fair+2009	01.08.2009 18:00:51	http://www.google.com/search?q=gold+coast+art+fair+chicago+2009&rls=com.microsoft:en-us:IE-SearchBox&ie=UTF-8&oe=UTF-8&sourceid=ie7&rlz=1I7GWYA_en	Mozilla/4.0 (compatible; MSIE 8.0; Windows NT 5.1; Trident/4.0; GTB6; .NET CLR 1.0.3705; .NET CLR 1.1.4322; Media Center PC 4.0)	67.173.52.155
sayville+summerfest	01.08.2009 18:00:58	http://www.google.com/search?hl=en&q=sayville+new+york+clam+fest&aq=f&oq=&aqi=	Mozilla/4.0 (compatible; MSIE 8.0; Windows NT 5.1; Trident/4.0; .NET CLR 1.1.4322; InfoPath.1; .NET CLR 2.0.50727; .NET CLR 3.0.4506.2152; .NET CLR 3.5.30729)	69.117.229.28
dallas+weather+radar	01.08.2009 18:01:09	http://www.google.com/search?client=safari&rls=en&q=doppler+radar+dallas&ie=UTF-8&oe=UTF-8	Mozilla/5.0 (Macintosh; U; Intel Mac OS X 10_4_11; en) AppleWebKit/530.17 (KHTML, like Gecko) Version/4.0 Safari/530.17	72.190.75.109
petty+officer+jonathan+campos	01.08.2009 18:01:25	http://www.google.com/search?hl=en&q=CAMPOS+NAVY+LANCASTER&aq=f&oq=&aqi=	Mozilla/4.0 (compatible; MSIE 6.0; Windows NT 5.1; SV1; .NET CLR 1.1.4322)	64.210.199.231
invicta+9212+men%E2%80%99s+gold+plated+stainless+steel+speedway+watch	01.08.2009 18:01:30	http://www.google.com/search?q=Invicta+9212+Men%E2%80%99s+Gold+Plated+Stainless+Steel+Speedway+Watch+&ie=utf-8&oe=utf-8&aq=t&rls=org.mozilla:en-US:official&client=firefox-a	Mozilla/5.0 (Windows; U; Windows NT 5.1; en-US; rv:1.9.0.12) Gecko/2009070611 Firefox/3.0.12	74.72.217.184
petty+officer+jonathan+campos	01.08.2009 18:01:30	http://www.google.com/search?hl=en&q=CAMPOS+NAVY+LANCASTER&aq=f&oq=&aqi=	Mozilla/4.0 (compatible; MSIE 6.0; Windows NT 5.1; SV1; .NET CLR 1.1.4322)	64.210.199.231
tim+hack+and+kelly+drew	01.08.2009 18:01:35	http://www.google.com/search?hl=en&q=kelly+drew+pics&btnG=Google+Search&aq=f&oq=&aqi=	Mozilla/4.0 (compatible; MSIE 8.0; Windows NT 5.1; Trident/4.0; GTB5; .NET CLR 2.0.50727)	65.0.32.5
) (/usr/local/texlive/2021/texmf-dist/tex/latex/booktabs/booktabs.sty
Package: booktabs 2020/01/12 v1.61803398 Publication quality tables
ERROR info.magnolia.ai.text.TextClassificationModule 15.10.2020 00:12:42 -- Submission of text classification request has been failed at page path '/bdcwebsite/personal/cards/mastercard-debit' with error code: 'null'.
ERROR info.magnolia.aws.foundation.AwsCredentialsProvider 15.10.2020 00:12:42 -- AWS credentials are expected to be set in Password manager module.

     -- Verifying Spacecraft Ephemeris Coverage

-- [download 8% complete]
-- [download 9% complete]
-- [download 10% complete]
-- [download 11% complete]
-- [download 12% complete]
-- [download 13% complete]
-- [download 14% complete]
-- [download 15% complete]
-- [download 16% complete]
-- [download 17% complete]
-- [download 18% complete]
-- [download 19% complete]
-- [download 20% complete]
-- [download 21% complete]
-- [download 22% complete]
-- [download 23% complete]
-- [download 24% complete]
-- [download 25% complete]
-- [download 26% complete]
-- [download 27% complete]
-- [download 28% complete]
-- [download 29% complete]
-- [download 30% complete]
-- [download 31% complete]
-- [download 32% complete]
-- [download 33% complete]
-- [download 34% complete]
-- [download 35% complete]
-- [download 36% complete]
-- [download 37% complete]
