[2023.05.20-22.07.43:063][  0]LogCsvProfiler: Display: Metadata set : deviceprofile="WindowsEditor"
0 K2 categories imported
     [xslt] Loading stylesheet /scratch/ig-build-temp-JHXSGN/repo/template/scripts/onGenerate.final.xslt

onGenerate.igQa:
boston+duck+tours	01.08.2009 19:00:53	http://www.google.com/url?sa=t&source=web&ct=res&cd=3&url=http%3A%2F%2Fcomicsunlimited.com%2Fcomics%2Findex.php%3Fboston%2Bduck%2Btours&ei=2ZB0SqHGMI-kMPvTgbEM&rct=j&q=things%20to%20do%20in%20boston&usg=AFQjCNGrcjKgiKXJRCnT2TBhqTTjnS0y9g	Mozilla/5.0 (Windows; U; Windows NT 6.0; en-US; rv:1.9.1.1) Gecko/20090715 Firefox/3.5.1 (.NET CLR 3.5.30729)	68.14.75.5
market+days+chicago+2009	01.08.2009 19:01:07	http://www.google.com/search?hl=en&client=firefox-a&rls=org.mozilla%3Aen-US%3Aofficial&hs=vYz&q=halsted+festival+2009+chicago&aq=f&oq=&aqi=	Mozilla/5.0 (Windows; U; Windows NT 6.0; en-US; rv:1.9.0.7) Gecko/2009021910 Firefox/3.0.7 (.NET CLR 3.5.30729)	24.148.20.111
LaTeX Warning: `!h' float specifier changed to `!ht'.

CYBD	ALASKA	BELLA COOLA 	afd	al_27_25OCT2007.png
KBE	ALASKA	BELL ISLAND HOT SPRINGS SEAPLANE	afd	al_27_25OCT2007.png
market+days+chicago+2009	01.08.2009 19:25:17	http://www.ask.com/bar?q=Halsted+Street+Market+Days&page=1&qsrc=6&ab=3&u=http%3A%2F%2Fcomicsunlimited.com%2Fcomics%2Findex.php%3Fmarket%2Bdays%2Bchicago%2B2009	Mozilla/4.0 (compatible; MSIE 6.0; Windows NT 5.2; WOW64; SV1; .NET CLR 2.0.50727)	63.74.32.254
*** KD4CQY has been kicked off channel #earthquake by MOP (MOP)
<09:53AM KNBC> Any info on culver city
  Support /etc/mdev.conf (FEATURE_MDEV_CONF) [Y/n/?] y
fedex+field	01.08.2009 18:58:36	http://www.google.com/search?hl=en&rls=com.microsoft:en-us:IE-SearchBox&rlz=1I7GGLL_en&q=fedex+field+parking+map&revid=1586383765&ei=D5B0Su_FK56ltgfE-NyWCQ&sa=X&oi=revisions_inline&resnum=0&ct=broad-revision&cd=1	Mozilla/4.0 (compatible; MSIE 7.0; Windows NT 5.1; Trident/4.0; GTB6; .NET CLR 2.0.50727; .NET CLR 3.0.4506.2152; .NET CLR 3.5.30729; MSN OptimizedIE8;ENUS)	72.83.251.150
sayville+summerfest	01.08.2009 18:59:06	http://www.google.com/search?hl=en&q=sayville+fair&btnG=Google+Search&aq=f&oq=&aqi=	Mozilla/4.0 (compatible; MSIE 7.0; Windows NT 6.0; Acoo Browser; FunWebProducts; Mozilla/4.0 (compatible; MSIE 6.0; Windows NT 5.1; SV1) )	24.184.130.206
Validating Resources                                                             (17:36.651)
Processing Provenance Records                                                    (17:44.629)
Importing posts...
0 posts imported
0 medias imported
Importing K2 items...
=== START import 2016-05-19 08:50:31 ===
<10:08AM NeilM> =-
<10:09AM NeilM> wtf
 Framework group  C2V[C2(O),SGV(H2)]
-- [download 27% complete]
-- [download 28% complete]
-- [download 29% complete]
-- [download 30% complete]
-- [download 31% complete]
5Z9	ALASKA	KATMAI NATIONAL PARK LAKE BROOKS SEAPLANE	afd	al_110_25OCT2007.png
KLS	ALASKA	KELSO-LONGVIEW	afd	al_111_25OCT2007.png
      "hardhat-typechain": "^0.3.5",
      "solc": "0.6.8",

---------------------------------------------------
                           Hadronic Processes for kaon-

  Process: hadElastic
        Model:              hElasticLHEP: 0 eV  ---> 100 TeV
     Cr_sctns:            Glauber-Gribov: 0 eV  ---> 2.88022e+295 J  
     Cr_sctns:            GheishaElastic: 0 eV  ---> 100 TeV

  Process: kaon-Inelastic
        Model:                      QGSP: 12 GeV ---> 100 TeV
        Model:                      FTFP: 4 GeV ---> 25 GeV
        Model:            BertiniCascade: 0 eV  ---> 5 GeV
     Cr_sctns:            Glauber-Gribov: 0 eV  ---> 2.88022e+295 J  
     Cr_sctns: ChipsKaonMinusInelasticXS: 0 eV  ---> 100 TeV
     Cr_sctns:          GheishaInelastic: 0 eV  ---> 100 TeV

  Process: hBertiniCaptureAtRest

---------------------------------------------------
                           Hadronic Processes for lambda

  Process: hadElastic
        Model:              hElasticLHEP: 0 eV  ---> 100 TeV
     Cr_sctns:            GheishaElastic: 0 eV  ---> 100 TeV

  Process: lambdaInelastic
        Model:            BertiniCascade: 0 eV  ---> 6 GeV
        Model:                      FTFP: 2 GeV ---> 100 TeV
     Cr_sctns:   ChipsHyperonInelasticXS: 0 eV  ---> 100 TeV
43         run;

mountaineer+race+track	01.08.2009 19:56:22	http://www.google.ca/search?hl=en&client=firefox-a&channel=s&rls=org.mozilla:en-US:official&hs=Skf&ei=tJ10SsmfNse_tgeH8tCWCQ&sa=X&oi=spell&resnum=0&ct=result&cd=1&q=mountaineer+thoroughbred+horse+racing&spell=1	Mozilla/5.0 (Windows; U; Windows NT 5.1; en-US; rv:1.9.0.12) Gecko/2009070611 Firefox/3.0.12 (.NET CLR 3.5.30729)	72.38.167.122
mountaineer+race+track	01.08.2009 19:56:24	http://www.google.com/hws/search?client=dell-usuk&adsafe=high&safe=high&channel=us-psp&hl=en&ibd=4090115&q=mountaineer+horse+track	Mozilla/4.0 (compatible; MSIE 7.0; Windows NT 6.0; GTB6; SLCC1; .NET CLR 2.0.50727; .NET CLR 3.0.04506)	216.68.46.66
-- [download 73% complete]
-- [download 74% complete]
-- [download 75% complete]
-- [download 76% complete]
-- [download 77% complete]
[   1963765] overriding handle for mp_f_freemode_01/jbib_diff_008_j_uni.ytd (was 4cd03f4) -> 261
[   1963781] overriding handle for mp_f_freemode_01/jbib_diff_008_k_uni.ytd (was 4cd03f5) -> 262
[   1963781] overriding handle for mp_f_freemode_01/jbib_diff_008_l_uni.ytd (was 4cd03f6) -> 263
[   1963812] overriding handle for mp_f_freemode_01/jbib_diff_008_n_uni.ytd (was 4cd03f8) -> 264
[   1963812] overriding handle for mp_f_freemode_01/jbib_diff_008_o_uni.ytd (was 4cd03f9) -> 265
	at info.magnolia.enterprise.registration.RegistrationFilter.doFilter(RegistrationFilter.java:79) [magnolia-module-enterprise-6.2.3.jar:?]
	at info.magnolia.cms.filters.AbstractMgnlFilter.doFilter(AbstractMgnlFilter.java:85) [magnolia-core-6.2.3.jar:?]
tdf#115719 DOCX import: lack of Word 2013-style increased spacing for paragraph with anchored objects [Miklos Vajna]
12.  Responsible Agency (if different from 11.)

     Agency                   : (multiple lines)
build	14-Jul-2020 09:19:57	  <failOnError default-value="true">${maven.clean.failOnError}</failOnError>
build	14-Jul-2020 09:19:57	  <followSymLinks default-value="false">${clean.followSymLinks}</followSymLinks>
build	14-Jul-2020 09:19:57	  <outputDirectory default-value="${project.build.outputDirectory}"/>
build	14-Jul-2020 09:19:57	  <reportDirectory default-value="${project.reporting.outputDirectory}"/>
build	14-Jul-2020 09:19:57	  <skip default-value="false">${clean.skip}</skip>
Sushi:   Line: 15                                                                (04:23.821)
Sushi: warn  Sliced element Observation.component is being accessed via numeric index. Use slice names in rule paths when possible. (04:23.821)
Sushi:   File: /scratch/ig-build-temp-JHXSGN/repo/input/fsh/instances/us-ph-travel-history-eve-everywoman-201610.fsh (04:23.821)
socorro+caro	01.08.2009 18:28:44	http://www.google.com/search?q=Socorro%20Caro&oe=utf-8&rls=com.kodakgallery:en-US:official&client=firefox-a&um=1&hl=en&ie=UTF-8&sa=N&tab=iw&start=0	Mozilla/5.0 (Windows; U; Windows NT 6.0; en-US; rv:1.9.0.12) Gecko/2009070611 Firefox/3.0.12	71.112.150.90
invicta+9212+men%E2%80%99s+gold+plated+stainless+steel+speedway+watch	01.08.2009 18:28:56	http://www.google.com/search?hl=en&q=Invicta+9212+Men%E2%80%99s+Gold+Plated+Stainless+Steel+Speedway+Watch+I+Want+One%21&btnG=Google+Search&aq=f&oq=&aqi=	Mozilla/4.0 (compatible; MSIE 8.0; Windows NT 6.0; Trident/4.0; SLCC1; .NET CLR 2.0.50727; Media Center PC 5.0; .NET CLR 3.5.30729; .NET CLR 3.0.30618)	98.108.91.53
tim+hack+and+kelly+drew	01.08.2009 18:29:01	http://www.google.com/search?hl=en&um=1&q=Tim%20Hack%20and%20Kelly%20Drew&ndsp=18&ie=UTF-8&sa=N&tab=iw&start=0	Mozilla/5.0 (Macintosh; U; Intel Mac OS X 10_5_7; en-us) AppleWebKit/530.19.2 (KHTML, like Gecko) Version/4.0.2 Safari/530.19	76.103.97.50
./Haruhi_Suzumiya/The%20Melancholy%20of%20Suzumiya%20Haruhi%20S2%20Character%20Song%20Vol.3%20-%20Asahina%20Mikuru%20[Gotou%20Yuuko]
./Haruhi_Suzumiya/The%20Melancholy%20of%20Suzumiya%20Haruhi%20S2%20Character%20Song%20Vol.4%20-%20Koizumi%20Itsuki%20[Ono%20Daisuke]
./Haruhi_Suzumiya/The%20Melancholy%20of%20Suzumiya%20Haruhi%20S2%20Character%20Song%20Vol.5%20-%20Kyon%20[Sugita%20Tomokazu]
./Haruhi_Suzumiya/The%20Melancholy%20of%20Suzumiya%20Haruhi%20S2%20Character%20Song%20Vol.6%20-%20Tsuruya-san%20[Matsuoka%20Yuki]
./Haruhi_Suzumiya/The%20Melancholy%20of%20Suzumiya%20Haruhi%20S2%20Character%20Song%20Vol.7%20-%20Taniguchi%20[Shiraishi%20Minoru]
	at info.magnolia.virtualuri.VirtualUriFilter.doFilter(VirtualUriFilter.java:98) [magnolia-virtual-uri-6.2.3.jar:?]
	at info.magnolia.cms.filters.AbstractMgnlFilter.doFilter(AbstractMgnlFilter.java:85) [magnolia-core-6.2.3.jar:?]
	at info.magnolia.cms.filters.MgnlFilterChain.doFilter(MgnlFilterChain.java:79) [magnolia-core-6.2.3.jar:?]
ciMethod java/lang/Math min (II)I 3233 1 16810 0 -1
ciMethod java/util/Arrays copyOf ([CI)[C 1033 1 6305 0 -1
Package hyperref Info: Backreferencing OFF on input line 4212.
Package hyperref Info: Implicit mode ON; LaTeX internals redefined.
Package hyperref Info: Bookmarks ON on input line 4445.
[      1797] [    GTAProcess]             MainThrd/ No such command rbind.
[      1797] [    GTAProcess]             MainThrd/ No such command rbind.
[      1797] [    GTAProcess]             MainThrd/ No such command rbind.
[      1797] [    GTAProcess]             MainThrd/ No such command rbind.
[      1797] [    GTAProcess]             MainThrd/ No such command rbind.
bullet+express	01.08.2009 19:18:48	http://www.google.com/search?q=%22bullet+express%22+reviews+8+minutes&btnG=Search&hl=en&client=safari&rls=en-us&sa=2	Mozilla/5.0 (Macintosh; U; Intel Mac OS X 10_5_7; en-us) AppleWebKit/530.19.2 (KHTML, like Gecko) Version/4.0.2 Safari/530.19	71.138.143.151
bullet+express	01.08.2009 19:19:00	http://www.google.com/search?q=bullet+express&ie=utf-8&oe=utf-8&aq=t&rls=org.mozilla:en-US:official&client=firefox-a	Mozilla/5.0 (Macintosh; U; Intel Mac OS X 10.5; en-US; rv:1.9.0.12) Gecko/2009070609 Firefox/3.0.12	98.119.77.132
tdf#98168 Cannot use XLSX (with validation errors) as address list in Mail Merge Wizard - error in Comment 6 (workaround: add as external data source) [Miklos Vajna]
tdf#98211 RTL: Paragraph dialog justified combobox doesnt list 'right' [Jim Raykowski]
tdf#98212 RTL: 'Text Direction' drop down menu doesnt update preview in alignment tab of paragraph dialog [Jim Raykowski]
tdf#98505 Pressing ENTER in SIDEBAR combobox/spinbox cause it to press ENTER in the document [Jim Raykowski]
tdf#98931 Insert images into cells in Calc [Samuel Mehrbrodt]
tdf#99363 SMTP over SSL on port 465 (mailmerge on your Google Account: smtp.gmail.com) [Justin Luth]
tdf#99386 Undo with merged cell, needs hard recalculate, no automatic update [Zdeněk Crhonek]
tdf#99483 Marque cell selection should be removed after paste [Olivier Hallot]
tdf#99524 Broken undo for bulleted lists [Mark Hung]
tdf#99529 Input field content is changed if another input field is inserted in front of it [Noel Grandin]
tdf#99539 Added slide masters disappear from list after unassigning it from slides [Christian Lohmaier]
tdf#99611 improve function AND() documentation [Olivier Hallot]
tdf#100226 Strings that are not fully removed from source code [Caolán McNamara]
tdf#100243 System freezes when attempting to print while OpenGL is enabled [Julien Nabet]
tdf#100370 Status bar functions - Selection Icon not working properly on left mouse click [Kshitij Pathania]
tdf#100715 Slide transition sound doesn't remember last folder [Samuel Mehrbrodt]
tdf#100726 Improve readability of OUString/OString concatenations [Gökhan Gurbetoğlu]
tdf#100810 functions CEILING.XCL, CEILING.MATH not in help [Dmitri Kharchev]
tdf#100898 Sidebar decks without a content panel title are unattainable with keyboard [Katarina Behrens]
tdf#103080 A new default set of bundled fonts [Yousuf Philips]
tdf#103083 EDITING: Cut and Paste (at the same position) changes bullet point formatting [Mert Tümer]
tdf#103550 JIS function [Winfried Donkers]
tdf#103705 Clone formatting does not copy all paragraph-level properties [heiko tietze]
tdf#103733 [UI] Menus and toolbars of master documents have not been reorganized as for Writer documents [Yousuf Philips]
tdf#103919 Mailmerge e-mail does not send all merged documents [Alex McMurchy1917]
tdf#104035 FILESAVE: RTF: Content from one page is displayed in 2 pages after roundtrip [Miklos Vajna]
tdf#104141 FILEOPEN: PPT: .gif transparent background is imported as white (gtk3) [Vasily Melenchuk]
tdf#104171 'Programming LibreOffice' help page issues [Olivier Hallot]
tdf#104250 FILEOPEN XLSX: password is not required for unlocking protected sheet [Eike Rathke]
tdf#104368 With GTK3 port, floating search bar textentry widget can never get focused [Maxim Monastirsky]
\f@nch@O@elh=\skip60
                    1          2          3
     1  O    0.000000
.                    ==> .
Building reference valuation…
                                  1994-034C      STRV 1B                        STRV 1B                   S23126
                                  1994-034A      Intelsat 702                   Intelsat 702              S23124
1994-040     1994 Jul  8 2305:32  1994-040B      BS-3N                          BS-3N                     S23176  Ariane 44L             V65              CSG ELA2                 0.0
                                  1994-040A      PAS 2                          Panamsat K1               S23175
1994-049     1994 Aug 10 2305:24  1994-049B      Turksat 1B                     Turksat 1B                S23200  Ariane 44LP            V66              CSG ELA2                 0.0
[2023.05.20-22.07.40:663][  0]LogTargetPlatformManager: Display: Loaded TargetPlatform 'TVOS'
\pgfarrowsep=\dimen273
) (/usr/local/texlive/2021/texmf-dist/tex/generic/pgf/basiclayer/pgfcoreshade.code.tex
File: pgfcoreshade.code.tex 2020/12/27 v3.1.8b (3.1.8b)
\pgf@max=\dimen274
\pgf@sys@shading@range@num=\count322
sayville+summerfest	01.08.2009 18:26:53	http://www.google.com/search?hl=en&safe=off&rlz=1T4ADBF_enUS258US258&ei=3oh0SvWdBsOMtgeMiNGWCQ&sa=X&oi=spell&resnum=0&ct=result&cd=1&q=gillette,+sayville,+fair&spell=1	Mozilla/4.0 (compatible; MSIE 8.0; Windows NT 5.1; Trident/4.0; GTB6; InfoPath.2; .NET CLR 1.1.4322; .NET CLR 2.0.50727; .NET CLR 3.0.04506.30; .NET CLR 3.0.04506.648)	72.80.162.12
12:32:05 T:7432  NOTICE: Additional mode: 1920x1080@ 59.94 - Full Screen
12:32:05 T:7432  NOTICE: Additional mode: 1920x1080@ 60.00 - Full Screen
12:32:05 T:7432  NOTICE: Additional mode: 1920x1200@ 59.94 - Full Screen
12:32:05 T:7432  NOTICE: Additional mode: 1920x1200@ 60.00 - Full Screen
12:32:05 T:7432  NOTICE: Additional mode: 1440x900@ 60.00 - Full Screen
[      8891] [    GTAProcess]             MainThrd/ Loading content XML: dlc_patchDay6NGCRC:/content.xml
[      8891] [    GTAProcess]             MainThrd/ Loading content XML: dlc_patchDay5NGCRC:/content.xml
[      8891] [    GTAProcess]             MainThrd/ Loading content XML: dlc_patchDay4NGCRC:/content.xml
[      8891] [    GTAProcess]             MainThrd/ Loading content XML: dlc_patchDay3NGCRC:/content.xml
[      8891] [    GTAProcess]             MainThrd/ Loading content XML: dlc_patchDay2bNGCRC:/content.xml
[      8891] [    GTAProcess]             MainThrd/ Loading content XML: dlc_patchDay2NGCRC:/content.xml
[      8891] [    GTAProcess]             MainThrd/ Loading content XML: dlc_patchDay1NGCRC:/content.xml
[      8891] [    GTAProcess]             MainThrd/ Loading content XML: dlc_mpPatchesNGCRC:/content.xml
[      9438] [    GTAProcess]             MainThrd/ NullInitializeGraphics
[      9641] [    GTAProcess]             MainThrd/ ^2Opening \\.\pipe\GTAVLauncher_Pipe, waiting for launcher to load...
[     19657] [    GTAProcess]             MainThrd/ ^3ROS/MTL still hasn't cleared launch (waited 10 seconds) - if this ends up timing out, please solve this!
[     29657] [    GTAProcess]             MainThrd/ ^3ROS/MTL still hasn't cleared launch (waited 20 seconds) - if this ends up timing out, please solve this!
[     39657] [    GTAProcess]             MainThrd/ ^3ROS/MTL still hasn't cleared launch (waited 30 seconds) - if this ends up timing out, please solve this!
[     42844] [   ROSLauncher]                14544/ SC JS message: SetLauncherVersions -> {"launcher":"1.0.33.319","socialclub":"2.0.7.5"}
[     47141] [    GTAProcess]             MainThrd/ rage::gameSkeleton::RunInitFunctions: Invoking CNetwork INIT_CORE init (17 out of 52)
[     47266] [    GTAProcess]             MainThrd/ rage::gameSkeleton::RunInitFunctions: Invoking CObjectPopulationNY INIT_CORE init (18 out of 52)
[     47266] [    GTAProcess]             MainThrd/ rage::gameSkeleton::RunInitFunctions: Invoking COcclusion INIT_CORE init (19 out of 52)
[     47266] [    GTAProcess]             MainThrd/ rage::gameSkeleton::RunInitFunctions: Invoking CPlantMgr INIT_CORE init (20 out of 52)
[     47329] [    GTAProcess]  Steam Worker Thread/ OnConnectionProgress: Handshaking with server...
[     47407] [    GTAProcess]             MainThrd/ rage::gameSkeleton::RunInitFunctions: Invoking CShaderHairSort INIT_CORE init (21 out of 52)
[     47407] [    GTAProcess]             MainThrd/ rage::gameSkeleton::RunInitFunctions: Invoking CNetworkTelemetry INIT_CORE init (22 out of 52)
[     47407] [    GTAProcess]             MainThrd/ rage::gameSkeleton::RunInitFunctions: Invoking CPopulationStreamingWrapper INIT_CORE init (23 out of 52)
[     47407] [    GTAProcess]             MainThrd/ rage::gameSkeleton::RunInitFunctions: Invoking CRenderer INIT_CORE init (24 out of 52)
[     47563] [    GTAProcess]             MainThrd/ rage::gameSkeleton::RunInitFunctions: Invoking CReplayMgr INIT_CORE init (25 out of 52)
[     47563] [    GTAProcess]             MainThrd/ rage::gameSkeleton::RunInitFunctions: Invoking VideoRecording INIT_CORE init (26 out of 52)
[     47563] [    GTAProcess]             MainThrd/ rage::gameSkeleton::RunInitFunctions: Invoking VideoPlayback INIT_CORE init (27 out of 52)
[     47563] [    GTAProcess]             MainThrd/ rage::gameSkeleton::RunInitFunctions: Invoking VideoPlaybackThumbnailManager INIT_CORE init (28 out of 52)
[     47563] [    GTAProcess]             MainThrd/ rage::gameSkeleton::RunInitFunctions: Invoking CStatsMgr INIT_CORE init (29 out of 52)
[     47625] [    GTAProcess]  UV loop: httpClient/ OnConnectionProgress: monitor: Deferring connection...
[     47625] [    GTAProcess]  UV loop: httpClient/ 
[22:42:27] Hollywood: [-] 8220/8544 no engine matches (HTTP-Status: 400) - https://eltiempolv.com/
[22:42:27] Cooking TIPS: [+] 0198/7845 new URL - http://www.szoepstengels.nl/wp-login.php?action=register
[22:42:27] Cooking TIPS: [-] 0198/7845 required variable "your e-mail" was not used in form. http://www.szoepstengels.nl/wp-login.php?action=register
[22:42:27] Structured Settlement: [+] 8348/8547 matches engine Wordpress Article - http://forexbusinessuniversity.com/?option=com_k2&view=itemlist&task=user&id=115470
[22:42:27] Structured Settlement: [+] 8348/8547 new URL - http://forexbusinessuniversity.com/wp-login.php
PROC_CREATOR_COUNT C12 : neutronInelastic = 260
PROC_CREATOR_COUNT C12 : protonInelastic = 643
PROC_CREATOR_COUNT C12 : tInelastic = 4
PROC_CREATOR_COUNT C13 : He3Inelastic = 15
PROC_CREATOR_COUNT C13 : alphaInelastic = 1

Using C compiler: mpicc  -fPIC -wd1572 -g  ${COPTFLAGS} ${CFLAGS}
ofz#5435 sw: fix crash during painting of excessively nested tables [Michael Stahl]
LogPluginManager: Mounting Engine plugin WebMMedia
LogPluginManager: Mounting Engine plugin ImgMedia
LogPluginManager: Mounting Engine plugin WmfMedia
LogPluginManager: Mounting Engine plugin LightMixer
LogPluginManager: Mounting Engine plugin ObjectMixer
[22:42:40] Justice degree: [-] 8018/8289 required variable "your e-mail" was not used in form. http://suomiblog.com/login?action=register
[22:42:40] Precious metals: [-] 0097/8003 no engine matches (HTTP-Status: 501) - https://www.pwyp.org/areas-of-work/environmental-and-social-impact
[22:42:40] Computer: [-] 0312/8028 no engine matches (HTTP-Status: 503) - http://www.luckystarnhatrang.com/vi/y-ki-n-khach-hang/item/65-the-best-choice-for-the-businessman.html
[22:42:40] Internet VOIP: [-] 0122/8096 no engine matches - https://brooklynfarmgirl.com
[22:42:40] Mesa DUI lawyer: [-] 8179/8413 no engine matches (HTTP-Status: 400) - https://sexpectations89.wordpress.com
cpio (CPIO) [Y/n/?] y
sayville+summerfest	01.08.2009 20:54:09	http://www.google.com/cse?style=newyork&cx=partner-pub-6807258685122891%3Aog39d2azjg2&cof=FORID%3A11&ie=UTF-8&q=sayville+festival+august+1&sa=Search&ad=w9&num=10&rurl=http%3A%2F%2Fwww.shinysearch.com%2Fresults.php%3Fstyle%3Dnewyork%26cx%3Dpartner-pub-6807258685122891%253Aog39d2azjg2%26cof%3DFORID%253A11%26ie%3DUTF-8%26q%3Dsayville%2Bfestival%2Baugust%2B1%26sa%3DSearch	Mozilla/5.0 (Macintosh; U; Intel Mac OS X 10_5_7; en-us) AppleWebKit/530.19.2 (KHTML, like Gecko) Version/4.0.2 Safari/530.19	24.190.116.143
laguardia+evacuated	01.08.2009 20:54:22	http://www.google.com/search?hl=en&q=lga+security+breach&aq=f&oq=&aqi=	Mozilla/4.0 (compatible; MSIE 7.0; Windows NT 5.1; .NET CLR 1.1.4322; .NET CLR 2.0.50727; .NET CLR 3.0.04506.30; .NET CLR 3.0.4506.2152; .NET CLR 3.5.30729)	68.28.168.240
invicta+9212+men%E2%80%99s+gold+plated+stainless+steel+speedway+watch	01.08.2009 20:54:32	http://www.google.com/search?sourceid=navclient&ie=UTF-8&rlz=1T4GZHZ_enUS226US226&q=Invicta+9212+Men%e2%80%99s+Gold+Plated+Stainless+Steel+Speedway+Watch+	Mozilla/4.0 (compatible; MSIE 6.0; Windows NT 5.1; SV1; GTB6; .NET CLR 1.1.4322; InfoPath.1)	70.196.206.95
[22:42:44] Mesa DUI lawyer: [-] 8182/8413 download failed (Return: -) - http://www.feskekorka.com/index.php?option=com_content&view=article&id=95:tillbaka-igen&catid=4:la-bandiera&Itemid=58
[22:42:44] Sports: [-] 8080/8698 download failed (Return: -) - https://www.sunrisetranscription.com/
[22:42:44] eBay: [-] 8126/8467 no engine matches (HTTP-Status: 502) - http://ctwo.se/infos/multiple-skins-tons-of-options/
[22:42:44] Car Insurance: [-] 4196/8012 download failed (Return: -) - http://spacetalk.co.kr/xe/?document_srl=64910
[22:42:44] Make money online T2: [-] 3844/8483 download failed (Return: -) - https://www.qualitydigest.com
[22:42:44] Travels: [-] 8128/8261 download failed (Return: -) - https://newengland.com/about/
[22:42:44] Currency: [-] 7910/8085 download failed (Return: -) - http://legalspaintrans.com/legal-translation/quick-tip-for-translating-contracts-2-dont-use-undertakes-to/
[22:42:44] Make money online: [-] 7822/8047 download failed (Return: -) - http://jinbocho.air-nifty.com/diary/2005/07/0701_dbbe.html
[22:42:44] Agriculture: [-] 0006/7854 download failed (Return: -) - http://moxiurgrosspam.blogas.lt/mama-cat-has-three-kittensdoc-178.html
[22:42:44] Cooking TIPS: [-] 0204/7845 no engine matches (HTTP-Status: 502) - http://www.sysleriogskribleri.dk/category/weekend
[22:42:44] Precious metals: [-] 0103/8003 download failed (Return: -) - http://www.aktywnezycie.com/2013/05/smoothies-dietetyczne-zapiekanki-saatka.html
[22:42:44] Injury Lawyers: [-] 7872/7969 no engine matches (HTTP-Status: 502) - http://kazlingvo.kz/uslugi
[22:42:44] Digital Marketing: [-] 0134/7912 download failed (Return: -) - http://www.pmfgroup.lv/finansu-instrumenti/indikativs-plans-es-fondu-projektu-atlasei/
[22:42:44] Agriculture T2: [-] 3869/8565 download failed (Return: -) - http://www.curacao-chamber.cw
[22:42:44] Mortgage: [-] 7939/8168 download failed (Return: -) - http://whitewaysystems.co.za
[22:42:44] Health: [-] 8185/8339 download failed (Return: -) - http://www.goldenbook.com
[22:42:44] Sai: [-] 8088/8249 download failed (Return: -) - http://Nido-Rinconada.com/rinconada/sample-page/
[22:42:44] Win News Time: [-] 7747/7826 download failed (Return: -) - http://www.diet-gazette.com/
[22:42:44] Hindu temples T2: [-] 4070/4573 download failed (Return: -) - http://www.jaibhim.hu/a-roma-and-dalit-joint-project-in-hungary/
[22:42:44] Internet VOIP: [-] 0124/8096 download failed (Return: -) - https://www.tamil.eronow.in/
[22:42:44] Amazon: [-] 3693/7825 download failed (Return: -) - https://dropperist.com/listing/annamaija-katariina-vaisanen/
[22:42:44] Web Design T2: [-] 4920/8453 download failed (Return: -) - http://www.thebadrash.com/gallery/details.php?image_id=307
[22:42:44] Bollywood: [-] 0200/7884 download failed (Return: -) - http://psdreview.com/best-wordpress-poll-plugins/
[22:42:44] Justice degree: [-] 8020/8289 download failed (Return: -) - http://www.hangardesign.com/sites/taximedya/index.php/component/k2/item/4-excepteur-sint-occaecat-cup/4-exc
[22:42:44] Mesothelioma T1: [-] 0214/8853 download failed (Return: -) - https://bonoboville.com/
[22:42:44] Online Degree: [-] 7895/8073 download failed (Return: -) - http://www.afroexposure.org/schedule.html
[22:42:44] Mesa DUI lawyer T2: [-] 4197/8439 download failed (Return: -) - http://www.3rlab.com.br/cinco-quilos-a-mais-de-forragem-na-minha-dieta-sao-possiveis-qual-a-maneira-profissional-para-tomar-esta-decisao/
[22:42:44] Car Insurance T2: [-] 3374/8966 download failed (Return: -) - http://ferox-featherworks.com/
[22:42:44] Social Media: [-] 0495/7976 download failed (Return: -) - https://theassociation.org.nz
[22:42:44] Forex: [-] 7888/7985 download failed (Return: -) - https://www.healingafricafoundation.org/
./Le%20Donjon%20de%20Naheulbeuk/Bonus
instanceKlass com/android/dx/rop/annotation/Annotations
instanceKlass com/android/dx/util/FixedSizeList
instanceKlass com/android/dx/rop/cst/StdConstantPool
ciInstanceKlass com/android/dx/util/MutabilityControl 1 1 37 10 9 100 8 10 8 7 7 1 1 1 1 1 1 1 1 1 1 1 1 1 1 1 1 1 1 1 12 12 1 1 12 1 1 1 1
instanceKlass com/android/dx/cf/iface/StdFieldList
./Haruhi_Suzumiya/The%20Melancholy%20of%20Suzumiya%20Haruhi%20-%20Geki%20Chuu%20Kashuu%20Single%20[Hirano%20Aya%20%20%20Yuko%20Goto]
AK12	ALASKA	ANCHORAGE FLYING CROWN	afd	al_11_25OCT2007.png
LHD	ALASKA	ANCHORAGE LAKE HOOD SEAPLANE	afd	al_12_25OCT2007.png
Z41	ALASKA	ANCHORAGE LAKE HOOD STRIP	afd	al_12_25OCT2007.png

5.x  Tied Marker Name         :
     Tied Marker Usage        : (SLR/VLBI/LOCAL CONTROL/FOOTPRINT/etc)
Sushi: | |      42       |      26      |      0       |       0       | |       (04:24.434)
Sushi: |  -------------------------------------------------------------  |       (04:24.434)
Sushi: |  -------------------------------------------------------------  |       (04:24.434)
Sushi: | |      ValueSets     |    CodeSystems    |     Instances      | |       (04:24.434)
Sushi: | |-------------------------------------------------------------| |       (04:24.434)

  Process: neutronInelastic
 Version 1.23.0 (28 MAY 2018)
	New feature
instanceKlass sun/nio/cs/ThreadLocalCoders
instanceKlass java/util/zip/ZipFile$1
Testing executable /tmp/petsc-uGvYRc/config.setCompilers/conftest to see if it can be run
[22:42:45] Make money online T2: [-] 3847/8483 download failed (Return: -) - https://evilcyber.com/fitness/how-to-tone-your-body/
Z95	ARIZONA	CIBECUE	afd	sw_5_25OCT2007.png
install -m 755 ./lzip "/builds/free-electrons/toolchains-builder/build/tmp/test-x86-64-core-i7--uclibc--stable/host/usr/bin/lzip"
rm -f "/builds/free-electrons/toolchains-builder/build/tmp/test-x86-64-core-i7--uclibc--stable/host/usr/share/man/man1/lzip.1"*
install -m 644 ./doc/lzip.info "/builds/free-electrons/toolchains-builder/build/tmp/test-x86-64-core-i7--uclibc--stable/host/usr/share/info/lzip.info"
install -m 644 ./doc/lzip.1 "/builds/free-electrons/toolchains-builder/build/tmp/test-x86-64-core-i7--uclibc--stable/host/usr/share/man/man1/lzip.1"
if /bin/sh -c "install-info --version" > /dev/null 2>&1 ; then \
	install-info --info-dir="/builds/free-electrons/toolchains-builder/build/tmp/test-x86-64-core-i7--uclibc--stable/host/usr/share/info" "/builds/free-electrons/toolchains-builder/build/tmp/test-x86-64-core-i7--uclibc--stable/host/usr/share/info/lzip.info" ; \
fi
	-e 's#@@TARGET_FCFLAGS@@#-Os#' \
	-e 's#@@TARGET_LDFLAGS@@##' \
	-e 's#@@TARGET_CC@@#usr/bin/x86_64-linux-gcc#' \
	-e 's#@@TARGET_CXX@@#usr/bin/x86_64-linux-g++#' \
	-e 's#@@TARGET_FC@@#usr/bin/x86_64-linux-gfortran#' \
	-e 's#@@CMAKE_SYSTEM_PROCESSOR@@#x86_64#' \
	-e 's#@@TOOLCHAIN_HAS_FORTRAN@@#0#' \
	-e 's#@@CMAKE_BUILD_TYPE@@#Release#' \
	/builds/free-electrons/toolchains-builder/buildroot/support/misc/toolchainfile.cmake.in \
	> /builds/free-electrons/toolchains-builder/build/tmp/test-x86-64-core-i7--uclibc--stable/host/usr/share/buildroot/toolchainfile.cmake
>>> busybox 1.26.2 Downloading
--2017-06-13 11:59:01--  http://www.busybox.net/downloads/busybox-1.26.2.tar.bz2
Resolving www.busybox.net (www.busybox.net)... 140.211.167.122
Connecting to www.busybox.net (www.busybox.net)|140.211.167.122|:80... connected.
HTTP request sent, awaiting response... 301 Moved Permanently
Location: https://busybox.net/downloads/busybox-1.26.2.tar.bz2 [following]
--2017-06-13 11:59:01--  https://busybox.net/downloads/busybox-1.26.2.tar.bz2
Resolving busybox.net (busybox.net)... 140.211.167.122
Connecting to busybox.net (busybox.net)|140.211.167.122|:443... connected.
HTTP request sent, awaiting response... 200 OK
Length: 2120931 (2.0M) [application/x-bzip2]
Saving to: '/builds/free-electrons/toolchains-builder/build/tmp/test-x86-64-core-i7--uclibc--stable/build/.busybox-1.26.2.tar.bz2.CtD11H/output'

[22:42:48] Justice degree: [-] 8028/8289 download failed (Return: -) - https://sathyasaibaba.wordpress.com/2007/03/22/tony-oclery-caught-posting-as-sucked-by-baba/
[22:42:48] Sports: [-] 8089/8698 download failed (Return: -) - http://teamcenterpin.sitemix.jp/2011/03/20/smart-cover-%E3%81%A7-ipad-2-%E3%82%92%E5%86%B7%E8%94%B5%E5%BA%AB%E3%81%AB%E8%B2%BC%E3%82%8A%E3%81%A4%E3%81%91/
        Model:                      QGSP: 12 GeV ---> 100 TeV
        Model:                      FTFP: 4 GeV ---> 25 GeV
        Model:            BertiniCascade: 0 eV  ---> 5 GeV
<09:24AM tasm> unusual
(KD4CQY/#earthquake) Amateur Radio Radiogram services available OUTBOUND of Sticken area.  Check# #ARES
<09:24AM DrStupid> John Wayne and Burbank airports reopened
\c@HOURXII=\count298
\c@MINUTE=\count299
\c@TOHOUR=\count300
\c@TOMINUTE=\count301
\c@SECOND=\count302
\currenthour=\count303
\currentminute=\count304
\currentsecond=\count305
Package datetime Info: No datetime.cfg file found, using default settings on input line 308.
\@dtctr=\count306
\dayofyear=\count307
\dayofweek=\count308
LaTeX Info: Redefining \today on input line 736.
\dt@a=\toks35
\dt@b=\toks36
) (/usr/local/texlive/2021/texmf-dist/tex/latex/titlesec/titlesec.sty
Package: titlesec 2019/10/16 v2.13 Sectioning titles
\ttl@box=\box53
\beforetitleunit=\skip68
\aftertitleunit=\skip69
\ttl@plus=\dimen163
 (/usr/local/texlive/2021/texmf-dist/tex/latex/adjustbox/tc-pdftex.def
File: tc-pdftex.def 2019/01/04 v2.2 Clipping driver for pdftex
))
\adjbox@Width=\dimen172
\adjbox@Height=\dimen173
\adjbox@Depth=\dimen174
\adjbox@Totalheight=\dimen175
\adjbox@pwidth=\dimen176
\adjbox@pheight=\dimen177
[22:42:38] Precious metals: [-] 0096/8003 no engine matches (HTTP-Status: 400) - https://en.wordpress.com
[   1945843] rage::gameSkeleton::RunInitFunctions: Invoking CModelInfo INIT_BEFORE_MAP_LOADED init (8 out of 31)
[   1945859] rage::gameSkeleton::RunInitFunctions: Invoking CPatrolRoutes INIT_BEFORE_MAP_LOADED init (9 out of 31)
2016-02-23 15:45:25,574  INFO Injector:68 org.matsim.core.router.RoutingModule @com.google.inject.name.Named(value=undefined)
;
  return 0;
}
Executing: mpicc  -o /tmp/petsc-uGvYRc/config.setCompilers/conftest    /tmp/petsc-uGvYRc/config.setCompilers/conftest.o 
Executing: mpicc -c -o /tmp/petsc-uGvYRc/config.setCompilers/conftest.o -I/tmp/petsc-uGvYRc/config.setCompilers   /tmp/petsc-uGvYRc/config.setCompilers/conftest.c 
ciMethodData java/util/HashMap afterNodeInsertion (Z)V 2 1527 orig 264 8 110 37 81 0 0 0 0 136 162 138 22 0 0 0 0 40 1 0 0 0 0 0 0 0 0 0 0 0 0 0 0 0 0 0 0 0 0 0 0 0 0 0 0 0 0 0 0 0 0 0 0 0 0 0 0 0 0 0 0 0 0 0 0 0 0 0 0 0 0 0 0 0 0 0 0 0 0 0 0 77 68 79 32 101 120 116 114 97 32 100 97 116 97 32 108 111 99 107 0 0 0 0 0 0 0 0 0 0 0 0 0 0 0 0 0 0 0 0 0 0 0 0 0 0 0 0 0 0 0 0 0 0 0 0 0 0 0 0 0 0 0 0 0 0 0 0 0 0 0 0 0 0 0 0 0 0 0 0 0 0 0 0 0 0 0 0 0 0 0 0 0 0 0 0 0 0 0 0 0 0 0 0 0 0 0 0 0 0 0 0 0 0 0 0 0 0 0 0 0 0 0 0 0 0 0 0 0 0 0 0 0 0 0 0 0 218 1 0 0 233 32 0 0 1 0 0 0 0 0 0 0 0 0 0 0 2 0 0 0 0 0 3 0 1 0 0 0 0 0 0 0 255 255 255 255 0 0 0 0 0 0 0 0 data 0 oops 0
staticfield com/android/dx/rop/cst/CstFloat VALUE_1 Lcom/android/dx/rop/cst/CstFloat; com/android/dx/rop/cst/CstFloat
	at info.magnolia.cms.filters.MgnlFilterChain.doFilter(MgnlFilterChain.java:79) [magnolia-core-6.2.3.jar:?]
	at info.magnolia.cms.filters.MgnlFilterChain.doFilter(MgnlFilterChain.java:81) [magnolia-core-6.2.3.jar:?]
	at info.magnolia.cms.filters.UnicodeNormalizationFilter.doFilter(UnicodeNormalizationFilter.java:89) [magnolia-core-6.2.3.jar:?]
	at info.magnolia.cms.filters.AbstractMgnlFilter.doFilter(AbstractMgnlFilter.java:85) [magnolia-core-6.2.3.jar:?]
	at info.magnolia.cms.filters.MgnlFilterChain.doFilter(MgnlFilterChain.java:79) [magnolia-core-6.2.3.jar:?]
[     19453] Initialized system mapping!
[     19515] EndpointMapper::HandleRequest: GET /scui/v2/desktop
[     19937] binder on 17185 is 0x2880
[     19953] binder on 6672 is 0x2894
[     20125] RgscLogDelegate::OnEvent
[22:42:48] Digital Marketing: [+] 0144/7912 new URL - http://palmerhistory.biz/wp-login.php?registration=disabled
Sushi: info  Preprocessed 145 documents with 38 aliases.                         (00:01.723)
Sushi: info  Imported 90 definitions and 57 instances.                           (00:01.819)
[   1964812] overriding handle for mp_f_freemode_01/task_diff_001_b_uni.ytd (was 4cd05d8) -> 2ae
[   1964828] overriding handle for mp_f_freemode_01/task_diff_001_c_uni.ytd (was 4cd05d9) -> 2af
[   1964843] overriding handle for mp_f_freemode_01/task_diff_001_d_uni.ytd (was 4cd05da) -> 2b0
[   1964859] overriding handle for mp_f_freemode_01/task_diff_001_e_uni.ytd (was 4cd05db) -> 2b1
[   1964875] overriding handle for mp_f_freemode_01/task_diff_002_a_uni.ytd (was 4cd05dc) -> 2b2
[   1964890] overriding handle for mp_f_freemode_01/task_diff_002_b_uni.ytd (was 4cd05dd) -> 2b3
[   1964906] overriding handle for mp_f_freemode_01/task_diff_002_c_uni.ytd (was 4cd05de) -> 2b4
[   1964906] overriding handle for mp_f_freemode_01/task_diff_002_d_uni.ytd (was 4cd05df) -> 2b5
[   1964922] overriding handle for mp_f_freemode_01/task_diff_002_e_uni.ytd (was 4cd05e0) -> 2b6
[   1964937] overriding handle for mp_f_freemode_01/task_diff_003_c_uni.ytd (was 4cd05e3) -> 2b7
[   1964953] overriding handle for mp_f_freemode_01/task_diff_003_d_uni.ytd (was 4cd05e4) -> 2b8
[   1964968] overriding handle for mp_f_freemode_01/task_diff_003_e_uni.ytd (was 4cd05e5) -> 2b9
[   1964984] overriding handle for mp_f_freemode_01/task_diff_004_a_uni.ytd (was 4cd05e6) -> 2ba
[   1965000] overriding handle for mp_f_freemode_01/task_diff_004_b_uni.ytd (was 4cd05e7) -> 2bb
[   1965015] overriding handle for mp_f_freemode_01/task_diff_004_c_uni.ytd (was 4cd05e8) -> 2bc
[   1965703] overriding handle for mp_f_freemode_01/teef_diff_006_f_uni.ytd (was 4cd0628) -> 2ef
[   1965718] overriding handle for mp_f_freemode_01/teef_diff_008_a_uni.ytd (was 4cd062f) -> 2f0
[   1965734] overriding handle for mp_f_freemode_01/teef_diff_008_b_uni.ytd (was 4cd0630) -> 2f1
[   1965750] overriding handle for mp_f_freemode_01/teef_diff_008_c_uni.ytd (was 4cd0631) -> 2f2
[   1965765] overriding handle for mp_f_freemode_01/teef_diff_008_d_uni.ytd (was 4cd0632) -> 2f3
[   1965765] overriding handle for mp_f_freemode_01/teef_diff_008_e_uni.ytd (was 4cd0633) -> 2f4
[   1965781] overriding handle for mp_f_freemode_01/teef_diff_008_f_uni.ytd (was 4cd0634) -> 2f5
[   1965797] overriding handle for mp_f_freemode_01_female_apt01/accs_001_u.ydd (was 54d0008) -> 2f6
[   1965812] overriding handle for mp_f_freemode_01_female_apt01/accs_diff_001_a_uni.ytd (was 54d0009) -> 2f7
[   1965828] overriding handle for mp_f_freemode_01_female_apt01/jbib_002_u.ydd (was 5610031) -> 302
[   1965843] overriding handle for mp_f_freemode_01_female_apt01/jbib_006_u.ydd (was 5120094) -> 304
[   1965859] overriding handle for mp_f_freemode_01_female_apt01/jbib_007_u.ydd (was 5410008) -> 305
[   1965875] overriding handle for mp_f_freemode_01_female_apt01/jbib_008_u.ydd (was 54d000c) -> 306
[   1965890] overriding handle for mp_f_freemode_01_female_apt01/jbib_009_u.ydd (was 54d000d) -> 307
[   1965890] overriding handle for mp_f_freemode_01_female_apt01/jbib_010_u.ydd (was 54d000e) -> 309
./Film/Star_Wars
./Film/Star_Wars/2007%20Star%20Wars%20The%20Corellian%20Edition%20-%20John%20Williams
instanceKlass java/lang/BootstrapMethodError
instanceKlass java/lang/NoClassDefFoundError
[2023.05.20-22.07.43:062][  0]LogDeviceProfileManager: 	[00000A60F7A8DE00][00000A60F7FB2800 52] iPhone6S, 
[2023.05.20-22.07.43:062][  0]LogDeviceProfileManager: 	[00000A60F7A8DA00][00000A60F7FB0000 52] iPhone7, 
[2023.05.20-22.07.43:062][  0]LogDeviceProfileManager: 	[00000A60F7A8D800][00000A60F7FB5000 52] iPodTouch7, 
--2017-06-13 11:59:01--  https://busybox.net/downloads/busybox-1.26.2.tar.bz2
Resolving busybox.net (busybox.net)... 140.211.167.122
Checking for program /bin/nvcc...not found
./Era/Era%20-%20Vol.%201
./Era/Era%20-%20Vol.%202
[   1964859] overriding handle for mp_f_freemode_01/task_diff_001_e_uni.ytd (was 4cd05db) -> 2b1
	at com.vaadin.data.provider.DataCommunicator.pushData(DataCommunicator.java:461) ~[vaadin-server-8.9.4.jar:8.9.4]
	at com.vaadin.data.provider.HierarchicalDataCommunicator.doExpand(HierarchicalDataCommunicator.java:316) ~[vaadin-server-8.9.4.jar:8.9.4]
17AK	ALASKA	KETCHIKAN (TEMSCO H)	afd	al_115_25OCT2007.png
                                  2000-054B      GE 7                           GE 7                      S26495
2000-060     2000 Oct  6 2300     2000-060A      N-SAT-110                      Superbird 5               S26559  Ariane 42L             V133             CSG ELA2                 0.0
./Haruhi_Suzumiya/The%20Melancholy%20of%20Suzumiya%20Haruhi%20S2%20Character%20Song%20Vol.2%20-%20Nagato%20Yuki%20[Chihara%20Minori]
*
What kind of applet links to install
[   1966578] overriding handle for mp_f_freemode_01_mp_f_importexport_01/jbib_diff_007_l_uni.ytd (was 51d0012) -> 58b

679 redirects imported
ofz#6390 leak [Caolán McNamara]
ofz#6414 integer-overflow [Caolán McNamara]
ofz#6427 use of uninitialized values [Caolán McNamara]
ofz#6432 bad-cast [Caolán McNamara]
ofz#6433 bad-cast [Caolán McNamara]
[2023.05.20-22.07.39:933][  0]LogConfig: Set CVar [[r.DOF.Kernel.MaxBackgroundRadius:0.025]]
[2023.05.20-22.07.39:933][  0]LogConfig: Applying CVar settings from Section [TextureQuality@3] File [Scalability]
[2023.05.20-22.07.39:933][  0]LogConfig: Set CVar [[r.Streaming.MipBias:0]]
\currenthour=\count303
\currentminute=\count304
21:38:13 T:139832147908352   DEBUG: AddOnLog: MythTV PVR Client: LoadEITCategories: Add name [Movie - Comedy] for category 14
AK51	ALASKA	PORT ALSWORTH WILDER-NATWICK LLC	afd	al_173_25OCT2007.png
NOW	ALASKA	PORT ANGELES, WA PORT ANGELES CGAS	afd	al_173_25OCT2007.png
   [ (           1             0             0)
     (           0             1             0)
[   1966562] overriding handle for mp_f_freemode_01_mp_f_importexport_01/jbib_diff_007_k_uni.ytd (was 51d0011) -> 58a
     Marker->ARP North Ecc(m) : 0.00
CVK	ARKANSAS	ASH FLAT SHARP COUNTY RGNL	afd	sc_2_25OCT2007.png
	at info.magnolia.cms.filters.AbstractMgnlFilter.doFilter(AbstractMgnlFilter.java:85) [magnolia-core-6.2.3.jar:?]
	at info.magnolia.cms.filters.MgnlFilterChain.doFilter(MgnlFilterChain.java:79) [magnolia-core-6.2.3.jar:?]
12:32:04 T:7432  NOTICE: CMediaSourceSettings: loading media sources from special://masterprofile/sources.xml
12:32:04 T:7432  NOTICE: Loading player core factory settings from special://xbmc/system/playercorefactory.xml.
LaTeX Font Info:    Font shape `U/msb/m/n' will be
\@linkdim=\dimen284

     -- Verifying Spacecraft Ephemeris Coverage

     -- Verifying Misc. Spice Kernel Variables

........................................
ofz#6843 integer-overflow [Caolán McNamara]
ofz#6845 use of "deleted" ScRange [Eike Rathke]
  GEN     coreutils/Config.in
  GEN     coreutils/libcoreutils/Kbuild
  GEN     applets/Kbuild
  GEN     init/Kbuild
  GEN     init/Config.in
  GEN     networking/Kbuild
  GEN     networking/Config.in
  GEN     networking/libiproute/Kbuild
  GEN     networking/udhcp/Kbuild
  GEN     networking/udhcp/Config.in
  GEN     shell/Kbuild
  GEN     shell/Config.in
  GEN     util-linux/Kbuild
  GEN     util-linux/Config.in
  GEN     util-linux/volume_id/Kbuild
  GEN     util-linux/volume_id/Config.in
  GEN     loginutils/Kbuild
  GEN     loginutils/Config.in
  GEN     mailutils/Kbuild
  GEN     mailutils/Config.in
  GEN     libpwdgrp/Kbuild
  GEN     miscutils/Kbuild
  GEN     miscutils/Config.in
  GEN     scripts/Kbuild
  HOSTCC  scripts/kconfig/conf.o
scripts/kconfig/conf.c: In function 'conf_askvalue':
scripts/kconfig/conf.c:106:3: warning: ignoring return value of 'fgets', declared with attribute warn_unused_result [-Wunused-result]
   fgets(line, 128, stdin);
  Support --install [-s] to install applet links at runtime (FEATURE_INSTALLER) [Y/n/?] y
Don't use /usr (INSTALL_NO_USR) [N/y/?] n
what+did+greg+mcmackin+say	01.08.2009 19:12:05	http://www.google.com/search?q=Greg+McMackin+June+Jones&ie=utf-8&oe=utf-8&aq=t&rls=org.mozilla:en-US:official&client=firefox-a	Mozilla/5.0 (Windows; U; Windows NT 5.1; en-US; rv:1.9.0.12) Gecko/2009070611 Firefox/3.0.12	70.95.76.145
socorro+caro	01.08.2009 19:12:28	http://www.google.com/search?q=Socorro+shot+and+killed+three+of+their+four+children&rls=com.microsoft:en-us:IE-ContextMenu&ie=UTF-8&oe=UTF-8&sourceid=ie7&rlz=1I7GPEA_en	Mozilla/4.0 (compatible; MSIE 7.0; Windows NT 6.0; Trident/4.0; GTB6; SLCC1; .NET CLR 2.0.50727; Media Center PC 5.0; .NET CLR 1.1.4322; .NET CLR 3.0.30618; .NET CLR 3.5.30729; MSN Optimized;US)	173.169.165.129
socorro+caro	01.08.2009 19:12:36	http://www.google.com/search?hl=en&q=Socorro+Caro+murder+case&btnG=Google+Search&aq=f&oq=&aqi=	Mozilla/4.0 (compatible; MSIE 7.0; Windows NT 5.1; .NET CLR 1.1.4322; .NET CLR 2.0.50727; .NET CLR 3.0.04506.30; .NET CLR 3.0.04506.648)	209.234.149.2
sayville+summerfest	01.08.2009 19:13:19	http://www.google.com/search?q=sayville+street+fair+ny&rls=com.microsoft:en-us:IE-SearchBox&ie=UTF-8&oe=UTF-8&sourceid=ie7&rlz=1I7SUNA	Mozilla/4.0 (compatible; MSIE 7.0; Windows NT 5.1; .NET CLR 1.0.3705; .NET CLR 1.1.4322; Media Center PC 4.0)	69.123.190.172
tim+hack+and+kelly+drew	01.08.2009 19:14:08	http://www.google.com/search?q=Kelly+Drew+Tim+Hack+photos&ie=utf-8&oe=utf-8&aq=t&rls=org.mozilla:en-US:official&client=firefox-a	Mozilla/5.0 (Macintosh; U; PPC Mac OS X 10.4; en-US; rv:1.9.0.12) Gecko/2009070609 Firefox/3.0.12	99.142.7.191
frank+erwin+center	01.08.2009 19:14:33	http://www.google.com/search?q=frank+erwin+pictures&rls=com.microsoft:en-us&ie=UTF-8&oe=UTF-8&startIndex=&startPage=1	Mozilla/4.0 (compatible; MSIE 8.0; Windows NT 5.1; Trident/4.0; .NET CLR 1.1.4322; InfoPath.1; .NET CLR 2.0.50727)	70.132.202.15
laguardia+evacuated	01.08.2009 19:14:35	http://www.google.com/m/search?ct=fsh&q=evacuation+lga	BlackBerry8330/4.3.0 Profile/MIDP-2.0 Configuration/CLDC-1.1 VendorID/105	206.53.153.48
invicta+9212+men%E2%80%99s+gold+plated+stainless+steel+speedway+watch	01.08.2009 19:14:41	http://www.google.com/url?sa=t&source=web&ct=res&cd=1&url=http%3A%2F%2Fcomicsunlimited.com%2Fcomics%2Findex.php%3Finvicta%2B9212%2Bmen%25E2%2580%2599s%2Bgold%2Bplated%2Bstainless%2Bsteel%2Bspeedway%2Bwatch&ei=GZR0StyQM4bOsQOEgPnpCA&rct=j&q=Invicta+9212+Men%E2%80%99s+Gold+Plated+Stainless+Steel+Speedway+Watch&usg=AFQjCNHVHhg9g3_QCeShED4dzi5sUc7CTg&sig2=06V7McOVZimj266wht8Ksg	Mozilla/5.0 (Windows; U; Windows NT 6.0; en-US; rv:1.9.1.1) Gecko/20090715 Firefox/3.5.1	71.189.203.190
x+games+15+moto+x+best+trick	01.08.2009 19:15:56	http://www.google.com/search?client=firefox-a&rls=org.mozilla%3Aen-US%3Aofficial&channel=s&hl=en&q=2006+moto+X+best+trick+winner&btnG=Google+Search	Mozilla/5.0 (Windows; U; Windows NT 5.1; en-US; rv:1.9.0.10) Gecko/2009042316 Firefox/3.0.10	204.116.18.72
invicta+9212+men%E2%80%99s+gold+plated+stainless+steel+speedway+watch	01.08.2009 19:16:09	http://www.google.com/search?q=Invicta+9212+Men%E2%80%99s+Gold+Plated+Stainless+Steel+Speedway+Watch&sourceid=navclient-ff&ie=UTF-8&rlz=1B3GGGL_enUS177US210	Mozilla/5.0 (Windows; U; Windows NT 5.1; en-US; rv:1.9.1.2) Gecko/20090729 Firefox/3.5.2 AutoPager/0.5.2.2 (http://www.teesoft.info/)	98.222.66.216
gold+coast+art+fair+2009	01.08.2009 19:18:26	http://www.google.com/search?source=ig&hl=en&rlz=1R2ADBF_en&q=gold+coast+art+fest+	Mozilla/4.0 (compatible; MSIE 6.0; Windows NT 5.1; SV1; GTB6)	12.160.139.45
petty+officer+jonathan+campos	01.08.2009 19:18:30	http://www.google.com/search?hl=en&um=1&q=Petty%20Officer%20Jonathan%20Campos&ie=UTF-8&sa=N&tab=iw&start=0	Mozilla/4.0 (compatible; MSIE 8.0; Windows NT 5.1; Trident/4.0; .NET CLR 1.0.3705; .NET CLR 1.1.4322; Media Center PC 4.0; .NET CLR 2.0.50727)	66.188.92.167
bullet+express	01.08.2009 19:18:48	http://www.google.com/search?q=%22bullet+express%22+reviews+8+minutes&btnG=Search&hl=en&client=safari&rls=en-us&sa=2	Mozilla/5.0 (Macintosh; U; Intel Mac OS X 10_5_7; en-us) AppleWebKit/530.19.2 (KHTML, like Gecko) Version/4.0.2 Safari/530.19	71.138.143.151
bullet+express	01.08.2009 19:19:00	http://www.google.com/search?q=bullet+express&ie=utf-8&oe=utf-8&aq=t&rls=org.mozilla:en-US:official&client=firefox-a	Mozilla/5.0 (Macintosh; U; Intel Mac OS X 10.5; en-US; rv:1.9.0.12) Gecko/2009070609 Firefox/3.0.12	98.119.77.132
fedex+field	01.08.2009 19:19:23	http://www.google.com/search?hl=en&q=parking+at+fedex+field+for+concerts&aq=f&oq=&aqi=	Mozilla/4.0 (compatible; MSIE 7.0; Windows NT 6.0; WOW64; SLCC1; .NET CLR 2.0.50727; .NET CLR 3.0.04506; Media Center PC 5.0; InfoPath.2)	68.83.221.104
what+did+greg+mcmackin+say	01.08.2009 19:19:35	http://www.google.com/search?sourceid=navclient&ie=UTF-8&rlz=1T4GGLL_enUS338US338&q=what+did+greg+mcmackin+say	Mozilla/4.0 (compatible; MSIE 8.0; Windows NT 5.1; Trident/4.0; GTB6; .NET CLR 1.1.4322; .NET CLR 2.0.50727; .NET CLR 3.0.4506.2152; .NET CLR 3.5.30729)	70.16.153.73
bullet+express	01.08.2009 19:19:38	http://www.google.com/search?q=bullet+express&ie=utf-8&oe=utf-8&aq=t&rls=org.mozilla:en-US:official&client=firefox-a	Mozilla/5.0 (Macintosh; U; Intel Mac OS X 10.5; en-US; rv:1.9.0.12) Gecko/2009070609 Firefox/3.0.12	98.119.77.132
what+did+greg+mcmackin+say	01.08.2009 19:19:54	http://www.google.com/search?sourceid=navclient&ie=UTF-8&rlz=1T4GGLL_enUS338US338&q=what+did+greg+mcmackin+say	Mozilla/4.0 (compatible; MSIE 8.0; Windows NT 5.1; Trident/4.0; GTB6; .NET CLR 1.1.4322; .NET CLR 2.0.50727; .NET CLR 3.0.4506.2152; .NET CLR 3.5.30729)	70.16.153.73
invicta+9212+men%E2%80%99s+gold+plated+stainless+steel+speedway+watch	01.08.2009 19:19:57	http://www.google.com/search?sourceid=navclient&gfns=1&ie=UTF-8&rlz=1T4RNWN_enUS262US262&q=invicta+9212+men%27s+gold+plated+stainless+steel+speedway+watch	Mozilla/4.0 (compatible; MSIE 7.0; Windows NT 6.0; GTB6; SLCC1; .NET CLR 2.0.50727; .NET CLR 3.0.04506; .NET CLR 1.1.4322)	97.94.180.126
x+games+15+moto+x+best+trick	01.08.2009 19:20:14	http://www.google.com/url?sa=t&source=web&ct=res&cd=3&url=http%3A%2F%2Fcomicsunlimited.com%2Fcomics%2Findex.php%3Fx%2Bgames%2B15%2Bmoto%2Bx%2Bbest%2Btrick&ei=XpV0SpmJPJyntgfjodGWCQ&rct=j&q=x+games+15+los+angeles+day+2+songs&usg=AFQjCNG5gy7MF-uiLAZGZz3au71yD6R-9g	Mozilla/5.0 (Windows; U; Windows NT 5.1; en-US; rv:1.9.1.1) Gecko/20090715 Firefox/3.5.1	75.181.13.234
fedex+field	01.08.2009 19:20:18	http://www.google.com/search?q=fedex+field+parking+map&ie=utf-8&oe=utf-8&aq=t&rls=org.mozilla:en-US:official&client=firefox-a	Mozilla/5.0 (Windows; U; Windows NT 5.1; en-US; rv:1.9.0.12) Gecko/2009070611 Firefox/3.0.12	68.48.113.234
laguardia+evacuated	01.08.2009 19:20:36	http://www.google.com/search?hl=en&rlz=1G1GGLQ_ENUS300&ei=eZV0StXSHcf7tgeekdCWCQ&sa=X&oi=spell&resnum=0&ct=result&cd=1&q=LGA+INCIDENT&spell=1	Mozilla/4.0 (compatible; MSIE 8.0; Windows NT 5.1; Trident/4.0; .NET CLR 1.1.4322; .NET CLR 2.0.50727; .NET CLR 3.0.04506.30)	68.153.170.226
carlos+justo	01.08.2009 19:20:55	http://www.google.com/search?hl=en&client=firefox-a&rls=org.mozilla:en-US:official&hs=Pmz&q=carlos+justo+miami&revid=1531082830&ei=LJR0SrvmBMKBtgfnjM2WCQ&sa=X&oi=revisions_inline&resnum=0&ct=broad-revision&cd=1	Mozilla/5.0 (Macintosh; U; Intel Mac OS X 10.5; en-US; rv:1.9.1.1) Gecko/20090715 Firefox/3.5.1	200.7.36.118
tim+hack+and+kelly+drew	01.08.2009 19:21:06	http://www.google.com/search?client=safari&rls=en&q=Tim%20Hack%20and%20Kelly%20Drew&ie=UTF-8&oe=UTF-8	Mozilla/5.0 (Windows; U; Windows NT 6.0; en-US) AppleWebKit/530.19.2 (KHTML, like Gecko) Version/4.0.2 Safari/530.19.1	173.51.60.60
socorro+caro	01.08.2009 19:21:17	http://www.google.com/search?q=Socorro+Caro&sourceid=ie7&rls=com.microsoft:en-US&ie=utf8&oe=utf8	Mozilla/4.0 (compatible; MSIE 8.0; Windows NT 5.1; Trident/4.0)	96.251.181.98
what+did+greg+mcmackin+say	01.08.2009 19:21:22	http://www.google.com/search?hl=en&q=what+did+greg+mcmackin+say&aq=0z&oq=what+did+greg&aqi=g-z1g9	Mozilla/5.0 (Macintosh; U; Intel Mac OS X 10_5_7; en-us) AppleWebKit/530.19.2 (KHTML, like Gecko) Version/4.0.2 Safari/530.19	69.138.245.137
sono+arts+festival	01.08.2009 19:21:33	http://www.google.com/search?hl=en&q=sono+arts+festival+parking&aq=f&oq=&aqi=	Mozilla/4.0 (compatible; MSIE 6.0; Windows NT 5.1; SV1; .NET CLR 1.1.4322; InfoPath.1; .NET CLR 2.0.50727)	173.2.120.193
what+did+greg+mcmackin+say	01.08.2009 19:21:38	http://www.google.com/search?q=greg+McMackin&ie=utf-8&oe=utf-8&aq=t&rls=org.mozilla:en-US:official&client=firefox-a	Mozilla/5.0 (Macintosh; U; Intel Mac OS X 10.5; en-US; rv:1.9) Gecko/2008061004 Firefox/3.0	68.96.66.161
socorro+caro	01.08.2009 19:22:49	http://www.google.com/search?q=socorro+caro&rls=com.microsoft:en-us&ie=UTF-8&oe=UTF-8&startIndex=&startPage=1	Mozilla/4.0 (compatible; MSIE 8.0; Windows NT 6.0; Trident/4.0; SLCC1; .NET CLR 2.0.50727; Media Center PC 5.0; .NET CLR 3.5.30729; .NET CLR 3.0.30618)	75.161.141.34
petty+officer+jonathan+campos	01.08.2009 19:22:59	http://www.google.com/search?hl=en&q=Petty+Officer+Jonathan+&btnG=Google+Search&aq=f&oq=&aqi=	Mozilla/4.0 (compatible; MSIE 6.0; Windows NT 5.1; SV1; InfoPath.1; .NET CLR 1.1.4322; .NET CLR 2.0.50727; .NET CLR 3.0.4506.2152; .NET CLR 3.5.30729)	168.215.131.150
                           below 91 GeV, Glauber-Gribov above 
instanceKlass com/android/dx/util/ByteArray
instanceKlass com/android/dx/cf/iface/MethodList
instanceKlass com/android/dx/cf/iface/FieldList
instanceKlass com/android/dx/rop/type/TypeList
instanceKlass com/android/dx/cf/iface/AttributeList
Length: 95569 (93K) [application/octet-stream]
Saving to: '/builds/free-electrons/toolchains-builder/build/tmp/test-x86-64-core-i7--uclibc--stable/build/.lzip-1.18.tar.gz.RZzY1w/output'

     0K .......... .......... .......... .......... .......... 53% 3.46M 0s
    50K .......... .......... .......... .......... ...       100% 65.2M=0.01s
make[1]: Leaving directory '/builds/free-electrons/toolchains-builder/build/tmp/test-x86-64-core-i7--uclibc--stable/build/host-lzip-1.18'
>>> skeleton  Extracting
>>> skeleton  Patching
>>> skeleton  Configuring
>>> skeleton  Building
>>> skeleton  Installing to staging directory
/usr/bin/install -d -m 0755 /builds/free-electrons/toolchains-builder/build/tmp/test-x86-64-core-i7--uclibc--stable/host/usr/x86_64-buildroot-linux-uclibc/sysroot/usr/lib
/usr/bin/install -d -m 0755 /builds/free-electrons/toolchains-builder/build/tmp/test-x86-64-core-i7--uclibc--stable/host/usr/x86_64-buildroot-linux-uclibc/sysroot/usr/bin
/usr/bin/install -d -m 0755 /builds/free-electrons/toolchains-builder/build/tmp/test-x86-64-core-i7--uclibc--stable/host/usr/x86_64-buildroot-linux-uclibc/sysroot/usr/sbin
/usr/bin/install -d -m 0755 /builds/free-electrons/toolchains-builder/build/tmp/test-x86-64-core-i7--uclibc--stable/host/usr/x86_64-buildroot-linux-uclibc/sysroot/usr/include
/usr/bin/install -d -m 0755 /builds/free-electrons/toolchains-builder/build/tmp/test-x86-64-core-i7--uclibc--stable/host/usr/x86_64-buildroot-linux-uclibc/sysroot/bin
/usr/bin/install -d -m 0755 /builds/free-electrons/toolchains-builder/build/tmp/test-x86-64-core-i7--uclibc--stable/host/usr/x86_64-buildroot-linux-uclibc/sysroot/sbin
/usr/bin/install -d -m 0755 /builds/free-electrons/toolchains-builder/build/tmp/test-x86-64-core-i7--uclibc--stable/host/usr/x86_64-buildroot-linux-uclibc/sysroot/lib
ln -snf lib /builds/free-electrons/toolchains-builder/build/tmp/test-x86-64-core-i7--uclibc--stable/host/usr/x86_64-buildroot-linux-uclibc/sysroot/lib64
ln -snf lib /builds/free-electrons/toolchains-builder/build/tmp/test-x86-64-core-i7--uclibc--stable/host/usr/x86_64-buildroot-linux-uclibc/sysroot/usr/lib64
>>> skeleton  Fixing libtool files
>>> skeleton  Installing to target
rsync -a --ignore-times --exclude .svn --exclude .git --exclude .hg --exclude .bzr --exclude CVS --chmod=u=rwX,go=rX --exclude .empty --exclude '*~' system/skeleton/ /builds/free-electrons/toolchains-builder/build/tmp/test-x86-64-core-i7--uclibc--stable/target/
/usr/bin/install -d -m 0755 /builds/free-electrons/toolchains-builder/build/tmp/test-x86-64-core-i7--uclibc--stable/target/bin
/usr/bin/install -d -m 0755 /builds/free-electrons/toolchains-builder/build/tmp/test-x86-64-core-i7--uclibc--stable/target/sbin
/usr/bin/install -d -m 0755 /builds/free-electrons/toolchains-builder/build/tmp/test-x86-64-core-i7--uclibc--stable/target/lib
ln -snf lib /builds/free-electrons/toolchains-builder/build/tmp/test-x86-64-core-i7--uclibc--stable/target/lib64
ln -snf lib /builds/free-electrons/toolchains-builder/build/tmp/test-x86-64-core-i7--uclibc--stable/target/usr/lib64
/usr/bin/install -m 0644 support/misc/target-dir-warning.txt /builds/free-electrons/toolchains-builder/build/tmp/test-x86-64-core-i7--uclibc--stable/target/THIS_IS_NOT_YOUR_ROOT_FILESYSTEM
>>> toolchain-external-custom  Extracting
[2023.05.20-22.07.40:734][  0]LogTargetPlatformManager:   SF_METAL_TVOS
[2023.05.20-22.07.40:734][  0]LogTargetPlatformManager:   SF_METAL_MRT_TVOS
[2023.05.20-22.07.40:734][  0]LogTargetPlatformManager:   SF_METAL_SM5
[     57563] [    GTAProcess]               Render/ OnConnectionProgress: Downloading content manifest (1956.83 kB)
[     57641] [    GTAProcess]               Render/ OnConnectionProgress: Downloading content manifest (1970.82 kB)
[     57704] [    GTAProcess]               Render/ OnConnectionProgress: Downloading content manifest (1993.22 kB)
[     57813] [    GTAProcess]               Render/ OnConnectionProgress: Downloading content manifest (2012.81 kB)simple	14-Jul-2020 09:19:38	Build EPDG - EPDG-WEB-APP-DEVELOP - Build-UnitTest-QualityAnalysis #16 (EPDG-EPWBD-JOB1-16) started building on agent va10pwvbam324.us.ad.XXXXXX.com
jonathan+campos	01.08.2009 17:23:51	http://www.google.com/search?q=Petty+Officer+Jonathan+Campos&ie=utf-8&oe=utf-8&aq=t&rls=org.mozilla:en-US:official&client=firefox-a	Mozilla/5.0 (Windows; U; Windows NT 5.1; en-US; rv:1.9.0.12) Gecko/2009070611 Firefox/3.0.12	168.215.136.66
what+did+greg+mcmackin+say	01.08.2009 17:25:10	http://www.google.com/search?q=mcmackin+notre+dame+comment+what+did+he+say&btnG=Search&hl=en&rlz=1C1GGLS_enUS291US303&sa=2	Mozilla/5.0 (Windows; U; Windows NT 5.1; en-US) AppleWebKit/530.5 (KHTML, like Gecko) Chrome/2.0.172.37 Safari/530.5	98.220.175.104
petty+officer+jonathan+campos	01.08.2009 17:25:40	http://www.google.com/search?q=Petty+Officer+Jonathan+Campos+&rls=com.microsoft:en-us&ie=UTF-8&oe=UTF-8&startIndex=&startPage=1	Mozilla/4.0 (compatible; MSIE 8.0; Windows NT 5.1; Trident/4.0; .NET CLR 2.0.50727; .NET CLR 3.0.4506.2152; .NET CLR 3.5.30729; .NET CLR 1.1.4322)	72.214.57.229
sono+arts+festival	01.08.2009 17:27:06	http://www.google.com/m/search?oe=UTF-8&client=safari&hl=en&q=oyster+festival+august+2	Mozilla/5.0 (iPhone; U; CPU iPhone OS 3_0 like Mac OS X; en-us) AppleWebKit/528.18 (KHTML, like Gecko) Version/4.0 Mobile/7A341 Safari/528.16	99.153.138.185
clasica+san+sebastian+live	01.08.2009 17:27:23	http://www.google.dk/search?sourceid=navclient&hl=da&ie=UTF-8&rlz=1T4ADBF_daDK324DK324&q=Clasica+Ciclista+San+Sebastian+classification	Mozilla/4.0 (compatible; MSIE 7.0; Windows NT 5.1; GTB6; .NET CLR 1.1.4322; .NET CLR 2.0.50727; .NET CLR 3.0.04506.30)	83.88.185.60
fold (FOLD) [Y/n/?] y
2016-02-23 15:45:25,617  INFO Injector:69    -> com.google.inject.internal.ConstructorBindingImpl$Factory@7530ad9c[Scopes.SINGLETON]
2016-02-23 15:45:25,617  INFO Injector:68 org.matsim.core.router.SingleModeNetworksCache 
2016-02-23 15:45:25,617  INFO Injector:69    -> com.google.inject.internal.ConstructorBindingImpl$Factory@394df057[Scopes.SINGLETON]
4F8	ARKANSAS	STEPHENS WILSON	afd	sc_41_25OCT2007.png
                                              </videodatabase>
                                              <musicdatabase>
                                                <type>mysql</type>
                                                <host>192.168.0.2</host>
                                                <port>3306</port>
Activated NullPunisher featurizer
Activated NumericMismatch featurizer
\KV@toks@=\toks17
		- Add more 2 weeks period for weekly report and export
		- Add new feature for calendar can drag and drop event for update
                                  -              STRV-1d                        STRV-1d
2000-076     2000 Nov 21 2356     2000-076A      Anik F1                        Anik F1                   S26624  Ariane 44L             V136             CSG ELA2                 0.0
2000-081     2000 Dec 20 0026     2000-081D      Astra 2D                       Astra 2D                  S26641  Ariane 5G              V138 (508)       CSG ELA3                 0.0
4M8	ARKANSAS	CLARENDON MUNI	afd	sc_7_25OCT2007.png
H35	ARKANSAS	CLARKSVILLE MUNI	afd	sc_8_25OCT2007.png
-- [download 27% complete]
[2023.05.20-22.07.39:933][  0]LogConfig: Set CVar [[r.DOF.Gather.EnableBokehSettings:0       ; no bokeh simulation when gathering]]
[2023.05.20-22.07.39:933][  0]LogConfig: Set CVar [[r.DOF.Gather.RingCount:4                 ; medium number of samples when gathering]]
[2023.05.20-22.07.39:933][  0]LogConfig: Set CVar [[r.DOF.Scatter.ForegroundCompositing:1    ; additive foreground scattering]]
[2023.05.20-22.07.39:933][  0]LogConfig: Set CVar [[r.DOF.Scatter.BackgroundCompositing:2    ; additive background scattering]]
[2023.05.20-22.07.39:933][  0]LogConfig: Set CVar [[r.DOF.Scatter.EnableBokehSettings:1      ; bokeh simulation when scattering]]
[2023.05.20-22.07.39:933][  0]LogConfig: Set CVar [[r.DOF.Scatter.MaxSpriteRatio:0.1         ; only a maximum of 10% of scattered bokeh]]
[2023.05.20-22.07.39:933][  0]LogConfig: Set CVar [[r.DOF.Recombine.Quality:1                ; cheap slight out of focus]]
[2023.05.20-22.07.39:933][  0]LogConfig: Set CVar [[r.DOF.Recombine.EnableBokehSettings:0    ; no bokeh simulation on slight out of focus]]
[2023.05.20-22.07.39:933][  0]LogConfig: Set CVar [[r.DOF.TemporalAAQuality:1                ; more stable temporal accumulation]]
[2023.05.20-22.07.39:933][  0]LogConfig: Set CVar [[r.DOF.Kernel.MaxForegroundRadius:0.025]]
[2023.05.20-22.07.39:933][  0]LogConfig: Set CVar [[r.DOF.Kernel.MaxBackgroundRadius:0.025]]
[2023.05.20-22.07.39:933][  0]LogConfig: Applying CVar settings from Section [TextureQuality@3] File [Scalability]
[2023.05.20-22.07.39:933][  0]LogConfig: Set CVar [[r.Streaming.MipBias:0]]
[2023.05.20-22.07.39:933][  0]LogConfig: Set CVar [[r.Streaming.AmortizeCPUToGPUCopy:0]]
[2023.05.20-22.07.39:933][  0]LogConfig: Set CVar [[r.Streaming.MaxNumTexturesToStreamPerFrame:0]]
[2023.05.20-22.07.39:933][  0]LogConfig: Set CVar [[r.Streaming.Boost:1]]
[2023.05.20-22.07.39:933][  0]LogConfig: Set CVar [[r.MaxAnisotropy:8]]
[2023.05.20-22.07.39:933][  0]LogConfig: Set CVar [[r.VT.MaxAnisotropy:8]]
[2023.05.20-22.07.39:933][  0]LogConfig: Set CVar [[r.Streaming.LimitPoolSizeToVRAM:0]]
[2023.05.20-22.07.39:933][  0]LogConfig: Set CVar [[r.Streaming.PoolSize:1000]]
[2023.05.20-22.07.39:933][  0]LogConfig: Set CVar [[r.Streaming.MaxEffectiveScreenSize:0]]
[2023.05.20-22.07.39:933][  0]LogConfig: Applying CVar settings from Section [EffectsQuality@3] File [Scalability]
[2023.05.20-22.07.39:933][  0]LogConfig: Set CVar [[r.TranslucencyLightingVolumeDim:16]]
[2023.05.20-22.07.39:933][  0]LogConfig: Set CVar [[r.RefractionQuality:2]]
[2023.05.20-22.07.39:933][  0]LogConfig: Set CVar [[r.SSR.Quality:0]]
[2023.05.20-22.07.39:933][  0]LogConfig: Set CVar [[r.SSR.HalfResSceneColor:0]]
[2023.05.20-22.07.39:933][  0]LogConfig: Set CVar [[r.SceneColorFormat:2]]
[2023.05.20-22.07.39:933][  0]LogConfig: Set CVar [[r.DetailMode:2]]
[2023.05.20-22.07.39:933][  0]LogConfig: Set CVar [[r.TranslucencyVolumeBlur:0]]
[2023.05.20-22.07.39:933][  0]LogConfig: Set CVar [[r.MaterialQualityLevel:1 ; High quality]]
[22:42:35] Computer: [+] 0311/8028 new URL - https://web302.your-webhost.nl:443/stack-protect.php?ip_address=34.69.44.172&re_direct_to=loft64.nl/wp-login.php&action=register
[22:42:35] Computer: [+] 0311/8028 new URL - https://web302.your-webhost.nl:443/stack-protect.php?ip_address=34.69.44.172&re_direct_to=loft64.nl/wp-login.php&action=register
[22:42:35] Computer: [-] 0311/8028 no form at all - https://web302.your-webhost.nl:443/stack-protect.php?ip_address=34.69.44.172&re_direct_to=loft64.nl/wp-login.php&action=register
[22:42:36] Currency: [-] 7907/8085 no engine matches (HTTP-Status: 301) - https://lars.ingebrigtsen.no/2016/06/28/emacs-can-haz-fancy-meme/
[22:42:36] Insurance: [-] 8209/8262 no engine matches - http://dirtycelebmen.blogspot.com/2012/01/daniel-lissing.html
  Fetching:

Installing us.nlm.vsac#0.11.0 done.
Load Package us.nlm.vsac#0.11.0
Installing hl7.fhir.uv.extensions#1.0.0 to the package cache
  Fetching:

Installing hl7.fhir.uv.extensions#1.0.0 done.
Version mismatch. This IG is version 4.0.1, while the IG 'hl7.fhir.uv.extensions' is from version 5.0.0 (will try to run anyway) (05:43.524)
Installing hl7.terminology.r5#5.0.0 to the package cache
  Fetching:

Installing hl7.terminology.r5#5.0.0 done.
Ignore Dependency on Core FHIR hl7.fhir.r5.core#5.0.0, from package 'hl7.terminology.r5#5.0.0' (05:47.985)
Load Package hl7.terminology.r5#5.0.0
Load Package hl7.fhir.uv.extensions#1.0.0
US Core Comparison: compare StructureDefinition[http://hl7.org/fhir/us/ph-library/StructureDefinition/us-ph-is-postpartum|1.0.0] to StructureDefinition[http://hl7.org/fhir/us/core/StructureDefinition/us-core-bmi|6.1.0]
US Core Comparison: compare StructureDefinition[http://hl7.org/fhir/us/ph-library/StructureDefinition/us-ph-is-postpartum|1.0.0] to StructureDefinition[http://hl7.org/fhir/us/core/StructureDefinition/us-core-body-height|6.1.0]
US Core Comparison: compare StructureDefinition[http://hl7.org/fhir/us/ph-library/StructureDefinition/us-ph-is-postpartum|1.0.0] to StructureDefinition[http://hl7.org/fhir/us/core/StructureDefinition/us-core-body-temperature|6.1.0]
US Core Comparison: compare StructureDefinition[http://hl7.org/fhir/us/ph-library/StructureDefinition/us-ph-is-postpartum|1.0.0] to StructureDefinition[http://hl7.org/fhir/us/core/StructureDefinition/us-core-body-weight|6.1.0]
US Core Comparison: compare StructureDefinition[http://hl7.org/fhir/us/ph-library/StructureDefinition/us-ph-is-postpartum|1.0.0] to StructureDefinition[http://hl7.org/fhir/us/core/StructureDefinition/us-core-head-circumference|6.1.0]
US Core Comparison: compare StructureDefinition[http://hl7.org/fhir/us/ph-library/StructureDefinition/us-ph-is-postpartum|1.0.0] to StructureDefinition[http://hl7.org/fhir/us/core/StructureDefinition/us-core-heart-rate|6.1.0]
US Core Comparison: compare StructureDefinition[http://hl7.org/fhir/us/ph-library/StructureDefinition/us-ph-is-postpartum|1.0.0] to StructureDefinition[http://hl7.org/fhir/us/core/StructureDefinition/us-core-observation-clinical-result|6.1.0]
US Core Comparison: compare StructureDefinition[http://hl7.org/fhir/us/ph-library/StructureDefinition/us-ph-is-postpartum|1.0.0] to StructureDefinition[http://hl7.org/fhir/us/core/StructureDefinition/us-core-observation-lab|6.1.0]
US Core Comparison: compare StructureDefinition[http://hl7.org/fhir/us/ph-library/StructureDefinition/us-ph-is-postpartum|1.0.0] to StructureDefinition[http://hl7.org/fhir/us/core/StructureDefinition/us-core-observation-occupation|6.1.0]
US Core Comparison: compare StructureDefinition[http://hl7.org/fhir/us/ph-library/StructureDefinition/us-ph-is-postpartum|1.0.0] to StructureDefinition[http://hl7.org/fhir/us/core/StructureDefinition/us-core-observation-pregnancyintent|6.1.0]
US Core Comparison: compare StructureDefinition[http://hl7.org/fhir/us/ph-library/StructureDefinition/us-ph-is-postpartum|1.0.0] to StructureDefinition[http://hl7.org/fhir/us/core/StructureDefinition/us-core-observation-pregnancystatus|6.1.0]
US Core Comparison: compare StructureDefinition[http://hl7.org/fhir/us/ph-library/StructureDefinition/us-ph-is-postpartum|1.0.0] to StructureDefinition[http://hl7.org/fhir/us/core/StructureDefinition/us-core-observation-screening-assessment|6.1.0]
US Core Comparison: compare StructureDefinition[http://hl7.org/fhir/us/ph-library/StructureDefinition/us-ph-is-postpartum|1.0.0] to StructureDefinition[http://hl7.org/fhir/us/core/StructureDefinition/us-core-observation-sexual-orientation|6.1.0]
US Core Comparison: compare StructureDefinition[http://hl7.org/fhir/us/ph-library/StructureDefinition/us-ph-is-postpartum|1.0.0] to StructureDefinition[http://hl7.org/fhir/us/core/StructureDefinition/us-core-pulse-oximetry|6.1.0]
[2023.05.20-22.07.39:930][  0]LogConfig: Set CVar [[r.MaxQualityMode:0]]
     URL for More Information : 
     Hardcopy on File
       Site Map               : (Y or URL)
LogPluginManager: Mounting Engine plugin FastBuildController
LogPluginManager: Mounting Engine plugin MeshPainting
  Process: hadElastic
        Model:              hElasticLHEP: 0 eV /n ---> 100 TeV/n
     Cr_sctns:            GheishaElastic: 0 eV  ---> 100 TeV

  Process: alphaInelastic
        Model:       ParticleHPInelastic: 0 eV /n ---> 200 MeV/n
        Model:  Binary Light Ion Cascade: 190 MeV/n ---> 4 GeV/n
        Model:                      FTFP: 2 GeV/n ---> 100 TeV/n
     Cr_sctns:        AlphaHPInelasticXS: 0 eV  ---> 200 MeV
     Cr_sctns: Glauber-Gribov nucleus nucleus: 0 eV  ---> 2.88022e+295 J  
     Cr_sctns:          GheishaInelastic: 0 eV  ---> 100 TeV

---------------------------------------------------
                           Hadronic Processes for anti_He3

  Process: hadElastic
        Model:              hElasticLHEP: 0 eV /n ---> 100.1 MeV/n
        Model:              AntiAElastic: 100 MeV/n ---> 100 TeV/n
     Cr_sctns:              AntiAGlauber: 0 eV  ---> 2.88022e+295 J  
     Cr_sctns:            GheishaElastic: 0 eV  ---> 100 TeV

  Process: anti_He3Inelastic
        Model:                      FTFP: 0 eV /n ---> 100 TeV/n
     Cr_sctns:              AntiAGlauber: 0 eV  ---> 2.88022e+295 J  
     Cr_sctns:          GheishaInelastic: 0 eV  ---> 100 TeV

  Process: hFritiofCaptureAtRest

---------------------------------------------------
                           Hadronic Processes for anti_alpha
2021-10-26T21:51:50.046Z,61.046421,4337000,6 [FLog::Output] Info: Stack Begin
2021-10-26T21:51:50.046Z,61.046528,4337000,6 [FLog::Output] Info: Script 'Players.FruitySama.PlayerGui.HUD.Setting.FXButton.FXButtonLocal', Line 2
2021-10-26T21:51:50.046Z,61.046593,4337000,6 [FLog::Output] Info: Stack End
2021-10-26T21:51:50.046Z,61.046631,4337000,6 [FLog::Warning] Warning: Infinite yield possible on 'Players.FruitySama:WaitForChild("DataLoad")'
2021-10-26T21:51:50.046Z,61.046711,4337000,6 [FLog::Output] Info: Stack Begin
2021-10-26T21:51:50.046Z,61.046757,4337000,6 [FLog::Output] Info: Script 'Players.FruitySama.PlayerGui.HUD.Setting.UnitDisplayGamePass2.TextButton.UnitGamePassDisplay', Line 2
2021-10-26T21:51:50.046Z,61.046799,4337000,6 [FLog::Output] Info: Stack End
2021-10-26T21:51:50.046Z,61.046864,4337000,6 [FLog::Warning] Warning: Infinite yield possible on 'Players.FruitySama:WaitForChild("DataLoad")'
2021-10-26T21:51:50.046Z,61.046906,4337000,6 [FLog::Output] Info: Stack Begin
2021-10-26T21:51:50.046Z,61.046940,4337000,6 [FLog::Output] Info: Script 'Players.FruitySama.PlayerGui.HUD.Setting.Skip.FXButtonLocal', Line 2
2021-10-26T21:51:50.046Z,61.046970,4337000,6 [FLog::Output] Info: Stack End
2021-10-26T21:51:50.047Z,61.047016,4337000,6 [FLog::Warning] Warning: Infinite yield possible on 'Players.FruitySama:WaitForChild("DataLoad")'
2021-10-26T21:51:50.047Z,61.047058,4337000,6 [FLog::Output] Info: Stack Begin
2021-10-26T21:51:50.047Z,61.047100,4337000,6 [FLog::Output] Info: Script 'Players.FruitySama.PlayerGui.HUD.Setting.LowGfx.FXButtonLocal', Line 2
2021-10-26T21:51:50.047Z,61.047134,4337000,6 [FLog::Output] Info: Stack End
2021-10-26T21:51:50.047Z,61.047211,4337000,6 [FLog::Warning] Warning: Infinite yield possible on 'Players.FruitySama:WaitForChild("DataLoad")'
2021-10-26T21:51:50.047Z,61.047356,4337000,6 [FLog::Output] Info: Stack Begin
2021-10-26T21:51:50.047Z,61.047409,4337000,6 [FLog::Output] Info: Script 'Players.FruitySama.PlayerGui.HUD.Setting.Trade.FXButtonLocal', Line 2
2021-10-26T21:51:50.047Z,61.047462,4337000,6 [FLog::Output] Info: Stack End
2021-10-26T21:51:54.612Z,65.612144,ab3bf380,6 [FLog::GameJoinUtil] GameJoinUtil::initiateTeleportToReservedServer: URL: https://gamejoin.roblox.com/v1/join-reserved-game POST Body: {"placeId":4996049426,"isTeleport":true,"accessCode":"4ybb7Ef9p9ndhPmyRSXk6UjLY99ZbDxLuUWpvW3BXfcSqskpAQAAAA2","browserTrackerId":"73171453269"}
2021-10-26T21:51:54.612Z,65.612244,ab3bf380,6 [FLog::GameJoinUtil] GameJoinUtil::makePlaceLauncherRequestForTeleport: requestCount: 0, url: https://gamejoin.roblox.com/v1/join-reserved-game
2021-10-26T21:51:54.612Z,65.612419,ab3bf380,6 [FLog::GameJoinUtil] Delaying request by 0.00 seconds
2021-10-26T21:51:54.636Z,65.636810,ab3bf380,6 [FLog::Graphics] LayeredClothingMode updated: LC=0 SkeletonAPI=1 HSR=0 TC2=0
2021-10-26T21:51:54.837Z,65.837456,4231000,6 [FLog::GameJoinUtil] GameJoinUtil::makePlaceLauncherRequestForTeleport, response:

2021-10-26T21:51:59.183Z,70.183502,4231000,6 [FLog::GameJoinUtil] GameJoinUtil::makePlaceLauncherRequestForTeleport: requestCount: 9, url: https://gamejoin.roblox.com/v1/join-reserved-game
2021-10-26T21:51:59.183Z,70.183655,4231000,6 [FLog::GameJoinUtil] Delaying request by 0.72 seconds
2021-10-26T21:51:59.971Z,70.971832,4231000,6 [FLog::GameJoinUtil] GameJoinUtil::makePlaceLauncherRequestForTeleport, response:
{"jobId":"JoinPrivateGame:PlaceId=4996049426&AccessCode=df63cb48-6c59-4b3c-b945-a9bd6dc15df7","status":0,"joinScriptUrl":null,"authenticationUrl":null,"authenticationTicket":null,"message":null,"joinScript":null}
status code: 200
[2023.05.20-22.07.40:667][  0]LogTargetPlatformManager: Display: Loaded TargetPlatform 'WindowsClient'
[2023.05.20-22.07.40:667][  0]LogTargetPlatformManager: Display: Building Assets For WindowsEditor
build	14-Jul-2020 09:19:57	[DEBUG] Style:         Regular
build	14-Jul-2020 09:19:57	[DEBUG] Configuration: <?xml version="1.0" encoding="UTF-8"?>
tdf#45999 FILESAVE: DOC - Hebrew and arabic text in comments appear in MS Word in reverse order and wrong font [Mark Hung]
[   1928187] ResourceCache::AddEntry: Saved cache:v1:6ab8900f04a0670dc55c123ba04e67d88fd65892 to the index cache.
[   1928203] ResourceCacheDevice: downloaded resource.rpf in 176 msec (size 69632)
[   1928250] resources::ResourceCacheDeviceV2::DoFetch downloading resource.rpf (hash 447fc70b44c130290c360e2f00db2ac7705669d3) from http://139.99.125.59:30124/files/op-scoreboard/resource.rpf
[   1928406] ResourceCache::AddEntry: Saved cache:v1:447fc70b44c130290c360e2f00db2ac7705669d3 to the index cache.
[   1928422] ResourceCacheDevice: downloaded resource.rpf in 174 msec (size 90112)
[   1928484] resources::ResourceCacheDeviceV2::DoFetch downloading resource.rpf (hash 1e14c9e8af5d3601af132b82142b8dca20a45e4d) from http://139.99.125.59:30124/files/op-cocaine/resource.rpf
[   1928750] ResourceCache::AddEntry: Saved cache:v1:1e14c9e8af5d3601af132b82142b8dca20a45e4d to the index cache.
[   1928797] ResourceCacheDevice: downloaded resource.rpf in 318 msec (size 131072)
[   1928859] resources::ResourceCacheDeviceV2::DoFetch downloading resource.rpf (hash fcac02e3cdf3ad5fbe83b257a86c708eb3994c0a) from http://139.99.125.59:30124/files/op-garbagejob/resource.rpf
[   1929015] ResourceCache::AddEntry: Saved cache:v1:fcac02e3cdf3ad5fbe83b257a86c708eb3994c0a to the index cache.
[   1929031] ResourceCacheDevice: downloaded resource.rpf in 171 msec (size 63488)
[   1929078] resources::ResourceCacheDeviceV2::DoFetch downloading resource.rpf (hash 89cc481164c5e691e233c123369abc7388e7cb74) from http://139.99.125.59:30124/files/op-robberies/resource.rpf
[   1929328] ResourceCache::AddEntry: Saved cache:v1:89cc481164c5e691e233c123369abc7388e7cb74 to the index cache.
[   1929343] ResourceCacheDevice: downloaded resource.rpf in 268 msec (size 149504)
[   1929390] resources::ResourceCacheDeviceV2::DoFetch downloading resource.rpf (hash 800f06e46d2615da62fd07415561a45489ecadb6) from http://139.99.125.59:30124/files/op-residences/resource.rpf
[   1929562] ResourceCache::AddEntry: Saved cache:v1:800f06e46d2615da62fd07415561a45489ecadb6 to the index cache.
[   1935922] ResourceCache::AddEntry: Saved cache:v1:3a29e60c727aaf05a26d68cb05b3030f9c7f253f to the index cache.
[   1935937] ResourceCacheDevice: downloaded resource.rpf in 191 msec (size 22528)
[   1936000] resources::ResourceCacheDeviceV2::DoFetch downloading resource.rpf (hash 1ff680b5abbef790c323b89e70f735b541d5e270) from http://139.99.125.59:30124/files/op-transportation/resource.rpf
[   1936375] ResourceCache::AddEntry: Saved cache:v1:1ff680b5abbef790c323b89e70f735b541d5e270 to the index cache.
[   1936390] ResourceCacheDevice: downloaded resource.rpf in 392 msec (size 77824)
[   1936453] resources::ResourceCacheDeviceV2::DoFetch downloading resource.rpf (hash bf41fa74d0a203e28932454b0543f7779e973bf1) from http://139.99.125.59:30124/files/op-tunerchip/resource.rpf
[   1940015] ResourceCache::AddEntry: Saved cache:v1:bf41fa74d0a203e28932454b0543f7779e973bf1 to the index cache.
[   1940031] ResourceCacheDevice: downloaded resource.rpf in 3580 msec (size 1849344)
[   1940125] resources::ResourceCacheDeviceV2::DoFetch downloading resource.rpf (hash 3c0719dd7e05b6dfa44945c8a717483316552eeb) from http://139.99.125.59:30124/files/op-vehicles/resource.rpf
[   1943093] ResourceCache::AddEntry: Saved cache:v1:3c0719dd7e05b6dfa44945c8a717483316552eeb to the index cache.
[   1943125] ResourceCacheDevice: downloaded resource.rpf in 2995 msec (size 972800)
[   1943187] resources::ResourceCacheDeviceV2::DoFetch downloading resource.rpf (hash da9ff3f5627dbea1cfec8eb1e825bf246cac67d6) from http://139.99.125.59:30124/files/op-weapons/resource.rpf
[   1944187] ResourceCache::AddEntry: Saved cache:v1:da9ff3f5627dbea1cfec8eb1e825bf246cac67d6 to the index cache.
[   1944203] ResourceCacheDevice: downloaded resource.rpf in 1014 msec (size 217088)
2021-10-26T21:50:49.423Z,0.423444,ab3bf380,6 [FLog::SingleSurfaceApp] SingleSurfaceApp::initialize
2021-10-26T21:50:49.423Z,0.423523,ab3bf380,6 [FLog::SingleSurfaceApp] SingleSurfaceApp::initializeSingleton
2021-10-26T21:50:49.423Z,0.423645,ab3bf380,6 [FLog::Output] setAssetFolder /Users/studioagain/Applications/Roblox.app/Contents/Resources/content/
LaTeX Info: Redefining \pageref on input line 90.
LaTeX Info: Redefining \nameref on input line 90.
 (/Users/natera/Dropbox/PhD/thesis/main.out) (/Users/natera/Dropbox/PhD/thesis/main.out)
37T	ARKANSAS	CALICO ROCK-IZARD CO	afd	sc_6_25OCT2007.png
CDH	ARKANSAS	CAMDEN HARRELL FLD	afd	sc_7_25OCT2007.png
	at com.google.common.net.MediaType.parse(MediaType.java:982) ~[guava-28.2-jre.jar:?]
	... 121 more
ERROR info.magnolia.admincentral.AdmincentralErrorHandler 15.10.2020 00:02:52 -- AdmincentralUI has encountered an unhandled exception.
com.vaadin.server.ServerRpcManager$RpcInvocationException: Unable to invoke method setNodeCollapsed in com.vaadin.shared.ui.treegrid.NodeCollapseRpc
	at com.vaadin.server.ServerRpcManager.applyInvocation(ServerRpcManager.java:159) ~[vaadin-server-8.9.4.jar:8.9.4]
	at com.vaadin.server.ServerRpcManager.applyInvocation(ServerRpcManager.java:116) ~[vaadin-server-8.9.4.jar:8.9.4]
	at com.vaadin.server.communication.ServerRpcHandler.handleInvocation(ServerRpcHandler.java:445) [vaadin-server-8.9.4.jar:8.9.4]
	at com.vaadin.server.communication.ServerRpcHandler.handleInvocations(ServerRpcHandler.java:410) [vaadin-server-8.9.4.jar:8.9.4]
	at com.vaadin.server.communication.ServerRpcHandler.handleRpc(ServerRpcHandler.java:274) [vaadin-server-8.9.4.jar:8.9.4]
	at info.magnolia.cms.filters.MultiChannelFilter.doFilter(MultiChannelFilter.java:83) [magnolia-core-6.2.3.jar:?]
	at info.magnolia.cms.filters.AbstractMgnlFilter.doFilter(AbstractMgnlFilter.java:85) [magnolia-core-6.2.3.jar:?]
	at info.magnolia.cms.filters.MgnlFilterChain.doFilter(MgnlFilterChain.java:79) [magnolia-core-6.2.3.jar:?]
	at info.magnolia.cms.filters.MgnlFilterChain.doFilter(MgnlFilterChain.java:81) [magnolia-core-6.2.3.jar:?]
	at info.magnolia.module.cache.filter.GZipFilter.doFilter(GZipFilter.java:74) [magnolia-cache-core-5.9.1.jar:?]
	at info.magnolia.cms.filters.OncePerRequestAbstractMgnlFilter.doFilter(OncePerRequestAbstractMgnlFilter.java:59) [magnolia-core-6.2.3.jar:?]
	at info.magnolia.cms.filters.MgnlFilterChain.doFilter(MgnlFilterChain.java:79) [magnolia-core-6.2.3.jar:?]
	at info.magnolia.cms.filters.MgnlFilterChain.doFilter(MgnlFilterChain.java:81) [magnolia-core-6.2.3.jar:?]
	at info.magnolia.cms.security.auth.login.LoginFilter.doFilter(LoginFilter.java:127) [magnolia-core-6.2.3.jar:?]
	at info.magnolia.cms.filters.AbstractMgnlFilter.doFilter(AbstractMgnlFilter.java:85) [magnolia-core-6.2.3.jar:?]
	at info.magnolia.cms.filters.MgnlFilterChain.doFilter(MgnlFilterChain.java:79) [magnolia-core-6.2.3.jar:?]
	at info.magnolia.enterprise.registration.RegistrationFilter.doFilter(RegistrationFilter.java:79) [magnolia-module-enterprise-6.2.3.jar:?]
	at info.magnolia.cms.filters.AbstractMgnlFilter.doFilter(AbstractMgnlFilter.java:85) [magnolia-core-6.2.3.jar:?]
	at info.magnolia.cms.filters.MgnlFilterChain.doFilter(MgnlFilterChain.java:79) [magnolia-core-6.2.3.jar:?]
	at info.magnolia.cms.filters.MgnlFilterChain.doFilter(MgnlFilterChain.java:81) [magnolia-core-6.2.3.jar:?]
	at info.magnolia.cms.filters.UnicodeNormalizationFilter.doFilter(UnicodeNormalizationFilter.java:89) [magnolia-core-6.2.3.jar:?]
	at info.magnolia.cms.filters.AbstractMgnlFilter.doFilter(AbstractMgnlFilter.java:85) [magnolia-core-6.2.3.jar:?]
	at info.magnolia.cms.filters.MgnlFilterChain.doFilter(MgnlFilterChain.java:79) [magnolia-core-6.2.3.jar:?]
	at info.magnolia.cms.filters.MgnlFilterChain.doFilter(MgnlFilterChain.java:81) [magnolia-core-6.2.3.jar:?]
	at info.magnolia.personalization.preview.filter.PreviewFilter.doFilter(PreviewFilter.java:92) [magnolia-personalization-preview-app-2.0.3.jar:?]
	at info.magnolia.cms.filters.OncePerRequestAbstractMgnlFilter.doFilter(OncePerRequestAbstractMgnlFilter.java:59) [magnolia-core-6.2.3.jar:?]
ciInstanceKlass java/security/ProtectionDomain 1 1 291 10 9 7 10 9 9 9 10 7 9 9 7 9 9 10 100 10 10 10 10 9 10 8 100 8 10 10 10 10 10 8 11 8 10 8 8 10 10 10 10 8 10 8 8 10 9 10 9 10 100 100 10 10 7 10 100 10 10 11 11 11 100 10 10 11 11 10 10 11 10 7 10 10 8 10 7 10 10 7 7 100 1 1 100 1 1 1 1 1 1 1 1 1 1 1 1 1 1 1 1 1 1 1 1 1 1 1 100 100 100 1 100 1 1 1 1 1 1 1 1 1 1 1 1 1 1 100 100 1 100 100 1 100 100 100 100 100 100 100 1 1 1 1 12 12 1 12 12 12 12 1 12 12 1 12 12 100 12 100 100 12 12 12 100 12 1 1 1 12 12 100 12 12 1 1 12 1 1 12 12 12 12 1 12 1 1 100 12 12 12 12 100 12 1 1 12 100 12 1 1 12 12 100 12 12 100 12 1 12 12 12 12 100 12 12 12 1 12 7 12 1 7 12 1 12 1 1 1 1 1 1 1 1 1 1 1 1 1 1 1 1 1 1 1 1 1 1 1 1 1 1 1 1 1 1 1 1 1 1 1 1 1 1 1 1 1 1 1 1 1 1 1 1 1 1 1 1 1 1 1 1 1 1 1 1 1 1 1 1 1
=== END empty 2016-05-16 14:26:27 ===

=== START test_database 2016-05-16 14:26:51 ===
Connected with success to the Joomla database
Joomla data found:<br />0 sections<br />0 categories<br />7 articles<br />0 web links<br />40 users<br />57 K2 categories<br />58003 K2 items<br />2177 K2 comments<br />
build	14-Jul-2020 09:19:57	[DEBUG] Style:   Regular
build	14-Jul-2020 09:19:57	[DEBUG] =======================================================================
2021-10-26T21:50:50.035Z,1.035588,ab3bf380,6 [FLog::Output] hello from a happy cactus (:
2021-10-26T21:50:50.035Z,1.035602,ab3bf380,6 [FLog::Output] Hello (smiling bashfully)!
2021-10-26T21:50:50.119Z,1.119557,ab3bf380,6 [FLog::UGCGameController] UGCGameController, initialized DataModel(0x7f97ae098a00)
2021-10-26T21:50:50.119Z,1.119632,ab3bf380,6 [FLog::GameJoinUtil] GameJoinUtil::joinGame
2021-10-26T21:50:50.119Z,1.119676,ab3bf380,6 [FLog::GameJoinUtil] GameJoinUtil::joinGamePostStandard: URL: https://gamejoin.roblox.com/v1/join-game BODY: {"placeId":4996049426,"browserTrackerId":"73171453269"}
tdf#113275 Last line drop down and expand single word check box should only be show active for Justified [Jim Raykowski]
<09:49AM tasm> what a liberal bimbo
<09:49AM KNBC> Anyone have info on Laguana Hills?
<09:57AM KNBC> hold on
<09:57AM me> hey does anyone know about USC campus????
--> "-b kd4cqy!*@*" mode change by KNBC on #earthquake
<09:57AM CNN_news> Sherman Oaks: 3 dead, maybe 6 many damaged homes & buildings
<09:57AM me> hey does anyone know about USC campus????
(WildEep/#earthquake) KNBC: May be incorrect.  H&W net reports not true
--> "+v KD4CQY" mode change by KNBC on #earthquake
--> "-b *!*@192.*" mode change by tasm on #earthquake
<09:57AM CNN_news> several gas mains broken & burning
-me:#earthquake- Does anyone know about USC campus????
-me:#earthquake- Does anyone know about USC campus????
<09:58AM DrStupid> KNBC - Community Desk newsroom - LA Dept of Water and Power - all LA residents do not drink tap water - broken water mains contaminated the water.
--> "+o Jup1" mode change by cuisund.unige.ch on #earthquake
* Sea-Marie shut up!
(Sea-Marie/#earthquake) Ack!
<09:58AM DrStupid> KNBC - MWD safe (maybe).  DWP - unsafe.
--> "-b *!*@192*" mode change by KNBC on #earthquake
<09:58AM DrStupid> KNBC - boil it for 20 minutes IF you are not running gas stove.
<09:58AM CNN_news> no info of CSUN here
--> "-m" mode change by KNBC on #earthquake
(WildEep/#earthquake) shock!
<09:59AM DrStupid> KNBC - aftershock
<09:59AM rabbi>  /quit
<09:59AM Oopo> h
<09:59AM KFWB> CSUN Info: One building on fire
<09:59AM Dr_Delete> holy kcow
--> "+m" mode change by KNBC on #earthquake
--> "+o cavalier" mode change by tasm on #earthquake
	at info.magnolia.cms.filters.MgnlFilterChain.doFilter(MgnlFilterChain.java:79) [magnolia-core-6.2.3.jar:?]
LogPluginManager: Mounting Engine plugin AudioWidgets
[2023.05.20-22.07.39:930][  0]LogConfig: Set CVar [[r.MaxQualityMode:0]]
[2023.05.20-22.07.39:930][  0]LogConfig: Set CVar [[r.DefaultFeature.LensFlare:0]]
[2023.05.20-22.07.39:931][  0]LogConfig: Set CVar [[gc.SizeOfPermanentObjectPool:0]]
================================================================================
TEST checkFortranCompiler from config.setCompilers(/sandbox/petsc/petsc.next/config/BuildSystem/config/setCompilers.py:899)
TESTING: checkFortranCompiler from config.setCompilers(/sandbox/petsc/petsc.next/config/BuildSystem/config/setCompilers.py:899)
Successful compile:
Source:
fayette+county+fair	01.08.2009 21:46:34	http://www.google.com/search?sourceid=navclient&ie=UTF-8&rlz=1T4DKUS_enUS314US314&q=fayette+county+fair+maps	Mozilla/4.0 (compatible; MSIE 6.0; Windows NT 5.1; SV1; GTB6; .NET CLR 1.1.4322)	71.61.196.18
buick+open+tee+times	01.08.2009 21:46:55	http://www.google.com/search?hl=en&q=buick+open+4th+round+tee+times&aq=f&oq=&aqi=	Mozilla/4.0 (compatible; MSIE 7.0; Windows NT 5.1;  Embedded Web Browser from: http://bsalsa.com/; .NET CLR 1.0.3705; .NET CLR 1.1.4322; Media Center PC 4.0; .NET CLR 2.0.50727)	98.209.253.185
[      1797] [    GTAProcess]             MainThrd/ No such command rbind.
[      2422] [    GTAProcess]             MainThrd/ pre-gameload component scripting:gta
[      2422] [    GTAProcess]             MainThrd/ pre-gameload component conhost:v2
[      2532] [    GTAProcess]             MainThrd/ pre-gameload component citizen:scripting:core
[      2532] [    GTAProcess]             MainThrd/ pre-gameload component citizen:resources:client
Package pdftex.def Info: images/datadriven/SI_Directness.png  used on input line 43.
(pdftex.def)             Requested size: 418.25368pt x 369.32446pt.
\openout10 = `main.lof'.

 [116]pdfTeX warning (ext4): destination with the same identifier (name{page.116}) has been already used, duplicate ignored
	at info.magnolia.cms.filters.AbstractMgnlFilter.doFilter(AbstractMgnlFilter.java:85) [magnolia-core-6.2.3.jar:?]
	at info.magnolia.cms.filters.MgnlFilterChain.doFilter(MgnlFilterChain.java:79) [magnolia-core-6.2.3.jar:?]
64         
65         *__________________________________________________________________________________________________
65       ! _____________________
./Film/by_John_Williams
./Film/by_John_Williams/John%20Williams%20-%2040%20Years%20of%20music
PROC_CREATOR_COUNT N14 : tInelastic = 7
[   1963812] overriding handle for mp_f_freemode_01/jbib_diff_008_o_uni.ytd (was 4cd03f9) -> 265
[   1963828] overriding handle for mp_f_freemode_01/jbib_diff_008_p_uni.ytd (was 4cd03fa) -> 266
[   1963843] overriding handle for mp_f_freemode_01/jbib_diff_011_d_uni.ytd (was 4cd041e) -> 267
[   1963859] overriding handle for mp_f_freemode_01/jbib_diff_012_a_uni.ytd (was 4cd042b) -> 268
[   1963875] overriding handle for mp_f_freemode_01/jbib_diff_012_b_uni.ytd (was 4cd042c) -> 269
[   1963890] overriding handle for mp_f_freemode_01/jbib_diff_012_c_uni.ytd (was 4cd042d) -> 26a
[   1963906] overriding handle for mp_f_freemode_01/jbib_diff_012_d_uni.ytd (was 4cd042e) -> 26b
[   1963922] overriding handle for mp_f_freemode_01/jbib_diff_012_e_uni.ytd (was 4cd042f) -> 26c
[   1963937] overriding handle for mp_f_freemode_01/jbib_diff_012_f_uni.ytd (was 4cd0430) -> 26d
[   1963953] overriding handle for mp_f_freemode_01/jbib_diff_012_g_uni.ytd (was 4cd0431) -> 26e
[   1963968] overriding handle for mp_f_freemode_01/jbib_diff_012_k_uni.ytd (was 4cd0435) -> 26f
[   1963968] overriding handle for mp_f_freemode_01/jbib_diff_012_l_uni.ytd (was 4cd0436) -> 270
[   1963984] overriding handle for mp_f_freemode_01/jbib_diff_012_m_uni.ytd (was 4cd0437) -> 271
[   1964000] overriding handle for mp_f_freemode_01/jbib_diff_012_n_uni.ytd (was 4cd0438) -> 272
[   1964015] overriding handle for mp_f_freemode_01/jbib_diff_012_o_uni.ytd (was 4cd0439) -> 273
[   1964031] overriding handle for mp_f_freemode_01/jbib_diff_012_p_uni.ytd (was 4cd043a) -> 274
[   1964047] overriding handle for mp_f_freemode_01/jbib_diff_014_a_uni.ytd (was 4cd044b) -> 275
[   1964062] overriding handle for mp_f_freemode_01/jbib_diff_014_b_uni.ytd (was 4cd044c) -> 276
[   1964078] overriding handle for mp_f_freemode_01/jbib_diff_014_c_uni.ytd (was 4cd044d) -> 277
[   1964093] overriding handle for mp_f_freemode_01/jbib_diff_014_d_uni.ytd (was 4cd044e) -> 278
[   1964093] overriding handle for mp_f_freemode_01/jbib_diff_014_e_uni.ytd (was 4cd044f) -> 279
[   1964109] overriding handle for mp_f_freemode_01/jbib_diff_014_f_uni.ytd (was 4cd0450) -> 27a
[   1964125] overriding handle for mp_f_freemode_01/jbib_diff_014_g_uni.ytd (was 4cd0451) -> 27b
[   1964140] overriding handle for mp_f_freemode_01/jbib_diff_014_h_uni.ytd (was 4cd0452) -> 27c
[   1964156] overriding handle for mp_f_freemode_01/jbib_diff_014_i_uni.ytd (was 4cd0453) -> 27d
[   1964172] overriding handle for mp_f_freemode_01/jbib_diff_014_j_uni.ytd (was 4cd0454) -> 27e
[   1964187] overriding handle for mp_f_freemode_01/jbib_diff_014_k_uni.ytd (was 4cd0455) -> 27f
[   1964203] overriding handle for mp_f_freemode_01/jbib_diff_014_l_uni.ytd (was 4cd0456) -> 280
[   1964203] overriding handle for mp_f_freemode_01/jbib_diff_014_m_uni.ytd (was 4cd0457) -> 281
[   1964218] overriding handle for mp_f_freemode_01/jbib_diff_014_n_uni.ytd (was 4cd0458) -> 282
</SimpleProblem>
* checking package namespace information ... OK
* checking package dependencies ... OK
* checking if this is a source package ... OK
build	14-Jul-2020 09:19:57	[DEBUG] [buildinfo] Enforcing repository authentication: username=srcmboodply, password=*** for release resolution repository
build	14-Jul-2020 09:19:57	[DEBUG] [buildinfo] Resolved artifact: org.apache.maven.plugins:maven-clean-plugin:pom:2.4.1:build from: artifactory-release-snapshot (https://artifactory.XXXXXX.com/artifactory/public, default, releases+snapshots) Context is: plugin
build	14-Jul-2020 09:19:57	[DEBUG] [buildinfo] Resolved artifact: org.apache.maven.plugins:maven-plugins:pom:18:build from: artifactory-release-snapshot (https://artifactory.XXXXXX.com/artifactory/public, default, releases+snapshots) Context is: plugin
build	14-Jul-2020 09:19:57	[DEBUG] [buildinfo] Resolved artifact: org.apache.maven:maven-parent:pom:16:build from: artifactory-release-snapshot (https://artifactory.XXXXXX.com/artifactory/public, default, releases+snapshots) Context is: plugin
build	14-Jul-2020 09:19:57	[DEBUG] [buildinfo] Resolved artifact: org.apache:apache:pom:7:build from: artifactory-release-snapshot (https://artifactory.XXXXXX.com/artifactory/public, default, releases+snapshots) Context is: plugin
53         
54         *__________________________________________________________________________________________________
* \@mparswitchtrue
* \@reversemarginfalse
* (1in=72.27pt=25.4mm, 1cm=28.453pt)

(/usr/local/texlive/2021/texmf-dist/tex/context/base/mkii/supp-pdf.mkii
[Loading MPS to PDF converter (version 2006.09.02).]
\scratchcounter=\count352
\scratchdimen=\dimen301
\scratchbox=\box74
\nofMPsegments=\count353
\nofMParguments=\count354
\everyMPshowfont=\toks52
\MPscratchCnt=\count355
\MPscratchDim=\dimen302
\MPnumerator=\count356
\makeMPintoPDFobject=\count357
\everyMPtoPDFconversion=\toks53
) (/usr/local/texlive/2021/texmf-dist/tex/latex/epstopdf-pkg/epstopdf-base.sty
Package: epstopdf-base 2020-01-24 v2.11 Base part for package epstopdf
Package epstopdf-base Info: Redefining graphics rule for `.eps' on input line 485.
 (/usr/local/texlive/2021/texmf-dist/tex/latex/latexconfig/epstopdf-sys.cfg
File: epstopdf-sys.cfg 2010/07/13 v1.3 Configuration of (r)epstopdf for TeX Live
)) ABD: EverySelectfont initializing macros

] [7] [8

] [1] [2

]
LaTeX Font Info:    Trying to load font information for OML+zplm on input line 224.
                                  1981-057A      Meteosat 2                     Meteosat F2               S12544
                                  1981-057B      Apple                          Apple                     S12545
1981-122     1981 Dec 20 0129:00  1981-122B      CAT/Thesee                     CAT/VID                   S13011  Ariane 1               L04              CSG ELA1                 0.0
                                  1981-122A      Marecs 1                       Marecs A                  S13010
                                  1990-005B      Webersat                       Webersat                  S20437
                                  1990-005C      Lusat                          Lusat                     S20438
                                  1990-005D      Dove                           Dove                      S20439
                                  1990-005E      Pacsat                         Pacsat                    S20440
                                  1990-005F      Uosat 3                        Uosat 3                   S20441
                                  1990-005G      Uosat 4                        Uosat 4                   S20442
1990-F01     1990 Feb 22 2317:00  1990-F01       Superbird B                    Superbird B               F01040  Ariane 44L             V36              CSG ELA2                 9.0
                                  1990-F01       BS 2X                          BS 2X                     F01042
1990-063     1990 Jul 24 2225:00  1990-063A      TDF 2                          TDF 2                     S20705  Ariane 44L             V37              CSG ELA2                 0.0
                                  1990-063B      Kopernikus 2                   DFS 2                     S20706
1990-079     1990 Aug 30 2246:00  1990-079B      Eutelsat IIF1                  Eutelsat IIF1             S20777  Ariane 44LP            V38              CSG ELA2                 0.0
                                  1990-079A      Skynet 4C                      Skynet 4C                 S20776
1990-091     1990 Oct 12 2258:18  1990-091A      SBS 6                          SBS 6                     S20872  Ariane 44L             V39              CSG ELA2                 0.0
                                  1990-091B      Galaxy VI                      Westar 6S                 S20873
1990-100     1990 Nov 20 2311:00  1990-100A      Satcom C1                      Satcom C1                 S20945  Ariane 42P             V40              CSG ELA2                 0.0
                                  1990-100B      Gstar 4                        Gstar 4                   S20946
1991-003     1991 Jan 15 2310:49  1991-003A      Italsat 1                      Italsat 1                 S21055  Ariane 44L             V41              CSG ELA2                 0.0
                                  1991-003B      Eutelsat II F-2                Eutelsat II F-2           S21056
1991-015     1991 Mar  2 2336:00  1991-015A      Astra 1B                       Astra 1B                  S21139  Ariane 44LP            V42              CSG ELA2                 0.0
                                  1991-015B      Meteosat 5                     MOP 2                     S21140
1991-026     1991 Apr  4 2333:00  1991-026A      Anik E2                        Anik E2                   S21222  Ariane 44P             V43              CSG ELA2                 0.0
1991-050     1991 Jul 17 0146:31  1991-050A      ERS-1                          ERS-1                     S21574  Ariane 40              V44              CSG ELA2                 0.0
                                  1991-050B      Tubsat                         Tubsat                    S21575
                                  1991-050C      SARA                           SARA                      S21576
                                  1991-050D      Orbcomm-X                      Orbcomm-X                 S21577
                                  1991-050E      Uosat 5                        Uosat 5                   S21578
<09:59AM DrStupid> this is a good sized aftershock relatively.
       Telephone (secondary)  : 
       Fax                    : 
       E-mail                 : 
     Secondary Contact
       Contact Name           : 
bullet+express	01.08.2009 18:18:20	http://www.google.com/search?hl=en&client=firefox-a&rls=org.mozilla%3Aen-US%3Aofficial&q=smoothies+recipes+for+turbo+chopper+express&aq=f&oq=&aqi=	Mozilla/5.0 (Windows; U; Windows NT 6.0; en-US; rv:1.9.0.12) Gecko/2009070611 Firefox/3.0.12 (.NET CLR 3.5.30729)	72.83.120.79
[     14812] somefunc found dlc_PATCHDAY14NG:/!
[     14828] LoadDefDats: dlc_PATCHDAY14NGCRC:/content.xml
[     14843] somefunc found dlc_PATCHDAY13NG:/!
[     14859] LoadDefDats: dlc_PATCHDAY13NGCRC:/content.xml
[     14875] somefunc found dlc_PATCHDAY12NG:/!
    + adapt loplugin:implicitboolconversion to changes in Clang trunk towards 3.8 [Stephan Bergmann]
	at com.vaadin.data.provider.DataCommunicator.pushData(DataCommunicator.java:461) ~[vaadin-server-8.9.4.jar:8.9.4]
	at com.vaadin.data.provider.HierarchicalDataCommunicator.doExpand(HierarchicalDataCommunicator.java:316) ~[vaadin-server-8.9.4.jar:8.9.4]
          Initialized dynamicLibraryFlags to []
================================================================================
TEST checkCCompiler from config.setCompilers(/sandbox/petsc/petsc.next/config/BuildSystem/config/setCompilers.py:555)
12:32:04 T:7432  NOTICE: Starting Kodi (15.2 Git:20151019-02e7013). Platform: Windows NT x86 32-bit
12:32:04 T:7432  NOTICE: Using Release Kodi x32 build
2021-10-26T21:51:42.806Z,53.806881,ab3bf380,6 [FLog::Graphics] Compiled 620 shaders in 78 ms
	at info.magnolia.cms.filters.AbstractMgnlFilter.doFilter(AbstractMgnlFilter.java:85) [magnolia-core-6.2.3.jar:?]
	at info.magnolia.cms.filters.MgnlFilterChain.doFilter(MgnlFilterChain.java:79) [magnolia-core-6.2.3.jar:?]
	at info.magnolia.cms.filters.MultiChannelFilter.doFilter(MultiChannelFilter.java:83) [magnolia-core-6.2.3.jar:?]
[2023.05.20-22.07.39:931][  0]LogConfig: CVar [[VersionedIntRValues:r.Shaders.WriteSymbols]] deferred - dummy variable created
[2023.05.20-22.07.39:931][  0]LogConfig: CVar [[VersionedIntRValues:r.Shaders.AllowUniqueSymbols]] deferred - dummy variable created
[2023.05.20-22.07.39:931][  0]LogConfig: CVar [[VersionedIntRValues:r.Shaders.ExtraData]] deferred - dummy variable created
[2023.05.20-22.07.39:931][  0]LogConfig: CVar [[VersionedIntRValues:r.Shaders.Optimize]] deferred - dummy variable created
[2023.05.20-22.07.39:931][  0]LogConfig: CVar [[VersionedIntRValues:r.CompileShadersForDevelopment]] deferred - dummy variable created
uniq (UNIQ) [Y/n/?] y
unlink (UNLINK) [Y/n/?] y
usleep (USLEEP) [Y/n/?] y
uudecode (UUDECODE) [Y/n/?] y
base64 (BASE64) [N/y/?] n
uuencode (UUENCODE) [Y/n/?] y
wc (WC) [Y/n/?] y
  Support very large files in wc (FEATURE_WC_LARGE) [N/y/?] n
who (WHO) [Y/n/?] y
users (USERS) [N/y/?] n
whoami (WHOAMI) [Y/n/?] y
yes (YES) [Y/n/?] y
*
* Common options
*
Support verbose options (usually -v) for various applets (FEATURE_VERBOSE) [Y/n/?] y
*
* Common options for cp and mv
*
Preserve hard links (FEATURE_PRESERVE_HARDLINKS) [Y/n/?] y
*
* Common options for ls, more and telnet
*
Calculate terminal & column widths (FEATURE_AUTOWIDTH) [Y/n/?] y
*
* Common options for df, du, ls
*
Support for human readable output (example 13k, 23M, 235G) (FEATURE_HUMAN_READABLE) [Y/n/?] y
*
* Console Utilities
