  GEN     networking/udhcp/Config.in
	at info.magnolia.module.site.filters.SiteMergeFilter.doFilter(SiteMergeFilter.java:119) [magnolia-site-1.3.1.jar:?]
	at info.magnolia.cms.filters.AbstractMgnlFilter.doFilter(AbstractMgnlFilter.java:85) [magnolia-core-6.2.3.jar:?]
	at info.magnolia.cms.filters.MgnlFilterChain.doFilter(MgnlFilterChain.java:79) [magnolia-core-6.2.3.jar:?]
Possible ERROR while running linker: exit code 1
stderr:
/usr/bin/ld: cannot find -lpetsc-ufod4vtr9mqHvKIQiVAm
* checking Rd contents ... OK
* checking for unstated dependencies in examples ... OK
* checking installed files from 'inst/doc' ... OK
RTPSPDoseHistos AVERAGE ERROR 90% = 0.932046
RTPSPDoseHistos TOTAL DOSE = 7.84338e-09 +-(REL) 0.00845941
 CreateHisto1D X_Merged = 66301
petty+officer+jonathan+campos	01.08.2009 19:49:35	http://www.google.com/search?source=ig&hl=en&rlz=1G1GGLQ_ENUS313&q=Petty+Officer+Jonathan+Campos&btnG=Google+Search&aq=f&oq=&aqi=	Mozilla/5.0 (Macintosh; U; Intel Mac OS X; en-us) AppleWebKit/523.15.1 (KHTML, like Gecko) Version/3.0.4 Safari/523.15	65.33.164.143
what+did+greg+mcmackin+say	01.08.2009 19:49:35	http://www.google.com/search?client=firefox-a&rls=org.mozilla%3Aen-US%3Aofficial&channel=s&hl=en&q=Greg+McMacki+gay&btnG=Google+Search	Mozilla/5.0 (Windows; U; Windows NT 6.0; en-US; rv:1.9.0.12) Gecko/2009070611 Firefox/3.0.12 (.NET CLR 3.5.30729)	70.169.160.145
laguardia+evacuated	01.08.2009 19:49:46	http://www.google.com/search?hl=en&ie=ISO-8859-1&q=lga+security+breach+today&aq=f&oq=&aqi=	Mozilla/4.0 (compatible; MSIE 7.0; AOL 9.1; AOLBuild 4334.5006; Windows NT 6.0; SLCC1; .NET CLR 2.0.50727; Media Center PC 5.0; Tablet PC 2.0; .NET CLR 3.5.30729; .NET CLR 3.0.30618)	205.188.116.133
sayville+summerfest	01.08.2009 20:20:35	http://www.google.com/search?hl=en&q=summerfest+sayville&rlz=1W1GGLL_en&aq=f&oq=&aqi=	Mozilla/4.0 (compatible; MSIE 7.0; Windows NT 6.0; WOW64; GTB6; SLCC1; .NET CLR 2.0.50727; .NET CLR 3.0.04506; Media Center PC 5.0)	69.113.177.145
buick+open+tee+times	01.08.2009 20:20:42	http://www.google.com/url?sa=t&source=web&ct=res&cd=5&url=http%3A%2F%2Fcomicsunlimited.com%2Fcomics%2Findex.php%3Fbuick%2Bopen%2Btee%2Btimes&ei=i6N0So7eOM23twevs9CWCQ&rct=j&q=2009+buick+open+grand+blanc+mi%2Cparking&usg=AFQjCNE3ISNRtk65iZlknwEPhIStiFwIvA	Mozilla/5.0 (Windows; U; Windows NT 6.0; en-US; rv:1.9.0.10) Gecko/2009042316 Firefox/3.0.10	68.31.205.191
--> "+m" mode change by KNBC on #earthquake
build	14-Jul-2020 09:21:00	[ERROR] -----------------------------------------------------
mountaineer+race+track	01.08.2009 22:23:37	http://www.google.com/search?hl=en&rlz=1G1GGLQ_ENUS294&q=mountaineer+horse+race+track+history&btnG=Search&aq=f&oq=&aqi=	Mozilla/4.0 (compatible; MSIE 6.0; Windows NT 5.1; SV1; .NET CLR 1.1.4322; .NET CLR 2.0.50727; InfoPath.1)	75.213.183.163
buick+open+tee+times	01.08.2009 22:25:00	http://www.google.com/search?q=Buick+Open+Tee+Times+4th+round&rls=com.microsoft:en-us:IE-SearchBox&ie=UTF-8&oe=UTF-8&sourceid=ie7&rlz=1I7GFRC_en	Mozilla/4.0 (compatible; MSIE 8.0; Windows NT 5.1; Trident/4.0; GTB6; .NET CLR 1.1.4322)	24.255.131.212
what+did+greg+mcmackin+say	01.08.2009 22:25:17	http://www.google.com/search?hl=en&q=what+did+greg+mcmackin+say&aq=0z&oq=what+did+greg&aqi=g-z1g9	Mozilla/4.0 (compatible; MSIE 6.0; Windows NT 5.0; .NET CLR 1.1.4322; .NET CLR 2.0.50727)	204.99.250.45
gold+coast+art+fair+2009	01.08.2009 22:25:52	http://search.aol.com/aol/search?s_it=comsearch40&query=gold+coast+art+fair&do=Search	Mozilla/4.0 (compatible; MSIE 8.0; Windows NT 5.1; Trident/4.0; GTB6; InfoPath.1)	68.165.46.244
buick+open+tee+times	01.08.2009 22:26:05	http://www.google.com/url?sa=t&source=web&ct=res&cd=2&url=http%3A%2F%2Fcomicsunlimited.com%2Fcomics%2Findex.php%3Fbuick%2Bopen%2Btee%2Btimes&ei=-MB0StnHKoH-NePHjLEM&rct=j&q=final+round+tee+times+2009+buick+open&usg=AFQjCNE3ISNRtk65iZlknwEPhIStiFwIvA	Mozilla/5.0 (Windows; U; Windows NT 5.1; en-US; rv:1.9.0.12) Gecko/2009070611 Firefox/3.0.12	75.7.200.95
<DrStupid> KNBC - Mayor Dick Riordan - Reschedule everything so that the police can be rescheduled.  "Lets stay cool" "Thank god that we have strong leadership" "I congradulate the citizens of LA for the cool they've shown so far"
<KNBC> Sanat monica closed for months
<DrStupid> KNBC - state of emergency frees budgetary constraints
[     14828] LoadDefDats: dlc_PATCHDAY14NGCRC:/content.xml
 (/usr/local/texlive/2021/texmf-dist/tex/latex/amsmath/amsgen.sty
.                    ==> .
    [0m
2021-10-26T21:51:50.046Z,61.046864,4337000,6 [FLog::Warning] Warning: Infinite yield possible on 'Players.FruitySama:WaitForChild("DataLoad")'
2021-10-26T21:51:50.046Z,61.046906,4337000,6 [FLog::Output] Info: Stack Begin
[   1955297] instrumented function 0x1407bfa90 (56) took 6836msec
[   1955328] instrumented function 0x1400067e8 (5) took 0msec
-- [download 76% complete]
dallas+weather+radar	01.08.2009 18:15:36	http://www.google.com/search?sourceid=navclient&ie=UTF-8&rlz=1T4TSHB_enUS277US277&q=dallas+weather+august+1	Mozilla/4.0 (compatible; MSIE 7.0; Windows NT 6.0; GTB6; SLCC1; .NET CLR 2.0.50727; Media Center PC 5.0; .NET CLR 3.0.04506)	162.83.151.166
socorro+caro	01.08.2009 18:15:56	http://www.google.com/search?q=socorro+caro&ie=utf-8&oe=utf-8&aq=t&rls=org.mozilla:en-US:official&client=firefox-a	Mozilla/5.0 (Windows; U; Windows NT 6.0; en-US; rv:1.9.0.12) Gecko/2009070611 Firefox/3.0.12 (.NET CLR 3.5.30729)	71.179.125.77
invicta+9212+men%E2%80%99s+gold+plated+stainless+steel+speedway+watch	01.08.2009 18:16:18	http://www.google.com/search?hl=en&q=1+Invicta+9212+Men%E2%80%99s+Gold+Plated+Stainless+Steel+Speedway+Watch+&aq=f&oq=&aqi=	Mozilla/4.0 (compatible; MSIE 7.0; Windows NT 6.0; Trident/4.0; SLCC1; .NET CLR 2.0.50727; Media Center PC 5.0; InfoPath.2; .NET CLR 3.5.30729; .NET CLR 3.0.30618; msn OptimizedIE8;ENUS)	69.234.34.226
fedex+field	01.08.2009 18:16:55	http://www.google.com/search?hl=en&client=firefox-a&rls=org.mozilla%3Aen-US%3Aofficial&hs=UBe&q=fedex+field+concert+parking&aq=f&oq=&aqi=	Mozilla/5.0 (Windows; N; Windows NT 5.1; en-US; rv:1.9.0.12) Gecko/2009070611 Firefox/3.0.12	68.228.13.150
fedex+field	01.08.2009 18:17:27	http://www.google.com/search?sourceid=navclient&ie=UTF-8&rlz=1T4TSHB_enUS246US248&q=parking+at+Fed+Ex+field+for+concert	Mozilla/4.0 (compatible; MSIE 8.0; Windows NT 6.0; Trident/4.0; GTB6; SLCC1; .NET CLR 2.0.50727; Media Center PC 5.0; .NET CLR 3.5.30729; .NET CLR 3.0.30618)	96.231.91.242
split (SPLIT) [N/y/?] n
stat (STAT) [N/y/?] n
            Substituting "CXXCPPFLAGS" with ""
 Rights clause in FAR 52.227-19.
  
 Gaussian, Inc.
[   1047765] EndpointMapper::HandleRequest: POST /gta5/11/gameservices/presence.asmx/GetPresenceServers
Matching relations are: []
instanceKlass java/lang/AbstractStringBuilder
FSM	ARKANSAS	FORT SMITH RGNL	afd	sc_16_25OCT2007.png
5M8	ARKANSAS	GURDON LOWE FLD	afd	sc_17_25OCT2007.png
clasica+san+sebastian+live	01.08.2009 19:01:52	http://www.google.ie/search?rlz=1C1GGLS_en___IE338&aq=f&sourceid=chrome&ie=UTF-8&q=san+sebastian+09+results	Mozilla/5.0 (Windows; U; Windows NT 5.1; en-US) AppleWebKit/530.5 (KHTML, like Gecko) Chrome/2.0.172.33 Safari/530.5	86.46.234.156
invicta+9212+men%E2%80%99s+gold+plated+stainless+steel+speedway+watch	01.08.2009 19:01:58	http://www.google.com/search?ie=UTF-8&oe=UTF-8&sourceid=navclient&gfns=1&q=1+Invicta+9212+Men%E2%80%99s+Gold+Plated+Stainless+Steel+Speedway+Watch	Mozilla/5.0 (Macintosh; U; Intel Mac OS X 10.4; en-US; rv:1.9.1.1) Gecko/20090715 Firefox/3.5.1	24.119.145.164
[22:42:38] Car Insurance: [-] 4190/8012 no engine matches (HTTP-Status: 400) - https://www.colorado.gov
[22:42:38] Mesa DUI lawyer: [+] 8177/8415 matches engine Wordpress Article - https://hardwarejournal.com.au/
                    Target: 183
                  Observer: 45
8.1.x Humidity Sensor Model   : 
       Manufacturer           : 
       Serial Number          : 
              Matrix     1              1     30431632     0
DEBUG:root:Time to deadline 35879.581654 seconds
DEBUG:root:running: npm -g install fsh-sushi
DEBUG:root:Time to deadline 35878.364123 seconds

added 114 packages in 25s

8 packages are looking for funding
  run `npm fund` for details
npm notice 
npm notice New minor version of npm available! 9.5.1 -> 9.8.1
npm notice Changelog: <https://github.com/npm/cli/releases/tag/v9.8.1>
npm notice Run `npm install -g npm@9.8.1` to update!
npm notice 
DEBUG:root:running: java -Xms19000m -Xmx19000m -jar ../publisher.jar -ig ig.json -api-key-file /etc/ig.builder.keyfile.ini -fhir-settings /etc/fhir-settings.json -auto-ig-build -tx http://tx.fhir.org -target https://build.fhir.org/ig/HL7/fhir-us-ph-library/ -out /scratch/ig-build-temp-JHXSGN/repo
DEBUG:root:Time to deadline 35853.386287 seconds
FHIR IG Publisher Version 1.3.28 (Git# cad7585c587e). Built 2023-08-04T19:34:36.96Z (12 days old)
Detected Java version: 21-ea from /usr/local/openjdk-21 on Linux/amd64 (64bit). 19008MB available
dir = /scratch/ig-build-temp-JHXSGN/repo, path = /usr/local/openjdk-21/bin:/usr/local/sbin:/usr/local/bin:/usr/sbin:/usr/bin:/sbin:/bin
Parameters: -ig ig.json -api-key-file /etc/ig.builder.keyfile.ini -fhir-settings /etc/fhir-settings.json -auto-ig-build -tx http://tx.fhir.org -target https://build.fhir.org/ig/HL7/fhir-us-ph-library/ -out /scratch/ig-build-temp-JHXSGN/repo
Start Clock @ Wednesday, August 16, 2023, 9:18:38 PM Coordinated Universal Time (2023-08-16T21:18:38Z)
                                                                                
Build FHIR IG from /scratch/ig-build-temp-JHXSGN/repo                            (00:00.016)
API keys loaded from /etc/fhir-settings.json                                     (00:00.016)
Package Cache: /scratch/ig-build-temp-JHXSGN/repo/var/lib/.fhir/packages         (00:00.019)
Run Sushi on /scratch/ig-build-temp-JHXSGN/repo                                  (00:00.023)
Sushi: info  Running SUSHI v3.3.1 (implements FHIR Shorthand specification v3.0.0-ballot) (00:00.464)
Sushi: info  Arguments:                                                          (00:00.464)
Sushi: info    --require-latest                                                  (00:00.464)
Sushi: info    --out /scratch/ig-build-temp-JHXSGN/repo                          (00:00.464)
Sushi: info    /scratch/ig-build-temp-JHXSGN/repo                                (00:00.465)
* Busybox Configuration
*
Version 1.45.0 (18 MAY 2020)
	New feature
		- Integrated Google Calendar with ePosteck Calendar support add/update/move/delete
what+did+greg+mcmackin+say	01.08.2009 22:08:32	http://www.google.com/search?q=what+did+McMackin+call+weiss&ie=utf-8&oe=utf-8&aq=t&rls=org.mozilla:en-US:official&client=firefox-a	Mozilla/5.0 (Macintosh; U; Intel Mac OS X 10.5; en-US; rv:1.9.1.1) Gecko/20090715 Firefox/3.5.1	76.175.161.216
US Core Comparison: compare StructureDefinition[http://hl7.org/fhir/us/ph-library/StructureDefinition/us-ph-travel-history|1.0.0] to StructureDefinition[http://hl7.org/fhir/us/core/StructureDefinition/us-core-smokingstatus|6.1.0]
US Core Comparison: compare StructureDefinition[http://hl7.org/fhir/us/ph-library/StructureDefinition/us-ph-travel-history|1.0.0] to StructureDefinition[http://hl7.org/fhir/us/core/StructureDefinition/us-core-vital-signs|6.1.0]
US Core Comparison: compare StructureDefinition[http://hl7.org/fhir/us/ph-library/StructureDefinition/us-ph-disability-status|1.0.0] to StructureDefinition[http://hl7.org/fhir/us/core/StructureDefinition/head-occipital-frontal-circumference-percentile|6.1.0]
US Core Comparison: compare StructureDefinition[http://hl7.org/fhir/us/ph-library/StructureDefinition/us-ph-disability-status|1.0.0] to StructureDefinition[http://hl7.org/fhir/us/core/StructureDefinition/pediatric-bmi-for-age|6.1.0]
US Core Comparison: compare StructureDefinition[http://hl7.org/fhir/us/ph-library/StructureDefinition/us-ph-disability-status|1.0.0] to StructureDefinition[http://hl7.org/fhir/us/core/StructureDefinition/pediatric-weight-for-height|6.1.0]
