\pgflinewidth=\dimen269
) (/usr/local/texlive/2021/texmf-dist/tex/generic/pgf/basiclayer/pgfcoretransformations.code.tex
Version 1.59.2 (30 JUNE 2023)
21:38:12 T:139832867932032  NOTICE: Log level changed to "LOG_LEVEL_DEBUG_FREEMEM"
21:38:12 T:139832867932032  NOTICE: CMediaSourceSettings: loading media sources from special://masterprofile/sources.xml
21:38:12 T:139832867932032  NOTICE: Loading player core factory settings from special://xbmc/system/playercorefactory.xml.
LogDevObjectVersion:   Dev-Framework (CFFC743F-43B0-4480-9391-14DF171D2073): 37
                                                <name>kodi_videos</name>
                         Standard orientation:                         
 ---------------------------------------------------------------------
 Center     Atomic      Atomic             Coordinates (Angstroms)
