build	14-Jul-2020 09:19:57	[DEBUG] Goal:          org.apache.maven.plugins:maven-clean-plugin:2.4.1:clean (default-clean)
build	14-Jul-2020 09:19:57	[DEBUG] Style:         Regular
build	14-Jul-2020 09:19:57	[DEBUG] Configuration: <?xml version="1.0" encoding="UTF-8"?>
build	14-Jul-2020 09:19:57	<configuration>
build	14-Jul-2020 09:19:57	  <directory default-value="${project.build.directory}"/>
staticfield com/android/dx/rop/cst/CstType OBJECT Lcom/android/dx/rop/cst/CstType; com/android/dx/rop/cst/CstType
US Core Comparison: compare StructureDefinition[http://hl7.org/fhir/us/ph-library/StructureDefinition/us-ph-emergency-outbreak-information|1.0.0] to StructureDefinition[http://hl7.org/fhir/us/core/StructureDefinition/us-core-observation-sexual-orientation|6.1.0]
US Core Comparison: compare StructureDefinition[http://hl7.org/fhir/us/ph-library/StructureDefinition/us-ph-emergency-outbreak-information|1.0.0] to StructureDefinition[http://hl7.org/fhir/us/core/StructureDefinition/us-core-pulse-oximetry|6.1.0]
--> "+v AttackYak" mode change by tasm on #earthquake
*** On PUBLIC from "* % *" do /echo <$Z $0> $2- [SILENT] <0>
Jekyll: done in 4.513 seconds.                                                   (22:58.001)
       Manufacturer           :
       Serial Number          :
        Model:           hElasticGlauber: 1 GeV ---> 100 TeV
-- [download 70% complete]
-- [download 71% complete]
-- [download 72% complete]
jonathan+campos	01.08.2009 18:02:14	http://www.google.com/search?hl=en&safe=active&client=firefox-a&rls=org.mozilla%3Aen-US%3Aofficial&hs=iwd&q=petty+officer+jonathan+campos%2Bphoto&aq=f&oq=&aqi=	Mozilla/5.0 (Windows; U; Windows NT 5.1; en-US; rv:1.9.0.12) Gecko/2009070611 Firefox/3.0.12 (.NET CLR 3.5.30729)	69.109.56.128
tim+hack+and+kelly+drew	01.08.2009 18:02:29	http://www.google.com/search?hl=en&q=kelly+drew+pics&btnG=Google+Search&aq=f&oq=&aqi=	Mozilla/4.0 (compatible; MSIE 8.0; Windows NT 5.1; Trident/4.0; GTB5; .NET CLR 2.0.50727)	65.0.32.5
invicta+9212+men%E2%80%99s+gold+plated+stainless+steel+speedway+watch	01.08.2009 18:02:36	http://www.google.com/search?q=invicta+9212+men%E2%80%99s+gold+plated+stainless+steel+speedway+watch&rls=com.microsoft:en-us&ie=UTF-8&oe=UTF-8&startIndex=&startPage=1	Mozilla/4.0 (compatible; MSIE 8.0; Windows NT 5.1; Trident/4.0; .NET CLR 1.1.4322; .NET CLR 2.0.50727; .NET CLR 3.0.4506.2152; .NET CLR 3.5.30729)	68.209.99.188
	at sun.reflect.DelegatingMethodAccessorImpl.invoke(DelegatingMethodAccessorImpl.java:43) ~[?:1.8.0_252]
	at java.lang.reflect.Method.invoke(Method.java:498) ~[?:1.8.0_252]
	at com.vaadin.server.ServerRpcManager.applyInvocation(ServerRpcManager.java:155) ~[vaadin-server-8.9.4.jar:8.9.4]
	... 111 more
ERROR info.magnolia.admincentral.AdmincentralErrorHandler 15.10.2020 00:02:52 -- AdmincentralUI has encountered an unhandled exception.
PROC_CREATOR_COUNT N14 : tInelastic = 7
AK77	ALASKA	DELTA JUNCTION ALL WEST	afd	al_61_25OCT2007.png
D66	ALASKA	DELTA JUNCTION	afd	al_61_25OCT2007.png
ciMethodData java/lang/String substring (II)Ljava/lang/String; 2 5153 orig 264 8 110 37 81 0 0 0 0 184 92 124 22 0 0 0 0 40 2 0 0 208 0 0 0 0 0 0 0 0 0 0 0 0 0 0 0 0 0 0 0 0 0 0 0 0 0 0 0 0 0 0 0 0 0 0 0 0 0 0 0 0 0 0 0 0 0 0 0 0 0 0 0 0 0 0 0 0 0 0 0 77 68 79 32 101 120 116 114 97 32 100 97 116 97 32 108 111 99 107 0 0 0 0 0 0 0 0 0 0 0 0 0 0 0 0 0 0 0 0 0 0 0 0 0 0 0 0 0 0 0 0 0 0 0 0 0 0 0 0 0 0 0 0 0 0 0 0 0 0 0 0 0 0 0 0 0 0 0 0 0 0 0 0 0 0 0 0 0 0 0 0 0 0 0 0 0 0 0 0 0 0 0 0 0 0 0 0 0 0 0 0 0 0 0 0 0 0 0 0 0 0 0 0 0 0 0 0 0 0 0 0 0 0 0 0 0 136 1 0 0 201 148 0 0 1 0 0 0 0 0 0 0 0 0 0 0 2 0 0 0 0 0 15 0 2 0 0 0 248 0 0 0 255 255 255 255 7 0 1 0 0 0 0 0 data 31 0x10007 0x1299 0x30 0x0 0x90002 0x0 0x130007 0x1299 0x30 0x0 0x1b0002 0x0 0x240007 0x1299 0x30 0x0 0x2c0002 0x0 0x310007 0x10fe 0x58 0x19b 0x3a0007 0x149 0x38 0x52 0x3e0003 0x52 0x28 0x4b0002 0x1247 oops 0
ciMethod java/lang/UnsupportedOperationException <init> (Ljava/lang/String;)V 0 0 1 0 -1
ciMethodData java/util/HashMap$Node <init> (ILjava/lang/Object;Ljava/lang/Object;Ljava/util/HashMap$Node;)V 2 3264 orig 264 8 110 37 81 0 0 0 0 32 197 138 22 0 0 0 0 80 1 0 0 0 0 0 0 0 0 0 0 0 0 0 0 0 0 0 0 0 0 0 0 0 0 0 0 0 0 0 0 0 0 0 0 0 0 0 0 0 0 0 0 0 0 0 0 0 0 0 0 0 0 0 0 0 0 0 0 0 0 0 0 77 68 79 32 101 120 116 114 97 32 100 97 116 97 32 108 111 99 107 0 0 0 0 0 0 0 0 0 0 0 0 0 0 0 0 0 0 0 0 0 0 0 0 0 0 0 0 0 0 0 0 0 0 0 0 0 0 0 0 0 0 0 0 0 0 0 0 0 0 0 0 0 0 0 0 0 0 0 0 0 0 0 0 0 0 0 0 0 0 0 0 0 0 0 0 0 0 0 0 0 0 0 0 0 0 0 0 0 0 0 0 0 0 0 0 0 0 0 0 0 0 0 0 0 0 0 0 0 0 0 0 0 0 0 0 0 46 1 0 0 145 92 0 0 1 0 0 0 0 0 0 0 0 0 0 0 2 0 0 0 0 0 3 0 2 0 0 0 16 0 0 0 255 255 255 255 2 0 1 0 0 0 0 0 data 2 0x10002 0xb92 oops 0
ciMethodData java/util/HashMap newNode (ILjava/lang/Object;Ljava/lang/Object;Ljava/util/HashMap$Node;)Ljava/util/HashMap$Node; 2 3247 orig 264 8 110 37 81 0 0 0 0 192 158 138 22 0 0 0 0 80 1 0 0 0 0 0 0 0 0 0 0 0 0 0 0 0 0 0 0 0 0 0 0 0 0 0 0 0 0 0 0 0 0 0 0 0 0 0 0 0 0 0 0 0 0 0 0 0 0 0 0 0 0 0 0 0 0 0 0 0 0 0 0 77 68 79 32 101 120 116 114 97 32 100 97 116 97 32 108 111 99 107 0 0 0 0 0 0 0 0 0 0 0 0 0 0 0 0 0 0 0 0 0 0 0 0 0 0 0 0 0 0 0 0 0 0 0 0 0 0 0 0 0 0 0 0 0 0 0 0 0 0 0 0 0 0 0 0 0 0 0 0 0 0 0 0 0 0 0 0 0 0 0 0 0 0 0 0 0 0 0 0 0 0 0 0 0 0 0 0 0 0 0 0 0 0 0 0 0 0 0 0 0 0 0 0 0 0 0 0 0 0 0 0 0 0 0 0 0 29 1 0 0 145 92 0 0 1 0 0 0 0 0 0 0 0 0 0 0 2 0 0 0 0 0 3 0 2 0 0 0 16 0 0 0 255 255 255 255 2 0 9 0 0 0 0 0 data 2 0x90002 0xb92 oops 0
ciMethodData java/util/HashMap get (Ljava/lang/Object;)Ljava/lang/Object; 2 15545 orig 264 8 110 37 81 0 0 0 0 224 126 138 22 0 0 0 0 200 1 0 0 0 0 0 0 0 0 0 0 0 0 0 0 0 0 0 0 0 0 0 0 0 0 0 0 0 0 0 0 0 0 0 0 0 0 0 0 0 0 0 0 0 0 0 0 0 0 0 0 0 0 0 0 0 0 0 0 0 0 0 0 77 68 79 32 101 120 116 114 97 32 100 97 116 97 32 108 111 99 107 0 0 0 0 0 0 0 0 0 0 0 0 0 0 0 0 0 0 0 0 0 0 0 0 0 0 0 0 0 0 0 0 0 0 0 0 0 0 0 0 0 0 0 0 0 0 0 0 0 0 0 0 0 0 0 0 0 0 0 0 0 0 0 0 0 0 0 0 0 0 0 0 0 0 0 0 0 0 0 0 0 0 0 0 0 0 0 0 0 0 0 0 0 0 0 0 0 0 0 0 0 0 0 0 0 0 0 0 0 0 0 0 0 0 0 0 0 128 1 0 0 201 217 1 0 1 0 0 0 0 0 0 0 0 0 0 0 2 0 0 0 0 0 10 0 2 0 0 0 120 0 0 0 255 255 255 255 2 0 2 0 0 0 0 0 data 15 0x20002 0x3b39 0x60005 0xb 0x192bd410 0x3b2e 0x0 0x0 0xb0007 0x2a12 0x38 0x1127 0xf0003 0x1127 0x18 oops 1 4 java/util/HashMap
ciMethodData java/lang/AbstractStringBuilder hugeCapacity (I)I 1 0 orig 264 8 110 37 81 0 0 0 0 152 71 131 22 0 0 0 0 144 1 0 0 32 0 0 0 0 0 0 0 0 0 0 0 0 0 0 0 0 0 0 0 0 0 0 0 0 0 0 0 0 0 0 0 0 0 0 0 0 0 0 0 0 0 0 0 0 0 0 0 0 0 0 0 0 0 0 0 0 0 0 0 77 68 79 32 101 120 116 114 97 32 100 97 116 97 32 108 111 99 107 0 0 0 0 0 0 0 0 0 0 0 0 0 0 0 0 0 0 0 0 0 0 0 0 0 0 0 0 0 0 0 0 0 0 0 0 0 0 0 0 0 0 0 0 0 0 0 0 0 0 0 0 0 0 0 0 0 0 0 0 0 0 0 0 0 0 0 0 0 0 0 0 0 0 0 0 0 0 0 0 0 0 0 0 0 0 0 0 0 0 0 0 0 0 0 0 0 0 0 0 0 0 0 0 0 0 0 0 0 0 0 0 0 0 0 0 0 0 0 0 0 1 0 0 0 1 0 0 0 0 0 0 0 0 0 0 0 2 0 0 0 0 0 0 0 0 0 0 0 104 0 0 0 255 255 255 255 7 0 4 0 0 0 0 0 data 13 0x40007 0x0 0x30 0x0 0xb0002 0x0 0x120007 0x0 0x38 0x0 0x160003 0x0 0x18 oops 0
ciMethodData java/util/BitSet checkInvariants ()V 2 7581 orig 264 8 110 37 81 0 0 0 0 168 127 153 22 0 0 0 0 120 2 0 0 208 0 0 0 0 0 0 0 0 0 0 0 0 0 0 0 0 0 0 0 0 0 0 0 0 0 0 0 0 0 0 0 0 0 0 0 0 0 0 0 0 0 0 0 0 0 0 0 0 0 0 0 0 0 0 0 0 0 0 0 77 68 79 32 101 120 116 114 97 32 100 97 116 97 32 108 111 99 107 0 0 0 0 0 0 0 0 0 0 0 0 0 0 0 0 0 0 0 0 0 0 0 0 0 0 0 0 0 0 0 0 0 0 0 0 0 0 0 0 0 0 0 0 0 0 0 0 0 0 0 0 0 0 0 0 0 0 0 0 0 0 0 0 0 0 0 0 0 0 0 0 0 0 0 0 0 0 0 0 0 0 0 0 0 0 0 0 0 0 0 0 0 0 0 0 0 0 0 0 0 0 0 0 0 0 0 0 0 0 0 0 0 0 0 0 0 1 1 0 0 225 228 0 0 1 0 0 0 0 0 0 0 0 0 0 0 2 0 0 0 0 0 6 0 2 0 0 0 80 1 0 0 255 255 255 255 7 0 3 0 0 0 0 0 data 42 0x30007 0x1c9c 0x70 0x0 0xa0007 0x0 0x50 0x0 0x1a0007 0x0 0x30 0x0 0x210002 0x0 0x280007 0x1c9c 0x70 0x0 0x2f0007 0x0 0x40 0x0 0x3b0007 0x0 0x30 0x0 0x420002 0x0 0x490007 0x1c9c 0x70 0x0 0x550007 0x0 0x50 0x0 0x630007 0x0 0x30 0x0 0x6a0002 0x0 oops 0
ciMethodData java/util/BitSet set (I)V 2 7701 orig 264 8 110 37 81 0 0 0 0 120 141 153 22 0 0 0 0 80 2 0 0 192 0 0 0 0 0 0 0 0 0 0 0 0 0 0 0 0 0 0 0 0 0 0 0 0 0 0 0 0 0 0 0 0 0 0 0 0 0 0 0 0 0 0 0 0 0 0 0 0 0 0 0 0 0 0 0 0 0 0 0 77 68 79 32 101 120 116 114 97 32 100 97 116 97 32 108 111 99 107 0 0 0 0 0 0 0 0 0 0 0 0 0 0 0 0 0 0 0 0 0 0 0 0 0 0 0 0 0 0 0 0 0 0 0 0 0 0 0 0 0 0 0 0 0 0 0 0 0 0 0 0 0 0 0 0 0 0 0 0 0 0 0 0 0 0 0 0 0 0 0 0 0 0 0 0 0 0 0 0 0 0 0 0 0 0 0 0 0 0 0 0 0 0 0 0 0 0 0 0 0 0 0 0 0 0 0 0 0 0 0 0 0 0 0 0 0 243 0 0 0 17 233 0 0 1 0 0 0 0 0 0 0 0 0 0 0 2 0 0 0 0 0 9 0 2 0 0 0 0 1 0 0 255 255 255 255 7 0 1 0 0 0 0 0 data 32 0x10007 0x1d22 0xd0 0x0 0xc0002 0x0 0x110005 0x0 0x0 0x0 0x0 0x0 0x150005 0x0 0x0 0x0 0x0 0x0 0x180005 0x0 0x0 0x0 0x0 0x0 0x1b0002 0x0 0x200002 0x1d22 0x260002 0x1d22 0x360002 0x1d22 oops 0
ciMethodData java/util/HashMap resize ()[Ljava/util/HashMap$Node; 1 6855 orig 264 8 110 37 81 0 0 0 0 96 133 138 22 0 0 0 0 56 6 0 0 176 1 0 0 0 0 0 0 0 0 0 0 0 0 0 0 0 0 0 0 0 0 0 0 0 0 0 0 0 0 0 0 0 0 0 0 0 0 0 0 0 0 0 0 0 0 0 0 0 0 0 0 0 0 0 0 0 0 0 0 77 68 79 32 101 120 116 114 97 32 100 97 116 97 32 108 111 99 107 0 0 0 0 0 0 0 0 0 0 0 0 0 0 0 0 0 0 0 0 0 0 0 0 0 0 0 0 0 0 0 0 0 0 0 0 0 0 0 0 0 0 0 0 0 0 0 0 0 0 0 0 0 0 0 0 0 0 0 0 0 0 0 0 0 0 0 0 0 0 0 0 0 0 0 0 0 0 0 0 0 0 0 0 0 0 0 0 0 0 0 0 0 0 0 0 0 0 0 0 0 0 0 0 0 0 0 0 0 0 0 0 0 0 0 0 0 46 2 0 0 41 0 0 0 177 194 0 0 0 0 0 0 0 0 0 0 2 0 0 0 0 0 0 0 0 0 0 0 240 4 0 0 255 255 255 255 7 0 6 0 0 0 0 0 data 158 0x60007 0x5 0x38 0x0 0xa0003 0x0 0x18 0x190007 0x0 0x98 0x5 0x1f0007 0x5 0x20 0x0 0x320007 0x0 0x90 0x5 0x380007 0x0 0x70 0x5 0x400003 0x5 0x50 0x440007 0x0 0x38 0x0 0x4a0003 0x0 0x18 0x570007 0x5 0x78 0x0 0x680007 0x0 0x58 0x0 0x700007 0x0 0x38 0x0 0x760003 0x0 0x18 0x880004 0x0 0x1925d3e0 0x5 0x0 0x0 0x940007 0x0 0x340 0x5 0x9d0007 0x5 0x320 0x1400 0xa70007 0x951 0x2e8 0xaaf 0xae0104 0x0 0x0 0x0 0x0 0x0 0xb40007 0x357 0x68 0x758 0xc50004 0x0 0x186f5f30 0x758 0x0 0x0 0xc60003 0x758 0x248 0xcb0004 0xfffffffffffffca9 0x186f5f30 0x357 0x0 0x0 0xce0007 0x357 0x98 0x0 0xd30004 0x0 0x0 0x0 0x0 0x0 0xdc0005 0x0 0x0 0x0 0x0 0x0 0xdf0003 0x0 0x180 0xfc0007 0x3b5 0x70 0x3f8 0x1010007 0x144 0x38 0x2b4 0x1080003 0x2b4 0x18 0x1160003 0x3f8 0x50 0x11b0007 0x124 0x38 0x291 0x1220003 0x291 0x18 0x1350007 0x456 0xffffffffffffff58 0x357 0x13a0007 0xa3 0x50 0x2b4 0x1490004 0x0 0x186f5f30 0x2b4 0x0 0x0 0x14c0007 0xc6 0x50 0x291 0x15d0004 0x0 0x186f5f30 0x291 0x0 0x0 0x1610003 0x1400 0xfffffffffffffcf8 oops 5 50 [Ljava/util/HashMap$Node; 78 java/util/HashMap$Node 87 java/util/HashMap$Node 141 java/util/HashMap$Node 151 java/util/HashMap$Node
ciMethodData java/util/BitSet expandTo (I)V 2 7701 orig 264 8 110 37 81 0 0 0 0 168 137 153 22 0 0 0 0 88 1 0 0 0 0 0 0 0 0 0 0 0 0 0 0 0 0 0 0 0 0 0 0 0 0 0 0 0 0 0 0 0 0 0 0 0 0 0 0 0 0 0 0 0 0 0 0 0 0 0 0 0 0 0 0 0 0 0 0 0 0 0 0 77 68 79 32 101 120 116 114 97 32 100 97 116 97 32 108 111 99 107 0 0 0 0 0 0 0 0 0 0 0 0 0 0 0 0 0 0 0 0 0 0 0 0 0 0 0 0 0 0 0 0 0 0 0 0 0 0 0 0 0 0 0 0 0 0 0 0 0 0 0 0 0 0 0 0 0 0 0 0 0 0 0 0 0 0 0 0 0 0 0 0 0 0 0 0 0 0 0 0 0 0 0 0 0 0 0 0 0 0 0 0 0 0 0 0 0 0 0 0 0 0 0 0 0 0 0 0 0 0 0 0 0 0 0 0 0 0 2 0 0 169 224 0 0 1 0 0 0 0 0 0 0 0 0 0 0 2 0 0 0 0 0 6 0 2 0 0 0 48 0 0 0 255 255 255 255 7 0 9 0 0 0 0 0 data 6 0x90007 0x1b94 0x30 0x81 0xe0002 0x81 oops 0
ciMethodData java/util/BitSet ensureCapacity (I)V 1 445 orig 264 8 110 37 81 0 0 0 0 0 137 153 22 0 0 0 0 144 1 0 0 0 0 0 0 0 0 0 0 0 0 0 0 0 0 0 0 0 0 0 0 0 0 0 0 0 0 0 0 0 0 0 0 0 0 0 0 0 0 0 0 0 0 0 0 0 0 0 0 0 0 0 0 0 0 0 0 0 0 0 0 77 68 79 32 101 120 116 114 97 32 100 97 116 97 32 108 111 99 107 0 0 0 0 0 0 0 0 0 0 0 0 0 0 0 0 0 0 0 0 0 0 0 0 0 0 0 0 0 0 0 0 0 0 0 0 0 0 0 0 0 0 0 0 0 0 0 0 0 0 0 0 0 0 0 0 0 0 0 0 0 0 0 0 0 0 0 0 0 0 0 0 0 0 0 0 0 0 0 0 0 0 0 0 0 17 0 0 0 0 0 0 0 0 0 0 0 0 0 0 0 1 0 0 0 0 0 0 0 0 0 0 0 0 0 0 0 15 0 0 0 113 13 0 0 1 0 0 0 0 0 0 0 0 0 0 0 2 0 0 0 0 0 15 0 2 0 0 0 64 0 0 0 255 255 255 255 7 0 6 0 0 0 0 0 data 8 0x60007 0x1ae 0x40 0x0 0x110002 0x0 0x1b0002 0x0 oops 0
ciMethodData java/lang/String substring (I)Ljava/lang/String; 2 2917 orig 264 8 110 37 81 0 0 0 0 208 91 124 22 0 0 0 0 208 1 0 0 128 0 0 0 0 0 0 0 0 0 0 0 0 0 0 0 0 0 0 0 0 0 0 0 0 0 0 0 0 0 0 0 0 0 0 0 0 0 0 0 0 0 0 0 0 0 0 0 0 0 0 0 0 0 0 0 0 0 0 0 77 68 79 32 101 120 116 114 97 32 100 97 116 97 32 108 111 99 107 0 0 0 0 0 0 0 0 0 0 0 0 0 0 0 0 0 0 0 0 0 0 0 0 0 0 0 0 0 0 0 0 0 0 0 0 0 0 0 0 0 0 0 0 0 0 0 0 0 0 0 0 0 0 0 0 0 0 0 0 0 0 0 0 0 0 0 0 0 0 0 0 0 0 0 0 0 0 0 0 0 0 0 0 0 25 0 0 0 0 0 0 0 0 0 0 0 0 0 0 0 0 0 0 0 0 0 0 0 0 0 0 0 0 0 0 0 190 0 0 0 49 85 0 0 1 0 0 0 0 0 0 0 0 0 0 0 2 0 0 0 0 0 10 0 2 0 0 0 168 0 0 0 255 255 255 255 7 0 1 0 0 0 0 0 data 21 0x10007 0xaa6 0x30 0x0 0x90002 0x0 0x160007 0xaa6 0x30 0x0 0x1e0002 0x0 0x230007 0xaa6 0x38 0x0 0x270003 0x0 0x28 0x340002 0xaa6 oops 0
ciMethodData java/util/HashMap afterNodeInsertion (Z)V 2 1527 orig 264 8 110 37 81 0 0 0 0 136 162 138 22 0 0 0 0 40 1 0 0 0 0 0 0 0 0 0 0 0 0 0 0 0 0 0 0 0 0 0 0 0 0 0 0 0 0 0 0 0 0 0 0 0 0 0 0 0 0 0 0 0 0 0 0 0 0 0 0 0 0 0 0 0 0 0 0 0 0 0 0 77 68 79 32 101 120 116 114 97 32 100 97 116 97 32 108 111 99 107 0 0 0 0 0 0 0 0 0 0 0 0 0 0 0 0 0 0 0 0 0 0 0 0 0 0 0 0 0 0 0 0 0 0 0 0 0 0 0 0 0 0 0 0 0 0 0 0 0 0 0 0 0 0 0 0 0 0 0 0 0 0 0 0 0 0 0 0 0 0 0 0 0 0 0 0 0 0 0 0 0 0 0 0 0 0 0 0 0 0 0 0 0 0 0 0 0 0 0 0 0 0 0 0 0 0 0 0 0 0 0 0 0 0 0 0 0 218 1 0 0 233 32 0 0 1 0 0 0 0 0 0 0 0 0 0 0 2 0 0 0 0 0 3 0 1 0 0 0 0 0 0 0 255 255 255 255 0 0 0 0 0 0 0 0 data 0 oops 0
ciMethod com/android/dx/cf/iface/ParseException <init> (Ljava/lang/Throwable;)V 0 0 1 0 -1
ciMethod com/android/dx/util/ByteArray slice (II)Lcom/android/dx/util/ByteArray; 4097 1 12463 0 -1
ciMethod com/android/dx/util/ByteArray getInt (I)I 385 1 6372 0 -1
ciMethod com/android/dx/util/ByteArray getLong (I)J 1737 1 12 0 -1
ciMethod com/android/dx/rop/type/StdTypeList set (ILcom/android/dx/rop/type/Type;)V 2273 1 1622 0 0
ciMethod com/android/dx/util/FixedSizeList <init> (I)V 4081 1 6767 0 288
ciMethod com/android/dx/util/FixedSizeList set0 (ILjava/lang/Object;)V 4097 1 36352 0 224
ciMethod com/android/dx/util/FixedSizeList throwIndex (I)Ljava/lang/Object; 0 0 1 0 -1
ciMethodData com/android/dx/util/ByteArray getUnsignedByte0 (I)I 2 255639 orig 264 8 110 37 81 0 0 0 0 96 41 189 22 0 0 0 0 40 1 0 0 0 0 0 0 0 0 0 0 0 0 0 0 0 0 0 0 0 0 0 0 0 0 0 0 0 0 0 0 0 0 0 0 0 0 0 0 0 0 0 0 0 0 0 0 0 0 0 0 0 0 0 0 0 0 0 0 0 0 0 0 77 68 79 32 101 120 116 114 97 32 100 97 116 97 32 108 111 99 107 0 0 0 0 0 0 0 0 0 0 0 0 0 0 0 0 0 0 0 0 0 0 0 0 0 0 0 0 0 0 0 0 0 0 0 0 0 0 0 0 0 0 0 0 0 0 0 0 0 0 0 0 0 0 0 0 0 0 0 0 0 0 0 0 0 0 0 0 0 0 0 0 0 0 0 0 0 0 0 0 0 0 0 0 0 1 0 0 0 0 0 0 0 0 0 0 0 0 0 0 0 1 0 0 0 0 0 0 0 0 0 0 0 0 0 0 0 0 2 0 0 185 36 31 0 1 0 0 0 0 0 0 0 0 0 0 0 2 0 0 0 0 0 3 0 1 0 0 0 0 0 0 0 255 255 255 255 0 0 0 0 0 0 0 0 data 0 oops 0
ciMethodData com/android/dx/util/ByteArray checkOffsets (II)V 2 8252 orig 264 8 110 37 81 0 0 0 0 216 39 189 22 0 0 0 0 40 3 0 0 64 0 0 0 0 0 0 0 0 0 0 0 0 0 0 0 0 0 0 0 0 0 0 0 0 0 0 0 0 0 0 0 0 0 0 0 0 0 0 0 0 0 0 0 0 0 0 0 0 0 0 0 0 0 0 0 0 0 0 0 77 68 79 32 101 120 116 114 97 32 100 97 116 97 32 108 111 99 107 0 0 0 0 0 0 0 0 0 0 0 0 0 0 0 0 0 0 0 0 0 0 0 0 0 0 0 0 0 0 0 0 0 0 0 0 0 0 0 0 0 0 0 0 0 0 0 0 0 0 0 0 0 0 0 0 0 0 0 0 0 0 0 0 0 0 0 0 0 0 0 0 0 0 0 0 0 0 0 0 0 0 0 0 0 25 0 0 0 0 0 0 0 0 0 0 0 0 0 0 0 1 0 0 0 0 0 0 0 0 0 0 0 0 0 0 0 0 2 0 0 225 241 0 0 1 0 0 0 0 0 0 0 0 0 0 0 2 0 0 0 0 0 10 0 2 0 0 0 208 1 0 0 255 255 255 255 7 0 1 0 0 0 0 0 data 58 0x10007 0x0 0x60 0x1e3c 0x60007 0x0 0x40 0x1e3c 0xe0007 0x1e3c 0x190 0x0 0x190002 0x0 0x1e0005 0x0 0x0 0x0 0x0 0x0 0x220005 0x0 0x0 0x0 0x0 0x0 0x270005 0x0 0x0 0x0 0x0 0x0 0x2b0005 0x0 0x0 0x0 0x0 0x0 0x300005 0x0 0x0 0x0 0x0 0x0 0x370005 0x0 0x0 0x0 0x0 0x0 0x3a0005 0x0 0x0 0x0 0x0 0x0 0x3d0002 0x0 oops 0
ciMethodData com/android/dx/util/ByteArray getUnsignedByte (I)I 2 83347 orig 264 8 110 37 81 0 0 0 0 24 37 189 22 0 0 0 0 72 1 0 0 0 0 0 0 0 0 0 0 0 0 0 0 0 0 0 0 0 0 0 0 0 0 0 0 0 0 0 0 0 0 0 0 0 0 0 0 0 0 0 0 0 0 0 0 0 0 0 0 0 0 0 0 0 0 0 0 0 0 0 0 77 68 79 32 101 120 116 114 97 32 100 97 116 97 32 108 111 99 107 0 0 0 0 0 0 0 0 0 0 0 0 0 0 0 0 0 0 0 0 0 0 0 0 0 0 0 0 0 0 0 0 0 0 0 0 0 0 0 0 0 0 0 0 0 0 0 0 0 0 0 0 0 0 0 0 0 0 0 0 0 0 0 0 0 0 0 0 0 0 0 0 0 0 0 0 0 0 0 0 0 0 0 0 0 17 0 0 0 0 0 0 0 0 0 0 0 0 0 0 0 1 0 0 0 0 0 0 0 0 0 0 0 0 0 0 0 0 2 0 0 153 28 10 0 1 0 0 0 0 0 0 0 0 0 0 0 2 0 0 0 0 0 3 0 2 0 0 0 32 0 0 0 255 255 255 255 2 0 5 0 0 0 0 0 data 4 0x50002 0x14393 0xa0002 0x14393 oops 0
ciMethodData com/android/dx/util/ByteArray getUnsignedShort (I)I 2 73640 orig 264 8 110 37 81 0 0 0 0 224 37 189 22 0 0 0 0 88 1 0 0 0 0 0 0 0 0 0 0 0 0 0 0 0 0 0 0 0 0 0 0 0 0 0 0 0 0 0 0 0 0 0 0 0 0 0 0 0 0 0 0 0 0 0 0 0 0 0 0 0 0 0 0 0 0 0 0 0 0 0 0 77 68 79 32 101 120 116 114 97 32 100 97 116 97 32 108 111 99 107 0 0 0 0 0 0 0 0 0 0 0 0 0 0 0 0 0 0 0 0 0 0 0 0 0 0 0 0 0 0 0 0 0 0 0 0 0 0 0 0 0 0 0 0 0 0 0 0 0 0 0 0 0 0 0 0 0 0 0 0 0 0 0 0 0 0 0 0 0 0 0 0 0 0 0 0 0 0 0 0 0 0 0 0 0 0 0 0 0 0 0 0 0 0 0 0 0 0 0 0 0 0 0 0 0 0 0 0 0 0 0 0 0 0 0 0 0 12 1 0 0 225 244 8 0 1 0 0 0 0 0 0 0 0 0 0 0 2 0 0 0 0 0 3 0 2 0 0 0 48 0 0 0 255 255 255 255 2 0 5 0 0 0 0 0 data 6 0x50002 0x11e9c 0xa0002 0x11e9c 0x140002 0x11e9c oops 0
ciMethodData com/android/dx/util/MutabilityControl throwIfImmutable ()V 2 42258 orig 264 8 110 37 81 0 0 0 0 160 55 190 22 0 0 0 0 80 1 0 0 0 0 0 0 0 0 0 0 0 0 0 0 0 0 0 0 0 0 0 0 0 0 0 0 0 0 0 0 0 0 0 0 0 0 0 0 0 0 0 0 0 0 0 0 0 0 0 0 0 0 0 0 0 0 0 0 0 0 0 0 77 68 79 32 101 120 116 114 97 32 100 97 116 97 32 108 111 99 107 0 0 0 0 0 0 0 0 0 0 0 0 0 0 0 0 0 0 0 0 0 0 0 0 0 0 0 0 0 0 0 0 0 0 0 0 0 0 0 0 0 0 0 0 0 0 0 0 0 0 0 0 0 0 0 0 0 0 0 0 0 0 0 0 0 0 0 0 0 0 0 0 0 0 0 0 0 0 0 0 0 0 0 0 0 0 0 0 0 0 0 0 0 0 0 0 0 0 0 0 0 0 0 0 0 0 0 0 0 0 0 0 0 0 0 0 0 4 1 0 0 113 32 5 0 1 0 0 0 0 0 0 0 0 0 0 0 2 0 0 0 0 0 5 0 2 0 0 0 48 0 0 0 255 255 255 255 7 0 4 0 0 0 0 0 data 6 0x40007 0xa40e 0x30 0x0 0xd0002 0x0 oops 0
ciMethodData com/android/dx/rop/cst/StdConstantPool getOrNull (I)Lcom/android/dx/rop/cst/Constant; 2 51725 orig 264 8 110 37 81 0 0 0 0 200 44 190 22 0 0 0 0 96 1 0 0 0 0 0 0 0 0 0 0 0 0 0 0 0 0 0 0 0 0 0 0 0 0 0 0 0 0 0 0 0 0 0 0 0 0 0 0 0 0 0 0 0 0 0 0 0 0 0 0 0 0 0 0 0 0 0 0 0 0 0 0 77 68 79 32 101 120 116 114 97 32 100 97 116 97 32 108 111 99 107 0 0 0 0 0 0 0 0 0 0 0 0 0 0 0 0 0 0 0 0 0 0 0 0 0 0 0 0 0 0 0 0 0 0 0 0 0 0 0 0 0 0 0 0 0 0 0 0 0 0 0 0 0 0 0 0 0 0 0 0 0 0 0 0 0 0 0 0 0 0 0 0 0 0 0 0 0 0 0 0 0 0 0 0 0 0 0 0 0 0 0 0 0 0 0 0 0 0 0 0 0 0 0 0 0 0 0 0 0 0 0 0 0 0 0 0 0 8 1 0 0 1 72 6 0 1 0 0 0 0 0 0 0 0 0 0 0 2 0 0 0 0 0 5 0 2 0 0 0 16 0 0 0 255 255 255 255 2 0 9 0 0 0 0 0 data 2 0x90002 0x0 oops 0
ciMethodData com/android/dx/cf/cst/ConstantPoolParser parse0 (ILjava/util/BitSet;)Lcom/android/dx/rop/cst/Constant; 2 35916 orig 264 8 110 37 81 0 0 0 0 24 103 189 22 0 0 0 0 8 14 0 0 160 2 0 0 0 0 0 0 0 0 0 0 0 0 0 0 0 0 0 0 0 0 0 0 0 0 0 0 0 0 0 0 0 0 0 0 0 0 0 0 0 0 0 0 0 0 0 0 0 0 0 0 0 0 0 0 0 0 0 0 77 68 79 32 101 120 116 114 97 32 100 97 116 97 32 108 111 99 107 0 0 0 0 0 0 0 0 0 0 0 0 0 0 0 0 0 0 0 0 0 0 0 0 0 0 0 0 0 0 0 0 0 0 0 0 0 0 0 0 0 0 0 0 0 1 0 0 0 0 0 0 0 0 0 0 0 0 0 0 0 0 0 0 0 0 0 0 0 1 0 0 0 0 0 0 0 0 0 0 0 0 0 0 0 0 0 0 0 0 0 0 0 0 0 0 0 0 0 0 0 0 0 0 0 0 0 0 0 0 0 0 0 0 0 0 0 157 1 0 0 113 84 4 0 1 0 0 0 170 77 0 0 0 0 0 0 2 0 0 0 0 0 29 0 2 0 0 0 176 12 0 0 255 255 255 255 5 0 5 0 0 0 0 0 data 406 0x50005 0x4c8 0x186ccb80 0x85c6 0x0 0x0 0xa0007 0x722b 0x20 0x1863 0x1d0005 0x3c4 0x186ccc30 0x6e67 0x0 0x0 0x240008 0x26 0x0 0x878 0x1e2 0x140 0x0 0x878 0x1 0x198 0x0 0x1f0 0x0 0x248 0x0 0x2a0 0x31 0x2f8 0x9a 0x3d0 0x51 0x428 0x3a 0x530 0x3 0x638 0x88 0x740 0x0 0x878 0x0 0x878 0x0 0x848 0x0 0x858 0x0 0x878 0x0 0x868 0x7f0002 0x3f63 0x850005 0x0 0x186cbb80 0x3f62 0x0 0x0 0x880003 0x3f62 0x7b8 0x930005 0x1 0x186ccc30 0x8a6 0x0 0x0 0x9a0002 0x8a7 0x9e0003 0x8a7 0x760 0xa90005 0x0 0x186ccc30 0x12 0x0 0x0 0xb00002 0x13 0xb40003 0x13 0x708 0xbf0005 0x0 0x186ccc30 0x7 0x0 0x0 0xc60002 0x7 0xca0003 0x7 0x6b0 0xd50005 0x0 0x186ccc30 0x5 0x0 0x0 0xdc0002 0x5 0xe00003 0x5 0x658 0xeb0005 0x31 0x186ccc30 0x832 0x0 0x0 0xf40002 0x863 0xf70004 0x0 0x186ccce0 0x863 0x0 0x0 0x1020005 0x31 0x186ccce0 0x832 0x0 0x0 0x1050002 0x863 0x1080002 0x863 0x10c0003 0x863 0x580 0x1170005 0x9a 0x186ccc30 0x83 0x0 0x0 0x1200002 0x11d 0x1240003 0x11d 0x528 0x12f0005 0x51 0x186ccc30 0x42b 0x0 0x0 0x1380002 0x47c 0x13b0004 0x0 0x186ccd90 0x47c 0x0 0x0 0x1480005 0x51 0x186ccc30 0x42b 0x0 0x0 0x1510002 0x47c 0x1540004 0x0 0x186cce40 0x47c 0x0 0x0 0x1610002 0x47c 0x1650003 0x47c 0x420 0x1700005 0x3a 0x186ccc30 0xb16 0x0 0x0 0x1790002 0xb50 0x17c0004 0x0 0x186ccd90 0xb50 0x0 0x0 0x1890005 0x3a 0x186ccc30 0xb16 0x0 0x0 0x1920002 0xb50 0x1950004 0x0 0x186cce40 0xb4f 0x0 0x0 0x1a20002 0xb4f 0x1a60003 0xb4f 0x318 0x1b10005 0x3 0x186ccc30 0xf0 0x0 0x0 0x1ba0002 0xf3 0x1bd0004 0x0 0x186ccd90 0xf3 0x0 0x0 0x1ca0005 0x3 0x186ccc30 0xf0 0x0 0x0 0x1d30002 0xf3 0x1d60004 0x0 0x186cce40 0xf3 0x0 0x0 0x1e30002 0xf3 0x1e70003 0xf3 0x210 0x1f20005 0x88 0x186ccc30 0xf3c 0x0 0x0 0x1fb0002 0xfc4 0x1fe0004 0x0 0x186ccce0 0xfc4 0x0 0x0 0x20b0005 0x88 0x186ccc30 0xf3c 0x0 0x0 0x2140002 0xfc4 0x2170004 0x0 0x186ccce0 0xfc3 0x0 0x0 0x2240002 0xfc3 0x2280003 0xfc3 0x108 0x2310002 0x0 0x23b0002 0x0 0x2450002 0x0 0x2510002 0x0 0x2560005 0x0 0x0 0x0 0x0 0x0 0x25b0002 0x0 0x25e0005 0x0 0x0 0x0 0x0 0x0 0x2610005 0x0 0x0 0x0 0x0 0x0 0x2640002 0x0 0x2680003 0x7229 0x2c8 0x2730002 0x0 0x2780005 0x0 0x0 0x0 0x0 0x0 0x27c0002 0x0 0x27f0005 0x0 0x0 0x0 0x0 0x0 0x2840005 0x0 0x0 0x0 0x0 0x0 0x2890002 0x0 0x28c0005 0x0 0x0 0x0 0x0 0x0 0x28f0005 0x0 0x0 0x0 0x0 0x0 0x2920005 0x0 0x0 0x0 0x0 0x0 0x2a00002 0x0 0x2ab0002 0x0 0x2b00005 0x0 0x0 0x0 0x0 0x0 0x2b40002 0x0 0x2b70005 0x0 0x0 0x0 0x0 0x0 0x2bc0005 0x0 0x0 0x0 0x0 0x0 0x2c10002 0x0 0x2c40005 0x0 0x0 0x0 0x0 0x0 0x2c70005 0x0 0x0 0x0 0x0 0x0 0x2ca0005 0x0 0x0 0x0 0x0 0x0 0x2d60005 0x3c5 0x186ccb80 0x6e64 0x0 0x0 oops 28 2 com/android/dx/rop/cst/StdConstantPool 12 com/android/dx/util/ByteArray 60 java/util/BitSet 69 com/android/dx/util/ByteArray 80 com/android/dx/util/ByteArray 91 com/android/dx/util/ByteArray 102 com/android/dx/util/ByteArray 113 com/android/dx/util/ByteArray 121 com/android/dx/rop/cst/CstString 127 com/android/dx/rop/cst/CstString 140 com/android/dx/util/ByteArray 151 com/android/dx/util/ByteArray 159 com/android/dx/rop/cst/CstType 165 com/android/dx/util/ByteArray 173 com/android/dx/rop/cst/CstNat 184 com/android/dx/util/ByteArray 192 com/android/dx/rop/cst/CstType 198 com/android/dx/util/ByteArray 206 com/android/dx/rop/cst/CstNat 217 com/android/dx/util/ByteArray 225 com/android/dx/rop/cst/CstType 231 com/android/dx/util/ByteArray 239 com/android/dx/rop/cst/CstNat 250 com/android/dx/util/ByteArray 258 com/android/dx/rop/cst/CstString 264 com/android/dx/util/ByteArray 272 com/android/dx/rop/cst/CstString 402 com/android/dx/rop/cst/StdConstantPool
ciMethodData com/android/dx/cf/cst/ConstantPoolParser parseUtf8 (I)Lcom/android/dx/rop/cst/CstString; 2 7368 orig 264 8 110 37 81 0 0 0 0 96 104 189 22 0 0 0 0 208 1 0 0 0 0 0 0 0 0 0 0 0 0 0 0 0 0 0 0 0 0 0 0 0 0 0 0 0 0 0 0 0 0 0 0 0 0 0 0 0 0 0 0 0 0 0 0 0 0 0 0 0 0 0 0 0 0 0 0 0 0 0 0 77 68 79 32 101 120 116 114 97 32 100 97 116 97 32 108 111 99 107 0 0 0 0 0 0 0 0 0 0 0 0 0 0 0 0 0 0 0 0 0 0 0 0 0 0 0 0 0 0 0 0 0 0 0 0 0 0 0 0 0 0 0 0 0 0 0 0 0 0 0 0 0 0 0 0 0 0 0 0 0 0 0 0 0 0 0 0 0 0 0 0 0 0 0 0 0 0 0 0 0 0 0 0 0 0 0 0 0 0 0 0 0 0 0 0 0 0 0 0 0 0 0 0 0 0 0 0 0 0 0 0 0 0 0 0 0 192 0 0 0 65 224 0 0 1 0 0 0 0 0 0 0 0 0 0 0 2 0 0 0 0 0 7 0 2 0 0 0 128 0 0 0 255 255 255 255 5 0 7 0 0 0 0 0 data 16 0x70005 0x148 0x186ccc30 0x1ac0 0x0 0x0 0x160005 0x148 0x186ccc30 0x1ac0 0x0 0x0 0x1f0002 0x1c08 0x2b0002 0x0 oops 2 2 com/android/dx/util/ByteArray 8 com/android/dx/util/ByteArray
ciMethodData com/android/dx/util/ByteArray getInt (I)I 2 6372 orig 264 8 110 37 81 0 0 0 0 48 35 189 22 0 0 0 0 120 1 0 0 0 0 0 0 0 0 0 0 0 0 0 0 0 0 0 0 0 0 0 0 0 0 0 0 0 0 0 0 0 0 0 0 0 0 0 0 0 0 0 0 0 0 0 0 0 0 0 0 0 0 0 0 0 0 0 0 0 0 0 0 77 68 79 32 101 120 116 114 97 32 100 97 116 97 32 108 111 99 107 0 0 0 0 0 0 0 0 0 0 0 0 0 0 0 0 0 0 0 0 0 0 0 0 0 0 0 0 0 0 0 0 0 0 0 0 0 0 0 0 0 0 0 0 0 0 0 0 0 0 0 0 0 0 0 0 0 0 0 0 0 0 0 0 0 0 0 0 0 0 0 0 0 0 0 0 0 0 0 0 0 0 0 0 0 17 0 0 0 0 0 0 0 0 0 0 0 0 0 0 0 1 0 0 0 0 0 0 0 0 0 0 0 0 0 0 0 48 0 0 0 161 197 0 0 1 0 0 0 0 0 0 0 0 0 0 0 2 0 0 0 0 0 3 0 2 0 0 0 80 0 0 0 255 255 255 255 2 0 5 0 0 0 0 0 data 10 0x50002 0x18b4 0xa0002 0x18b4 0x140002 0x18b4 0x1f0002 0x18b4 0x2a0002 0x18b4 oops 0
MACHTYPE=x86_64
FLT	ALASKA	FLAT	afd	al_81_25OCT2007.png
2021-10-26T21:52:05.974Z,76.974770,43ba000,7 [FLog::Network] Client:Disconnect
2021-10-26T21:52:05.986Z,76.986626,43ba000,6 [FLog::Output] Closing Fmod (as 150, ml 0, sl 0).
2021-10-26T21:52:06.039Z,77.039841,43ba000,6 [FLog::Output] Fmod Closed.
2021-10-26T21:52:06.044Z,77.044930,43ba000,7 [FLog::Network] NetworkClient:Remove
2021-10-26T21:52:06.074Z,77.074615,ab3bf380,6 [FLog::Output] Hello to all (CLI-46686)
2021-10-26T21:52:06.074Z,77.074669,ab3bf380,6 [FLog::Output] hello from a happy cactus (:
2021-10-26T21:52:06.074Z,77.074684,ab3bf380,6 [FLog::Output] Hello (smiling bashfully)!
2021-10-26T21:52:06.094Z,77.094681,ab3bf380,6 [FLog::SurfaceController] SurfaceController[_:1]::start dataModel(0x7f97aab1d000)
2021-10-26T21:52:06.094Z,77.094780,ab3bf380,6 [FLog::SurfaceController] SurfaceController::RenderJob[_:3]::RenderJob
2021-10-26T21:52:06.094Z,77.094818,ab3bf380,6 [FLog::SurfaceController] SurfaceController::RenderJob[_:2]::~RenderJob
2021-10-26T21:52:06.095Z,77.095886,ab3bf380,6 [FLog::SurfaceController] SurfaceController[_:1]::run dataModel(0x7f97aab1d000)
2021-10-26T21:52:06.161Z,77.161827,43ba000,6 [FLog::SurfaceController] SurfaceController::RenderJob::stepDataModelJob: No DM yet. Continue...
2021-10-26T21:52:06.163Z,77.163132,ab3bf380,6 [FLog::SurfaceController] SurfaceController::RenderJob::scheduleRender: No data model. Bind workspace now...
2021-10-26T21:52:06.192Z,77.192055,ab3bf380,6 [FLog::Graphics] LayeredClothingMode updated: LC=0 SkeletonAPI=0 HSR=0 TC2=0
2021-10-26T21:52:06.238Z,77.238220,ab3bf380,6 [FLog::Graphics] Loaded 620 shaders from pack metal_osx variant default (4412629 bytes)
2021-10-26T21:52:06.238Z,77.238266,ab3bf380,6 [FLog::Graphics] Compiled 620 shaders in 43 ms
2021-10-26T21:52:06.252Z,77.252037,43ba000,7 [FLog::Network] NetworkClient:Create
2021-10-26T21:52:27.480Z,98.480843,4337000,7 [FLog::Network] NetworkClient:Remove
2021-10-26T21:52:27.506Z,98.506302,ab3bf380,6 [FLog::LocalStorage] LocalStorage flushing (blocking)
2021-10-26T21:52:27.506Z,98.506416,ab3bf380,6 [FLog::LocalStorage] LocalStorage writing to file: /Users/studioagain/Library/Roblox/LocalStorage/memProfStorage11138.json
2021-10-26T21:52:27.506Z,98.506477,ab3bf380,6 [FLog::LocalStorage] LocalStorage will flush 5273 bytes to /Users/studioagain/Library/Roblox/LocalStorage/memProfStorage11138.json
2021-10-26T21:52:27.506Z,98.506798,ab3bf380,6 [FLog::LocalStorage] LocalStorage: Wrote 5273 bytes to disk
2021-10-26T21:52:27.824Z,98.824211,ab3bf380,6 [FLog::LocalStorage] LocalStorage flushing (blocking)
2021-10-26T21:52:27.829Z,98.829781,ab3bf380,6 [FLog::LocalStorage] LocalStorage writing to file: /Users/studioagain/Library/Roblox/LocalStorage/memProfStorage11138.json
2021-10-26T21:52:27.829Z,98.829857,ab3bf380,6 [FLog::LocalStorage] LocalStorage will flush 5273 bytes to /Users/studioagain/Library/Roblox/LocalStorage/memProfStorage11138.json
2021-10-26T21:52:27.830Z,98.830429,ab3bf380,6 [FLog::LocalStorage] LocalStorage: Wrote 5273 bytes to disk
    + -Werror=shadow [Stephan Bergmann]
    + -Werror=shift-negative-value (GCC 6) [Stephan Bergmann]
    + -Werror=strict-aliasing (GCC 6) [Stephan Bergmann]
    + -Werror=type-limits [Noel Grandin]
    [0m
[22:42:39] Digital Marketing: [+] 0131/7913 new URL - http://montagucommunitychurch.co.za/wp-login.php?action=register
[22:42:39] Digital Marketing: [+] 0131/7913 new URL - http://montagucommunitychurch.co.za/wp-login.php?registration=disabled
US Core Comparison: compare StructureDefinition[http://hl7.org/fhir/us/ph-library/StructureDefinition/us-ph-disability-status|1.0.0] to StructureDefinition[http://hl7.org/fhir/us/core/StructureDefinition/head-occipital-frontal-circumference-percentile|6.1.0]
US Core Comparison: compare StructureDefinition[http://hl7.org/fhir/us/ph-library/StructureDefinition/us-ph-disability-status|1.0.0] to StructureDefinition[http://hl7.org/fhir/us/core/StructureDefinition/pediatric-bmi-for-age|6.1.0]
US Core Comparison: compare StructureDefinition[http://hl7.org/fhir/us/ph-library/StructureDefinition/us-ph-disability-status|1.0.0] to StructureDefinition[http://hl7.org/fhir/us/core/StructureDefinition/pediatric-weight-for-height|6.1.0]
[     47985] [    GTAProcess]             MainThrd/ rage::gameSkeleton::RunInitFunctions: Invoking CTaskClassInfoManager INIT_CORE init (41 out of 52)
tdf#114821 FILEOPEN PPTX: In some files bar chart data labels are incorectly positioned [Szymon Kłos]
tdf#114833 Dutch locale: date input without year (pattern D-M) displays as dd-mm-yy, while with year (pattern D-M-Y) displays as ISO yyyy-mm-dd [Eike Rathke]
tdf#114837 FILEOPEN: Image is blank [Noel Grandin]
tdf#114842 FILESAVE: to XLSX: comments lose background colour [Bartosz Kosiorek]
tdf#114848 FILESAVE: PPTX: Shape's colour lost after RT [Szymon Kłos]
void *handle = dlopen("/tmp/petsc-uGvYRc/config.setCompilers/libconftest.so", 0);
int (*foo)(void) = (int (*)(void)) dlsym(handle, "foo");
[22:42:47] Justice degree: [+] 8027/8289 new URL - http://asmartpioneeragent.com/wp-login.php?action=register
[22:42:48] Make money online T2: [-] 3850/8483 download failed (Return: -) - http://www.trobank.com/h-e-edward-kiwanuka-ssekandi-pays-visit-to-our-newly-opened-kaliro-branch/
[      2547] [    GTAProcess]             MainThrd/ pre-gameload component net
AK97	ALASKA	BOSWELL BAY	afd	al_34_25OCT2007.png
BYA	ALASKA	BOUNDARY	afd	al_34_25OCT2007.png
CZBB	ALASKA	BOUNDARY BAY 	afd	al_35_25OCT2007.png
PWT	ALASKA	BREMERTON NATIONAL	afd	al_35_25OCT2007.png
KTS	ALASKA	BREVIG MISSION	afd	al_36_25OCT2007.png
                                                TOTAL   $15.372
</MANLIResult>
 subject to restrictions as set forth in subparagraphs (a)
\inf@bad=\count196
LaTeX Info: Redefining \frac on input line 234.
\uproot@=\count197
\leftroot@=\count198
LaTeX Info: Redefining \overline on input line 399.
\classnum@=\count199
\DOTSCASE@=\count266
LaTeX Info: Redefining \ldots on input line 496.
LaTeX Info: Redefining \dots on input line 499.
LaTeX Info: Redefining \cdots on input line 620.
\Mathstrutbox@=\box49
\strutbox@=\box50
\big@size=\dimen145
LaTeX Font Info:    Redeclaring font encoding OML on input line 743.
LaTeX Font Info:    Redeclaring font encoding OMS on input line 744.
\macc@depth=\count267
\c@MaxMatrixCols=\count268
\dotsspace@=\muskip16
\c@parentequation=\count269
Language: english 2017/06/06 v3.3r English support from the babel system
Package babel Info: \l@canadian = using hyphenrules for english
(babel)             (\language0) on input line 102.
Package babel Info: \l@australian = using hyphenrules for ukenglish
(babel)             (\language21) on input line 105.
Package babel Info: \l@newzealand = using hyphenrules for ukenglish
(babel)             (\language21) on input line 108.
)) (/usr/local/texlive/2021/texmf-dist/tex/latex/geometry/geometry.sty
Package: geometry 2020/01/02 v5.9 Page Geometry
 (/usr/local/texlive/2021/texmf-dist/tex/generic/iftex/ifvtex.sty
Package: ifvtex 2019/10/25 v1.7 ifvtex legacy package. Use iftex instead.
                                  1996-030B      AMOS 1                         AMOS 1                    S23865
./Walt%20Disney/The%20Lion%20King
     src='/data/richards/NBRTT/build/Geant4/build/Externals/G4SAIDDATA-1.1/src/G4SAIDDATA.1.1.tar.gz'
     dst='/data/richards/NBRTT/build/Geant4/build/data/G4SAIDDATA1.1'
-- extracting... [tar xfz]
./Le%20Donjon%20de%20Naheulbeuk/Chanson/Naheulband%20-%20Machins%20de%20Taverne
./Le%20Donjon%20de%20Naheulbeuk/Chanson/Naheulband-Grimoire_Audio
./Le%20Donjon%20de%20Naheulbeuk/Chanson/T'as%20pas%20le%20niveau%20!%20-%20Chanson%20Naheulbeuk%20-%20mp3%20-%20par%20Naereen
Z47	ALASKA	BASIN CREEK	afd	al_25_25OCT2007.png
Z48	ALASKA	BEAR CREEK 3	afd	al_25_25OCT2007.png
Z52	ALASKA	BEAR LAKE JOHNSONS LANDING	afd	al_26_25OCT2007.png
LaTeX Font Info:    ... okay on input line 90.
LaTeX Font Info:    Checking defaults for T1/cmr/m/n on input line 90.
LaTeX Font Info:    ... okay on input line 90.
KGZ	ALASKA	GLACIER CREEK	afd	al_86_25OCT2007.png
NeutronHP: /Capture file for Z = 6, A = 12 is not found and NeutronHP will use /home/arce/gamos/external/geant4/geant4.10.04.p02.gamos/../data/G4NDL4.5/Capture/CrossSection/6_nat_Carbon
  write(fd, text, strlen(text));
  ^~~~~~~~~~~~~~~~~~~~~~~~~~~~~
+ '[' 0 -ne 0 ']'
+ exit 0
     FLAI Site Information Form (site log)
[2023.05.20-22.07.40:104][  0]LogD3D12RHI: Found D3D12 adapter 1: Microsoft Basic Render Driver (Max supported Feature Level 12_1, shader model 6.2)
2016-02-23 15:45:25,618  INFO Injector:69    -> com.google.inject.internal.ConstructorBindingImpl$Factory@45c7e403[Scopes.SINGLETON]

  Process: kaon+Inelastic
        Model:                      QGSP: 12 GeV ---> 100 TeV
        Model:                      FTFP: 4 GeV ---> 25 GeV
        Model:            BertiniCascade: 0 eV  ---> 5 GeV
instanceKlass java/util/NavigableMap
<10:29AM cavalier> ** FILES OFFERED. /MSG cavalier XDCC SEND #N for autosend file #N
<10:29AM cavalier> #1  EARTHQUAKE EXTENDED SUMMARY TEXT REVISION 1 12:51 EST
<10:31AM Wolferl> I need an update of the 1200 block of North Corsant, hollywood.   I just heard there was extensive damage in hollywood on NBC
<10:31AM cavalier> UGH. GUYS. YOU NEED TO MSG ME WITH "XDCC SEND #1". THEN TYPE "DCC GET CAVALIER" IN ORDER TO GET THE FILES.
<10:31AM CNN_news> CNN is now in "commercial" mode *gag*
<10:32AM CNN_news> *drees* any info on the redondo beach area?
(WildEep/#earthquake) 1st hand: pasadena incoming phone calls back on-line
(Tua/#earthquake) is pasadena 909?
(WildEep/#earthquake) pasadena is 818
2016-02-23 15:45:25,533  INFO Injector:68 org.matsim.lanes.data.v20.Lanes 
2016-02-23 15:45:25,533  INFO Injector:69    -> @Provides org.matsim.core.scenario.ScenarioByInstanceModule.provideLanes(ScenarioByInstanceModule.java:66)
2016-02-23 15:45:25,533  INFO Injector:68 org.matsim.api.core.v01.population.PopulationFactory 
2016-02-23 15:45:25,533  INFO Injector:69    -> @Provides org.matsim.core.scenario.ScenarioByInstanceModule.providePopulationFactory(ScenarioByInstanceModule.java:47)
2016-02-23 15:45:25,534  INFO Injector:68 org.matsim.facilities.ActivityFacilities 
2016-02-23 15:45:25,534  INFO Injector:69    -> @Provides org.matsim.core.scenario.ScenarioByInstanceModule.provideActivityFacilities(ScenarioByInstanceModule.java:51)
2016-02-23 15:45:25,534  INFO Injector:68 org.matsim.households.Households 
2016-02-23 15:45:25,534  INFO Injector:69    -> @Provides org.matsim.core.scenario.ScenarioByInstanceModule.provideHouseholds(ScenarioByInstanceModule.java:56)
2016-02-23 15:45:25,534  INFO Injector:68 org.matsim.api.core.v01.population.Population 
2016-02-23 15:45:25,534  INFO Injector:69    -> @Provides org.matsim.core.scenario.ScenarioByInstanceModule.providePopulation(ScenarioByInstanceModule.java:43)
2016-02-23 15:45:25,534  INFO Injector:68 org.matsim.core.controler.ControlerI 
2016-02-23 15:45:25,540  INFO Injector:69    -> FactoryProxy{key=Key[type=org.matsim.core.controler.ControlerI, annotation=[none]], provider=com.google.inject.internal.ConstructorBindingImpl$Factory@6a6cb05c}[Scopes.SINGLETON]
2016-02-23 15:45:25,540  INFO Injector:68 org.matsim.core.controler.ControlerListenerManager 
2016-02-23 15:45:25,545  INFO Injector:69    -> FactoryProxy{key=Key[type=org.matsim.core.controler.ControlerListenerManager, annotation=[none]], provider=com.google.inject.internal.ConstructorBindingImpl$Factory@22ff4249}[Scopes.SINGLETON]
2016-02-23 15:45:25,545  INFO Injector:68 org.matsim.core.controler.PrepareForSim 
2016-02-23 15:45:25,545  INFO Injector:69    -> FactoryProxy{key=Key[type=org.matsim.core.controler.PrepareForSim, annotation=[none]], provider=com.google.inject.internal.ConstructorBindingImpl$Factory@327514f}
2016-02-23 15:45:25,550  INFO Injector:68 org.matsim.core.controler.TerminationCriterion 
2016-02-23 15:45:25,550  INFO Injector:69    -> FactoryProxy{key=Key[type=org.matsim.core.controler.TerminationCriterion, annotation=[none]], provider=com.google.inject.internal.ConstructorBindingImpl$Factory@4c12331b}
2016-02-23 15:45:25,550  INFO Injector:68 org.matsim.core.controler.MatsimServices 
2016-02-23 15:45:25,550  INFO Injector:69    -> FactoryProxy{key=Key[type=org.matsim.core.controler.MatsimServices, annotation=[none]], provider=com.google.inject.internal.ConstructorBindingImpl$Factory@815b41f}
2016-02-23 15:45:25,551  INFO Injector:68 org.matsim.core.controler.listener.ControlerListener @com.google.inject.multibindings.Element(setName=,uniqueId=32, type=MULTIBINDER, keyType=)
-- [download 25% complete]
nbc5i+com+radar	01.08.2009 21:24:29	http://www.google.com/search?hl=en&q=nbc+5+fort+worth+doppler+radar&btnG=Search&aq=f&oq=&aqi=	Mozilla/4.0 (compatible; MSIE 8.0; Windows NT 5.1; Trident/4.0; .NET CLR 1.1.4322; IEMB3)	209.30.87.60
charlene+yi	01.08.2009 21:24:39	http://www.google.com/search?hl=en&client=safari&rls=en-us&q=ast+charleyne+yi+armisen&aq=f&oq=&aqi=	Mozilla/5.0 (Macintosh; U; Intel Mac OS X 10_5_7; en-us) AppleWebKit/530.18 (KHTML, like Gecko) Version/4.0.1 Safari/530.18	96.231.95.218
sono+arts+festival	01.08.2009 21:25:01	http://www.google.com/search?client=firefox-a&rls=org.mozilla%3Aen-US%3Aofficial&channel=s&hl=en&q=sono+arts+festival&btnG=Google+Search	Mozilla/5.0 (Macintosh; U; Intel Mac OS X 10.5; en-US; rv:1.9.0.3) Gecko/2008092414 Firefox/3.0.3	76.200.237.237
mcmackin+slur	01.08.2009 21:25:46	http://www.google.com/search?q=mcmackin+derogatory&hl=en&safe=off&client=ms-rim&channel=browser&ie=UTF-8&start=10&sa=N	BlackBerry9530/4.7.0.148 Profile/MIDP-2.0 Configuration/CLDC-1.1 VendorID/105	206.53.157.234
invicta+9212+men%E2%80%99s+gold+plated+stainless+steel+speedway+watch	01.08.2009 21:25:49	http://www.google.com/search?q=invicta+watches+gold+plating+thickness&ie=utf-8&oe=utf-8&aq=t&rls=org.mozilla:en-US:official&client=firefox-a	Mozilla/5.0 (Macintosh; U; Intel Mac OS X 10.5; en-US; rv:1.9.0.12) Gecko/2009070609 Firefox/3.0.12 GTB5	74.131.64.197
kxas+weather	01.08.2009 21:26:27	http://www.google.com/search?q=wfaa+channel+8+weather+radar&ie=UTF-8&oe=UTF-8&hl=en&client=safari	Mozilla/5.0 (iPhone; U; CPU iPhone OS 3_0 like Mac OS X; en-us) AppleWebKit/528.18 (KHTML, like Gecko) Version/4.0 Mobile/7A341 Safari/528.16	166.205.7.54
market+days+chicago+2009	01.08.2009 21:27:06	http://www.google.com/search?hl=en&rls=com.microsoft%3Aen-US&q=Market+Days+Chicago&aq=f&oq=&aqi=	Mozilla/4.0 (compatible; MSIE 7.0; Windows NT 5.1; .NET CLR 1.1.4322)	24.148.33.19
fedex+field	01.08.2009 21:27:59	http://www.google.com/search?hl=en&ei=QLN0Ssv-I9WvtgemuNmWCQ&sa=X&oi=spell&resnum=0&ct=result&cd=1&q=is+there+a+covered+area+at+fedex+field&spell=1	Mozilla/4.0 (compatible; MSIE 7.0; Windows NT 6.0; SLCC1; .NET CLR 2.0.50727; Media Center PC 5.0; .NET CLR 3.5.30729; .NET CLR 3.0.04506)	96.255.194.62
jonathan+campos	01.08.2009 21:28:13	http://www.google.com/search?hl=en&rlz=1R2ADFA_enUS338&q=Jonathan+Campos&aq=f&oq=&aqi=	Mozilla/4.0 (compatible; MSIE 8.0; Windows NT 5.1; Trident/4.0; GTB6; .NET CLR 1.1.4322; Zango 10.0.314.0)	68.231.204.129
gold+coast+art+fair+2009	01.08.2009 21:28:15	http://www.google.com/search?client=ms-rim&hl=en&q=gold%20coast%20art%20fair%20%20chicago%20&ie=UTF-8&channel=browser	BlackBerry9530/4.7.0.148 Profile/MIDP-2.0 Configuration/CLDC-1.1 VendorID/105	206.53.157.34
what+did+greg+mcmackin+say	01.08.2009 21:30:05	http://www.google.com/search?hl=en&safe=off&client=firefox-a&rls=org.mozilla%3Aen-US%3Aofficial&hs=Ws1&q=greg+mcmackin+what+did+he+say&aq=f&oq=&aqi=	Mozilla/5.0 (Windows; U; Windows NT 5.1; en-US; rv:1.9.0.12) Gecko/2009070611 Firefox/3.0.12	24.253.217.21
dallas+weather+radar	01.08.2009 21:30:30	http://www.google.com/search?client=firefox-a&rls=org.mozilla%3Aen-US%3Aofficial&channel=s&hl=en&q=national+weather+radar+dfw+area&btnG=Google+Search	Mozilla/5.0 (Windows; U; Windows NT 5.1; en-US; rv:1.9.0.12) Gecko/2009070611 Firefox/3.0.12	76.187.247.103
invicta+9212+men%E2%80%99s+gold+plated+stainless+steel+speedway+watch	01.08.2009 21:30:30	http://www.google.com/search?q=invicta+speedway+rose+gold+leather+strap&hl=en	Mozilla/4.0 (compatible; MSIE 6.0; Windows NT 5.1; SV1; .NET CLR 1.1.4322; .NET CLR 2.0.50727; .NET CLR 3.0.04506.30)	74.76.45.239
dallas+weather+radar	01.08.2009 21:30:31	http://www.google.com/search?client=firefox-a&rls=org.mozilla%3Aen-US%3Aofficial&channel=s&hl=en&q=national+weather+radar+dfw+area&btnG=Google+Search	Mozilla/5.0 (Windows; U; Windows NT 5.1; en-US; rv:1.9.0.12) Gecko/2009070611 Firefox/3.0.12	76.187.247.103
market+days+chicago+2009	01.08.2009 21:31:00	http://www.google.com/search?hl=en&client=firefox-a&rls=org.mozilla%3Aen-US%3Aofficial&hs=LEh&q=market+days+chicago+2009&aq=0z&oq=market+days+chi&aqi=g-z1g3	Mozilla/5.0 (Windows; U; Windows NT 6.1; en-US; rv:1.9.1.1) Gecko/20090715 Firefox/3.5.1 (.NET CLR 3.5.30729)	96.251.120.15
lughnasadh	01.08.2009 21:31:15	http://www.google.com/search?q=lughnasadh%2Bnames&rls=com.microsoft:en-us&ie=UTF-8&oe=UTF-8&startIndex=&startPage=1	Mozilla/4.0 (compatible; MSIE 8.0; Windows NT 5.1; Trident/4.0; FunWebProducts; .NET CLR 1.1.4322; .NET CLR 2.0.50727; .NET CLR 3.0.04506.30; .NET CLR 3.0.04506.648; .NET CLR 3.0.4506.2152; .NET CLR 3.5.30729; OfficeLiveConnector.1.3; OfficeLivePatch.0.0)	98.211.205.245
buick+open+tee+times	01.08.2009 21:31:24	http://www.google.com/search?hl=en&q=buick+open+tee+times+4th&aq=f&oq=&aqi=	Mozilla/5.0 (Macintosh; U; Intel Mac OS X 10_5_7; en-us) AppleWebKit/530.19.2 (KHTML, like Gecko) Version/4.0.2 Safari/530.19	24.11.49.75
kxas+weather	01.08.2009 21:31:37	http://www.google.com/search?hl=en&q=wbap+radio+doppler+radar&btnG=Google+Search&aq=o&oq=&aqi=	Mozilla/4.0 (compatible; MSIE 7.0; Windows NT 6.0; GoogleT5; SLCC1; .NET CLR 2.0.50727; .NET CLR 3.5.30729; .NET CLR 3.0.30618)	76.203.200.252
fedex+field	01.08.2009 21:31:50	http://www.google.com/search?hl=en&ei=HrR0Sv-bJJSltgeTxtGWCQ&sa=X&oi=spell&resnum=0&ct=result&cd=1&q=parking+at+fedex+field+for+concerts&spell=1	Mozilla/5.0 (Macintosh; U; Intel Mac OS X 10_4_11; en) AppleWebKit/530.19.2 (KHTML, like Gecko) Version/4.0.2 Safari/530.19	65.111.93.85
what+did+greg+mcmackin+say	01.08.2009 21:53:46	http://www.google.com/search?q=McMackin+slur+what+did+he+say&ie=utf-8&oe=utf-8&aq=t&rls=org.mozilla:en-US:official&client=firefox-a	Mozilla/5.0 (Windows; U; Windows NT 5.1; en-US; rv:1.9.0.12) Gecko/2009070611 Firefox/3.0.12	74.61.142.31
invicta+9212+men%E2%80%99s+gold+plated+stainless+steel+speedway+watch	01.08.2009 21:55:22	http://www.google.com/search?hl=en&q=invicta+9212+men%E2%80%99s+gold+plated+stainless+steel+speedway+watch&aq=3z&oq=Invic&aqi=g1g-z1g1g-z1g6	Mozilla/4.0 (compatible; MSIE 7.0; Windows NT 5.1; MS-RTC LM 8)	65.125.138.2
invicta+9212+men%E2%80%99s+gold+plated+stainless+steel+speedway+watch	01.08.2009 21:55:33	http://www.google.com/search?q=invecta+9212+gold+plated+watch&ie=utf-8&oe=utf-8&aq=t&rls=org.mozilla:en-US:official&client=firefox-a	Mozilla/5.0 (Windows; U; Windows NT 6.0; en-US; rv:1.9.0.12) Gecko/2009070611 Firefox/3.0.12 (.NET CLR 3.5.30729)	99.50.25.228
beach+to+beacon+2009	01.08.2009 21:55:48	http://www.google.com/search?hl=en&q=the+very+first+beach+to+beacon&aq=f&oq=&aqi=	Mozilla/4.0 (compatible; MSIE 6.0; Windows NT 5.1; SV1; .NET CLR 1.1.4322; .NET CLR 2.0.50727; .NET CLR 3.0.04506.30; .NET CLR 3.0.04506.648)	64.223.199.2
invicta+9212+men%E2%80%99s+gold+plated+stainless+steel+speedway+watch	01.08.2009 21:55:51	http://www.google.com/search?hl=en&q=Invicta+9212+Men%E2%80%99s+Gold+Plated+Stainless+Steel+Speedway+Watch+&aq=f&oq=&aqi=	Mozilla/4.0 (compatible; MSIE 7.0; Windows NT 5.1; .NET CLR 1.1.4322; InfoPath.1; .NET CLR 2.0.50727; .NET CLR 3.0.04506.30; .NET CLR 3.0.4506.2152; .NET CLR 3.5.30729)	76.208.15.2
invicta+9212+men%E2%80%99s+gold+plated+stainless+steel+speedway+watch	01.08.2009 21:55:57	http://www.google.com/search?rlz=1C1GGLS_enUS308US308&sourceid=chrome&ie=UTF-8&q=1+Invicta+9212+Men%E2%80%99	Mozilla/5.0 (Windows; U; Windows NT 6.0; en-US) AppleWebKit/530.5 (KHTML, like Gecko) Chrome/2.0.172.39 Safari/530.5	207.98.248.250
what+did+greg+mcmackin+say	01.08.2009 21:56:17	http://www.google.com/url?sa=t&source=web&ct=res&cd=12&url=http%3A%2F%2Fcomicsunlimited.com%2Fcomics%2Findex.php%3Fwhat%2Bdid%2Bgreg%2Bmcmackin%2Bsay&ei=g7l0Sv-DIZiCtgfYptGWCQ&rct=j&q=what+did+greg+mcmackin+say&usg=AFQjCNGV41wKWkTAJJ3qWFfr6ZAacJpquw	Mozilla/5.0 (Windows; U; Windows NT 5.1; en-US; rv:1.9.0.12) Gecko/2009070611 Firefox/3.0.12	173.48.100.224
buick+open+tee+times	01.08.2009 21:56:42	http://search.aol.com/aol/search?query=buick+open+tee+times+forth+round&s_it=keyword_rollover&c.userid=-8324559239914364211	Mozilla/4.0 (compatible; MSIE 7.0; AOL 9.1; AOLBuild 4334.5006; Windows NT 5.1; YPC 3.2.0; FunWebProducts; .NET CLR 1.1.4322)	64.12.116.208
sayville+summerfest	01.08.2009 21:56:46	http://www.google.com/search?q=sayville+chamber+of+commerce&hl=en&client=safari&rls=en-us&start=10&sa=N	Mozilla/5.0 (Macintosh; U; Intel Mac OS X 10_5_7; en-us) AppleWebKit/530.18 (KHTML, like Gecko) Version/4.0.1 Safari/530.18	24.47.45.57
what+did+greg+mcmackin+say	01.08.2009 21:56:49	http://www.google.com/search?hl=en&q=what+did+greg+mcmackin+say&aq=0z&oq=what+did+&aqi=g-z1g9	Mozilla/4.0 (compatible; MSIE 7.0; Windows NT 5.1)	64.13.88.131
lark+voorhies	01.08.2009 21:57:10	http://www.google.com/search?hl=en&safe=off&client=safari&rls=en-us&q=Lark+Voorhies+nude&aq=f&oq=&aqi=	Mozilla/5.0 (Macintosh; U; Intel Mac OS X 10_5_7; en-us) AppleWebKit/530.19.2 (KHTML, like Gecko) Version/4.0.2 Safari/530.19	86.26.238.197
[22:42:44] Hindu temples: [ ] E-Mail Verification finished.
[22:42:44] Hindu temples: [ ] Verifying finished (3 checks done)
[22:42:44] Hindu temples: [ ] Loaded 3/4 URLs from site lists
       Aspiration             : (UNASPIRATED/NATURAL/FAN/etc)
       Height Diff to Ant     : (m)
       Calibration date       : (CCYY-MM-DD)
       Effective Dates        : (CCYY-MM-DD/CCYY-MM-DD)
       Notes                  : (multiple lines)
./Film/Django_Unchained__2013
./Film/Duel
./Film/Firefly
what+did+greg+mcmackin+say	01.08.2009 19:10:13	http://www.google.com/search?q=what+did+Greg+McMackin+say%3F&ie=utf-8&oe=utf-8&aq=t&rls=org.mozilla:en-US:official&client=firefox-a	Mozilla/5.0 (Windows; U; Windows NT 5.1; en-US; rv:1.9.0.12) Gecko/2009070611 Firefox/3.0.12	67.177.115.1

8.3.x Temp. Sensor Model      : 
       Manufacturer           : 
       Serial Number          : 
       Data Sampling Interval : (sec)
       Accuracy               : (deg C)
       Aspiration             : (UNASPIRATED/NATURAL/FAN/etc)
       Height Diff to Ant     : (m)
       Calibration date       : (CCYY-MM-DD)
       Effective Dates        : (CCYY-MM-DD/CCYY-MM-DD)
       Notes                  : (multiple lines)

8.4.1 Water Vapor Radiometer  : 
       Manufacturer           : 
       Serial Number          : 
       Distance to Antenna    : 
       Height Diff to Ant     : 
       Calibration date       : 
10.x Date                     : (CCYY-MM-DD/CCYY-MM-DD)
     Event                    : (TREE CLEARING/CONSTRUCTION/etc)

11.  On-Site, Point of Contact Agency Information

     Agency                   : Florida Department of Transportation
     Preferred Abbreviation   : FLDOT
     Mailing Address          : 605 Suwannee Street
                              : Tallahassee, Florida 32399
     Primary Contact
       Contact Name           : Ron Hanson
       Telephone (primary)    : 850-414-4254 (office)
Package xcolor Info: Model `cmy' substituted by `cmy0' on input line 1348.
Package xcolor Info: Model `hsb' substituted by `rgb' on input line 1352.
Package xcolor Info: Model `RGB' extended on input line 1364.
Package xcolor Info: Model `HTML' substituted by `rgb' on input line 1366.
Package xcolor Info: Model `Hsb' substituted by `hsb' on input line 1367.
Package xcolor Info: Model `tHsb' substituted by `hsb' on input line 1368.
Package xcolor Info: Model `HSB' substituted by `hsb' on input line 1369.
Package xcolor Info: Model `Gray' substituted by `gray' on input line 1370.
Package xcolor Info: Model `wave' substituted by `hsb' on input line 1371.
) (/usr/local/texlive/2021/texmf-dist/tex/generic/pgf/basiclayer/pgfcore.code.tex
Package: pgfcore 2020/12/27 v3.1.8b (3.1.8b)
 (/usr/local/texlive/2021/texmf-dist/tex/generic/pgf/math/pgfmath.code.tex (/usr/local/texlive/2021/texmf-dist/tex/generic/pgf/math/pgfmathcalc.code.tex (/usr/local/texlive/2021/texmf-dist/tex/generic/pgf/math/pgfmathutil.code.tex) (/usr/local/texlive/2021/texmf-dist/tex/generic/pgf/math/pgfmathparser.code.tex
\pgfmath@dimen=\dimen194
\pgfmath@count=\count319
\pgfmath@box=\box59
File: pgfcorearrows.code.tex 2020/12/27 v3.1.8b (3.1.8b)
\pgfarrowsep=\dimen273
) (/usr/local/texlive/2021/texmf-dist/tex/generic/pgf/basiclayer/pgfcoreshade.code.tex
File: pgfcoreshade.code.tex 2020/12/27 v3.1.8b (3.1.8b)
\pgf@max=\dimen274
\pgf@sys@shading@range@num=\count322
\pgf@shadingcount=\count323
) (/usr/local/texlive/2021/texmf-dist/tex/generic/pgf/basiclayer/pgfcoreimage.code.tex
File: pgfcoreimage.code.tex 2020/12/27 v3.1.8b (3.1.8b)
 (/usr/local/texlive/2021/texmf-dist/tex/generic/pgf/basiclayer/pgfcoreexternal.code.tex
File: pgfcoreexternal.code.tex 2020/12/27 v3.1.8b (3.1.8b)
\pgfexternal@startupbox=\box63
)) (/usr/local/texlive/2021/texmf-dist/tex/generic/pgf/basiclayer/pgfcorelayers.code.tex
File: pgfcorelayers.code.tex 2020/12/27 v3.1.8b (3.1.8b)
) (/usr/local/texlive/2021/texmf-dist/tex/generic/pgf/basiclayer/pgfcoretransparency.code.tex
12:32:05 T:7432  NOTICE: Additional mode: 720x480@ 75.00 - Full Screen
what+did+greg+mcmackin+say	01.08.2009 21:07:30	http://www.google.com/search?hl=en&client=firefox-a&rls=org.mozilla%3Aen-US%3Aofficial&hs=MW1&q=hawaii+coach+comments+what+did+he+say&aq=f&oq=&aqi=	Mozilla/5.0 (Windows; U; Windows NT 6.0; en-US; rv:1.9.0.12) Gecko/2009070611 Firefox/3.0.12 (.NET CLR 3.5.30729)	98.27.48.146
what+did+greg+mcmackin+say	01.08.2009 21:08:24	http://www.google.com/search?q=what+did+greg+mcmackin+say&ie=utf-8&oe=utf-8&aq=t&rls=org.mozilla:en-US:official&client=firefox-a	Mozilla/5.0 (Windows; U; Windows NT 6.0; en-US; rv:1.9.0.12) Gecko/2009070611 Firefox/3.0.12	71.200.134.143
what+did+greg+mcmackin+say	01.08.2009 21:09:15	http://www.google.com/search?q=what+did+greg+mcmackin+say&ie=utf-8&oe=utf-8&aq=t&rls=org.mozilla:en-US:official&client=firefox-a	Mozilla/5.0 (Windows; U; Windows NT 6.0; en-US; rv:1.9.0.12) Gecko/2009070611 Firefox/3.0.12	71.200.134.143
market+days+chicago+2009	01.08.2009 21:09:29	http://www.google.com/search?hl=en&q=market+days+chicago+2009&aq=0z&oq=market+days+ch&aqi=g-z1g4	Mozilla/4.0 (compatible; MSIE 7.0; Windows NT 6.0; SLCC1; .NET CLR 2.0.50727; .NET CLR 3.0.04506)	69.249.228.113
buick+open+tee+times	01.08.2009 21:09:42	http://www.google.com/search?q=player+pairings+%22buick+open%22+&ie=utf-8&oe=utf-8&aq=t&rls=org.mozilla:en-US:official&client=firefox-a	Mozilla/5.0 (Macintosh; U; Intel Mac OS X 10.5; en-US; rv:1.9.0.12) Gecko/2009070609 Firefox/3.0.12	75.38.28.241
	at com.vaadin.server.ServerRpcManager.applyInvocation(ServerRpcManager.java:155) ~[vaadin-server-8.9.4.jar:8.9.4]
	... 111 more
	at info.magnolia.cms.filters.MgnlFilterChain.doFilter(MgnlFilterChain.java:81) [magnolia-core-6.2.3.jar:?]
12:32:06 T:7988   DEBUG: AddOnLog: Tvheadend HTSP Client: pvr.hts - received response [1]
Sushi:   Line: 17                                                                (04:23.454)
Sushi: warn  Sliced element Library.useContext is being accessed via numeric index. Use slice names in rule paths when possible. (04:23.454)
Sushi:   File: /scratch/ig-build-temp-JHXSGN/repo/input/fsh/instances/us-ph-supplemental-library-example.fsh (04:23.454)
    + add [optional, property] boolean Wildcards, (tdf#72196) [Eike Rathke]
    + add a "filter" to Insert > Field > Other > Cross reference tab (tdf#32364) [akki95]
    + add a comment about user defined IDs [Eike Rathke]
12:32:05 T:2676   DEBUG:   Sample Rate   : 44100
 Range cuts        :  gamma  700 um     e-  700 um     e+  700 um  proton 700 um 
 Energy thresholds :  gamma  2.40367 keV    e-  307.625 keV    e+  299.466 keV proton 70 keV
 Region(s) which use this couple : 
tdf#115968 CMIS: various protocol handling problems & incompatibilities [Andreas Brandner]
[22:42:35] Mortgage T1: [+] 0840/1000 unknown registration status - http://www.rafes.gr/index.php/joomla-pages-ii/user-registration
ofz#3005 timeout [Caolán McNamara]
ofz#3032 timeout [Caolán McNamara]
Preserve hard links (FEATURE_PRESERVE_HARDLINKS) [Y/n/?] y
*
Sushi:   Line: 13                                                                (04:23.742)
Sushi: warn  Sliced element Observation.component is being accessed via numeric index. Use slice names in rule paths when possible. (04:23.742)
 PROC_COUNT Li4 : ALL = 3
mkswap (MKSWAP) [Y/n/?] y
  UUID support (FEATURE_MKSWAP_UUID) [N/y/?] n
21:38:12 T:139832867932032  NOTICE:         m_deviceType      : AE_DEVTYPE_HDMI
[22:42:47] Hindu temples: [-] 0581/8054 download failed (Return: -) - https://insideoutofmyhead.wordpress.com
[22:42:48] Amazon: [+] 3702/7825 new URL - http://ed.gotway.com/?page_id=181
--------------------------------------------------------------------------------
Initializing featurizer...
Activated AlignmentScore featurizer
Activated Alignment featurizer
Activated AdjectiveGradation featurizer
petty+officer+jonathan+campos	01.08.2009 18:20:24	http://www.google.com/search?client=safari&rls=en-us&q=Petty+Officer+Jonathan+Campos&ie=UTF-8&oe=UTF-8	Mozilla/5.0 (Macintosh; U; Intel Mac OS X; en-us) AppleWebKit/523.10.3 (KHTML, like Gecko) Version/3.0.4 Safari/523.10	74.104.151.185
-- [download 78% complete]
tdf#115530 Conditional formatting isn't updated when formula is updated (XLSX) [Markus Mohrhard]
tdf#115554 Files in Debian packages have wrong owner [michael.weghorn, Michael Weghorn]
tdf#115565 Unable to use keyboard to move to previous or next toolbox item when Sidebar Navigator deck GotoPage control has focus [Jim Raykowski]
Make tar, rpm, modprobe etc understand .xz data (FEATURE_SEAMLESS_XZ) [N/y/?] n
Make tar, rpm, modprobe etc understand .lzma data (FEATURE_SEAMLESS_LZMA) [N/y/?] n
Make tar, rpm, modprobe etc understand .bz2 data (FEATURE_SEAMLESS_BZ2) [N/y/?] n
Make tar, rpm, modprobe etc understand .gz data (FEATURE_SEAMLESS_GZ) [N/y/?] n
Make tar, rpm, modprobe etc understand .Z data (FEATURE_SEAMLESS_Z) [N/y/?] n
US Core Comparison: compare StructureDefinition[http://hl7.org/fhir/us/ph-library/StructureDefinition/us-ph-travel-history|1.0.0] to StructureDefinition[http://hl7.org/fhir/us/core/StructureDefinition/us-core-body-temperature|6.1.0]
  Enable -m/-M (FEATURE_LESS_FLAGS) [Y/n/?] y
File: color.cfg 2016/01/02 v1.6 sample color configuration
)
2016-02-23 15:45:25,533  INFO Injector:68 org.matsim.lanes.data.v20.Lanes 
2016-02-23 15:45:25,533  INFO Injector:69    -> @Provides org.matsim.core.scenario.ScenarioByInstanceModule.provideLanes(ScenarioByInstanceModule.java:66)
<09:24AM tasm> unusual


You are running SAS 9. Some SAS 8 files will be automatically converted 
by the V9 engine; others are incompatible.  Please see 
http://support.sas.com/rnd/migration/planning/platform/64bit.html
friendship+quotes	01.08.2009 19:11:17	http://www.google.co.in/search?hl=en&ei=G5B0Sr7wGpKYkQWLwcmfDA&sa=X&oi=spell&resnum=0&ct=result&cd=1&q=friendship+day+betrayal+quotes&spell=1	Mozilla/5.0 (Windows; U; Windows NT 5.1; en-US; rv:1.9.0.12) Gecko/2009070611 Firefox/3.0.12	202.63.109.89
command	14-Jul-2020 09:19:49	Substituting variable: ${bamboo.buildNumber} with 16
simple	14-Jul-2020 09:19:49	Starting task 'Setting Build Version' of type 'org.jfrog.bamboo.bamboo-artifactory-plugin:maven3Task'
simple	14-Jul-2020 09:19:49	Usage info sent successfully.
simple	14-Jul-2020 09:19:49	Bamboo Artifactory Plugin version: 3.0.1
error	14-Jul-2020 09:19:49	Unable to find executable at cmd.exe. Will try to run it anyway.
 One-electron integrals computed using PRISM.
 NBasis=    19 RedAO= T  NBF=    10     1     3     5
12:32:06 T:7432 WARNING: JSONRPC: Could not parse type "PVR.Details.ChannelGroup.Extended"
12:32:06 T:7432    INFO: JSONRPC: Adding type "PVR.Details.ChannelGroup.Extended" to list of incomplete definitions (waiting for "PVR.Details.Channel")
12:32:05 T:7432   DEBUG: ADDON: cpluff: 'Plug-in audiodecoder.nosefart has been installed.'
HL2	ALABAMA	STOCKTON HUBBARD LANDING SPB	afd	se_40_25OCT2007.png
SCD	ALABAMA	MERKEL FLD SYLACAUGA MUNI	afd	se_40_25OCT2007.png
ASN	ALABAMA	TALLADEGA MUNI	afd	se_41_25OCT2007.png
simple	14-Jul-2020 09:19:43	Creating local git repository in 'D:\BambooAgent\xml-data\build-dir\EPDG-EPWBD-JOB1\.git'.
simple	14-Jul-2020 09:19:43	Initialized empty Git repository in D:/BambooAgent/xml-data/build-dir/EPDG-EPWBD-JOB1/.git/
TNW	ALASKA	FAREWELL LAKE TIN CREEK	afd	al_80_25OCT2007.png
3Z1	ALASKA	FEATHER RIVER	afd	al_80_25OCT2007.png
FVM	ALASKA	FIVE MILE	afd	al_81_25OCT2007.png
FLT	ALASKA	FLAT	afd	al_81_25OCT2007.png
FYU	ALASKA	FORT YUKON	afd	al_82_25OCT2007.png
FHR	ALASKA	FRIDAY HARBOR	afd	al_82_25OCT2007.png
FNR	ALASKA	FUNTER BAY SEAPLANE	afd	al_83_25OCT2007.png
GBH	ALASKA	GALBRAITH LAKE	afd	al_83_25OCT2007.png
GAL	ALASKA	GALENA EDWARD G. PITKA SR	afd	al_84_25OCT2007.png
GAM	ALASKA	GAMBELL	afd	al_85_25OCT2007.png
AQY	ALASKA	GIRDWOOD	afd	al_85_25OCT2007.png
KGZ	ALASKA	GLACIER CREEK	afd	al_86_25OCT2007.png
N93	ALASKA	GOLOVIN	afd	al_86_25OCT2007.png
GNU	ALASKA	GOODNEWS	afd	al_87_25OCT2007.png
Z40	ALASKA	GOOSE BAY	afd	al_87_25OCT2007.png
GSZ	ALASKA	GRANITE MOUNTAIN AS	afd	al_87_25OCT2007.png
Tacoma	ALASKA	GRAY AAF	afd	al_88_25OCT2007.png
KGX	ALASKA	GRAYLING	afd	al_88_25OCT2007.png
GKN	ALASKA	GULKANA	afd	al_89_25OCT2007.png
GST	ALASKA	GUSTAVUS	afd	al_89_25OCT2007.png
HNS	ALASKA	HAINES	afd	al_90_25OCT2007.png
3Z9	ALASKA	HAINES SEAPLANE	afd	al_90_25OCT2007.png
CYHT	ALASKA	HAINES JUNCTION 	afd	al_90_25OCT2007.png
4Z2	ALASKA	UPPER HANNUM CREEK	afd	al_91_25OCT2007.png
HAY	ALASKA	HAYCOCK	afd	al_91_25OCT2007.png
HRR	ALASKA	HEALY RIVER	afd	al_92_25OCT2007.png
AK33	ALASKA	HERENDEEN BAY	afd	al_92_25OCT2007.png
HYL	ALASKA	HOLLIS SEAPLANE	afd	al_93_25OCT2007.png
HCA	ALASKA	HOLY CROSS	afd	al_93_25OCT2007.png
HOM	ALASKA	HOMER	afd	al_94_25OCT2007.png
\leftroot@=\count198
LaTeX Info: Redefining \overline on input line 399.
\classnum@=\count199
\DOTSCASE@=\count266
LaTeX Info: Redefining \ldots on input line 496.
PROC_CREATOR_COUNT N15 : dInelastic = 1
PROC_CREATOR_COUNT N15 : hadElastic = 1
  <answer>?</answer>
       Accuracy               : (hPa)
       Height Diff to Ant     : (m)
       Calibration date       : (CCYY-MM-DD)
[     48813] [    GTAProcess]             MainThrd/ rage::gameSkeleton::RunInitFunctions: Invoking camManager INIT_CORE init (12 out of 21)
[     48813] [    GTAProcess]             MainThrd/ rage::gameSkeleton::RunInitFunctions: Invoking CDLCScript INIT_CORE init (13 out of 21)
Load Package hl7.terminology.r4#3.1.0
Installing hl7.fhir.uv.bulkdata#2.0.0 to the package cache
 PROC_COUNT C11 : Transportation = 141209
 PROC_COUNT C11 : ALL = 141209
 PROC_COUNT C12 : Transportation = 2465953
remove-shell (REMOVE_SHELL) [N/y/?] n
addgroup (ADDGROUP) [Y/n/?] y
{"jobId":"JoinPrivateGame:PlaceId=4996049426&AccessCode=df63cb48-6c59-4b3c-b945-a9bd6dc15df7","status":0,"joinScriptUrl":null,"authenticationUrl":null,"authenticationTicket":null,"message":null,"joinScript":null}
./JeuxVideos/Final_Fantasy/FF9/Piano%20Collections
[   1957593] rage::gameSkeleton::RunInitFunctions: Invoking CPed INIT_AFTER_MAP_LOADED init (6 out of 29)
[18/Jun/2019:19:43:09] (ℹ️): [PLUGIN] reSmush.it Image Optimizer : v0.1.22 (reSmush.it)
[18/Jun/2019:19:43:09] (ℹ️): [PLUGIN] Slider Revolution : v5.4.7.1 (ThemePunch)
tdf#115451 Sidebar focus becomes hidden on deck change [Jim Raykowski]
tdf#115453 Confusion on the Impress Views Tab Bar: UI [Álex Puchades]
socorro+caro	01.08.2009 17:17:16	http://www.google.com/search?hl=en&q=socorro+caro&aq=f&oq=&aqi=g-z1g9	Mozilla/4.0 (compatible; MSIE 6.0; Windows NT 5.1; SV1; .NET CLR 1.1.4322; .NET CLR 2.0.50727; .NET CLR 3.0.04506.30; InfoPath.1)	170.35.224.63
charlene+yi	01.08.2009 17:17:41	http://www.google.com/search?q=jillian+tamaki&hl=en&lr=&client=news&tbs=qdr:d&start=10&sa=N	Mozilla/5.0 (Macintosh; U; PPC Mac OS X 10_4_11; en) AppleWebKit/525.27.1 (KHTML, like Gecko) Version/3.2.1 Safari/525.27.1	74.73.109.151
tim+hack+and+kelly+drew	01.08.2009 19:30:28	http://www.google.com/search?hl=en&client=firefox-a&rls=org.mozilla%3Aen-US%3Aofficial&hs=ALf&q=Tim+Hack+and+Kelly+Drew+picture&aq=f&oq=&aqi=	Mozilla/5.0 (Windows; U; Windows NT 6.0; en-US; rv:1.9.0.11) Gecko/2009060215 Firefox/3.0.11	76.170.153.15
what+did+greg+mcmackin+say	01.08.2009 19:30:31	http://www.google.com/search?hl=en&q=what+did+greg+mcmackin+say&aq=f&oq=&aqi=	Mozilla/5.0 (Windows; U; Windows NT 5.1; en-US; rv:1.9.0.12) Gecko/2009070611 Firefox/3.0.12	98.196.231.73
[22:42:48] Mesothelioma: [+] 0535/7981 matches engine Wordpress Article - http://homecoming.journalism.cuny.edu/2012/05/14/map/
tdf#113197 FILEOPEN: EMF+ Incorrect lines' height [Armin Le Grand]
tdf#113239 UI Spin button field for Column spacing (in Sections / Page styles) changes with 0,01 cm :) [brian houston morrow]
tdf#113258 FILEOPEN: Text in shape in a docx document is misplaced (partially cut) when opening in LO [Miklos Vajna]
tdf#113275 Last line drop down and expand single word check box should only be show active for Justified [Jim Raykowski]
tdf#113284 Crash opening index dialog [Zdeněk Crhonek]
tdf#113377 Crash in: OpenGLContext::AcquireFramebuffer(OpenGLTexture const &) [Miklos Vajna]
tdf#113413 LibO hangs at the JRE Required dialog when creating a New Database [Michael Stahl]
tdf#113455 Impossible to clear "Width/Height in pages" after converting "Page style" sheet to Widget UI [Mike Kaganski]
tdf#113481 EDITING: it takes multiple backspace to delete one ideographic variation sequence [Mark Hung]
tdf#113558 Replace 'AutoFormat' button with table style listbox in insert table dialog [Gabor Kelemen, Furkan Tokac, heiko tietze]
tdf#113572 Copying a chart converts data ranges to data table [Vasily Melenchuk]
tdf#114477 Can't set character highlighting on a text box using sidebar highlighting icon. [Tamás Zolnai]
tdf#114488 EDITING: Writer is showing a low res image when copy/pasting a WMF image from Draw to Writer [Samuel Mehrbrodt]
tdf#114495 CRASH: A control of tables 'grid' inside a form gives me an error [Julien Nabet]
tdf#114523 Make inline tooltip for track changes optional [heiko tietze]
tdf#114525 WIKIHELP: Help <F1> and Help button in Conditional Formatting dialogs give empty page [Gabor Kelemen]
tdf#114536 Crash on layout of specific document [Miklos Vajna]
tdf#114550 OpenPGP decryption does not work [Thorsten Behrens]
tdf#114552 Improve image anchoring in Calc [Samuel Mehrbrodt]
tdf#114555 Calc does not give warning when opening file containing a sheet with more than 1024 columns [Eike Rathke]
tdf#114596 External forms for a database doesn't save data - closing form with dataloss [Michael Stahl]
tdf#114603 do not highlights text field Range with not correct range in dialogue "Conditional formatting for" [tagezi]
tdf#114613 Repair function does not work after opening PPTX file [Tamás Zolnai]
tdf#114622 add static list of available Native Numbering entries, for example Persian / Arabic-Indic / Hindi numbers [Suhail Alkowaileet]
tdf#114635 In Writer 5.4.3.2 (x64)- Scanners not recognized [Mike Kaganski]
tdf#114648 When creating any new document from LibreOffice OSX Dock icon, new document window doesn't get focus ( steps in comment 4 ) [Caolán McNamara]
tdf#114664 The paragraph style is lost after delete and undo [Mark Hung]
tdf#114677 Base Form titles incorrect [Szymon Kłos]
tdf#114681 No support for Glagolitic in LibreOffice [Aleksandr Andreev]
tdf#114684 Entering invalid print range (with two hyphenated numbers greater than max page number) prints last page [Mike Kaganski]
LaTeX Font Info:    Checking defaults for OMS/cmsy/m/n on input line 90.
LaTeX Font Info:    ... okay on input line 90.
LaTeX Font Info:    Checking defaults for OT1/cmr/m/n on input line 90.
LaTeX Font Info:    ... okay on input line 90.
LaTeX Font Info:    Checking defaults for T1/cmr/m/n on input line 90.
     7  O    2.173265   3.366973   3.366973   3.720844   2.173265
ciMethod com/android/dx/cf/cst/ConstantPoolParser parseUtf8 (I)Lcom/android/dx/rop/cst/CstString; 1537 1 7368 0 -1
ciMethod com/android/dx/rop/cst/Constant <init> ()V 4097 1 21698 0 0
ciMethod com/android/dx/rop/cst/Constant isCategory2 ()Z 0 0 1 0 -1
ciMethod com/android/dx/rop/cst/CstString <init> (Lcom/android/dx/util/ByteArray;)V 3905 1 7368 0 -1
ciMethod com/android/dx/rop/cst/CstString getString ()Ljava/lang/String; 2465 1 308 0 0
21:38:12 T:139832867932032    INFO: ID:0x114 Name:1024x768 Refresh:60.003841 Width:1024 Height:768
21:38:12 T:139832867932032    INFO: Pixel Ratio: 1.199074
21:38:12 T:139832867932032    INFO: ID:0x115 Name:800x600 Refresh:75.000000 Width:800 Height:600
\lst@newlines=\count192
\lst@lineno=\count193
\lst@maxwidth=\dimen142
 (/usr/local/texlive/2021/texmf-dist/tex/latex/listings/lstmisc.sty
File: lstmisc.sty 2020/03/24 1.8d (Carsten Heinz)
\c@lstnumber=\count194
\lst@skipnumbers=\count195
\lst@framebox=\box48
) (/usr/local/texlive/2021/texmf-dist/tex/latex/listings/listings.cfg
File: listings.cfg 2020/03/24 1.8d listings configuration
))
Package: listings 2020/03/24 1.8d (Carsten Heinz)
 (/usr/local/texlive/2021/texmf-dist/tex/latex/amsmath/amsmath.sty
Package: amsmath 2020/09/23 v2.17i AMS math features
\@mathmargin=\skip49

For additional information on amsmath, use the `?' option.
(/usr/local/texlive/2021/texmf-dist/tex/latex/amsmath/amstext.sty
Package: amstext 2000/06/29 v2.01 AMS text
 (/usr/local/texlive/2021/texmf-dist/tex/latex/amsmath/amsgen.sty
File: amsgen.sty 1999/11/30 v2.0 generic functions
\@emptytoks=\toks19
\ex@=\dimen143
)) (/usr/local/texlive/2021/texmf-dist/tex/latex/amsmath/amsbsy.sty
Package: amsbsy 1999/11/29 v1.2d Bold Symbols
\pmbraise@=\dimen144
) (/usr/local/texlive/2021/texmf-dist/tex/latex/amsmath/amsopn.sty
Package: amsopn 2016/03/08 v2.02 operator names
)
\inf@bad=\count196
