staticfield java/lang/Integer DigitTens [C 100
ciInstanceKlass java/lang/reflect/Parameter 0 0 215 10 9 9 9 9 9 9 100 10 10 10 100 10 10 11 10 10 10 10 10 8 8 10 10 10 8 10 8 10 10 10 10 10 10 10 10 10 10 11 10 100 10 10 10 10 10 9 100 10 11 11 100 100 1 1 1 1 1 1 1 1 1 1 1 1 1 1 1 1 1 1 1 1 1 1 1 100 1 1 1 1 1 1 100 100 100 1 1 1 1 1 1 1 1 1 100 1 1 1 1 1 1 1 1 1 1 1 1 1 1 1 1 1 1 100 1 1 1 12 12 12 12 12 12 12 1 12 12 100 12 1 12 100 12 12 100 12 12 12 12 1 1 100 12 12 12 1 1 12 12 12 12 12 12 12 100 12 12 100 12 100 12 1 100 12 12 12 12 12 12 1 12 12 1 1 1 1 1 1 1 1 1 1 1 1 1 1 1 1 1 1 1 1 1 1 1 1 1 1 1 1 1 1 1 1 1 1 1 1 1 1 1 1 1
tim+hack+and+kelly+drew	01.08.2009 23:24:57	http://search.hp.my.aol.com/aol/search?invocationType=enus-mh-1_-hp-ws-cn-dt-le&query=Timothy+Hack+and+Kelly+Drew+pictures	Mozilla/4.0 (compatible; MSIE 7.0; Windows NT 6.0; WOW64; SLCC1; .NET CLR 2.0.50727; Media Center PC 5.0; .NET CLR 3.0.30618; .NET CLR 3.5.30729)	97.117.153.145
bullet+express	01.08.2009 23:25:13	http://www.google.com/search?q=bullet%20express%20mixer&hl=en&rlz=1G1GGLQ_ENUS287&output=search&tbs=qdr:d&tbo=1	Mozilla/5.0 (Windows; U; Windows NT 5.1; en-US; rv:1.9.0.12) Gecko/2009070611 Firefox/3.0.12	99.170.110.170
bullet+express	01.08.2009 23:25:32	http://www.google.ca/search?q=bullet+applicance+informercial&hl=en&start=10&sa=N	Mozilla/4.0 (compatible; MSIE 7.0; Windows NT 6.0; SLCC1; .NET CLR 2.0.50727; .NET CLR 3.0.04506; .NET CLR 1.1.4322; InfoPath.2)	99.241.56.235
market+days+chicago+2009	01.08.2009 23:26:13	http://www.google.com/m/search?oe=UTF-8&client=safari&hl=en&q=market+days+chicago	Mozilla/5.0 (iPhone; U; CPU iPhone OS 3_0 like Mac OS X; en-us) AppleWebKit/528.18 (KHTML, like Gecko) Version/4.0 Mobile/7A341 Safari/528.16	99.135.190.224
what+did+greg+mcmackin+say	01.08.2009 23:26:27	http://www.google.com/url?sa=t&source=web&ct=res&cd=12&url=http%3A%2F%2Fcomicsunlimited.com%2Fcomics%2Findex.php%3Fwhat%2Bdid%2Bgreg%2Bmcmackin%2Bsay&ei=us50SvS8LIK4NYqw-bAM&rct=j&q=what+did+greg+mcmackin+say&usg=AFQjCNGV41wKWkTAJJ3qWFfr6ZAacJpquw&sig2=kMfPPCIk_pa2BiHQzYKFoQ	Mozilla/5.0 (Macintosh; U; Intel Mac OS X 10.4; en-US; rv:1.9.0.12) Gecko/2009070609 Firefox/3.0.12	98.209.20.44
2021-10-26T21:52:27.824Z,98.824211,ab3bf380,6 [FLog::LocalStorage] LocalStorage flushing (blocking)
2021-10-26T21:52:27.829Z,98.829781,ab3bf380,6 [FLog::LocalStorage] LocalStorage writing to file: /Users/studioagain/Library/Roblox/LocalStorage/memProfStorage11138.json
build	14-Jul-2020 09:19:57	  <testOutputDirectory default-value="${project.build.testOutputDirectory}"/>
