[22:42:47] Precious metals: [-] 0107/8003 download failed (Return: -) - https://dragomanov.fio.npu.edu.ua/index.php/ecscursion
[22:42:47] Mesa DUI lawyer: [-] 8189/8413 download failed (Return: -) - http://lorenzooxcgm.tribunablog.com/how-much-you-need-to-expect-you-ll-pay-for-a-good-happiness-guide-4037230
[22:42:47] Mesothelioma: [+] 0534/7981 registration successful - http://data.agaric.com/?q=node/add
[22:42:48] Agriculture: [-] 0012/7854 download failed (Return: -) - http://www.icanmakeitvegan.com/taco-salad/
[22:42:48] Hollywood: [-] 8231/8544 download failed (Return: -) - http://www.curier.ro
[22:42:48] Insurance: [-] 8222/8261 download failed (Return: -) - http://kckiaikido.com/?s=%5B%EC%95%84%EC%82%B0%EC%B6%9C%EC%9E%A5%EC%83%B5%5D+%E3%80%8E%EF%BB%BF%EC%B9%B4%ED%86%A1spw78%E3%80%8F+%E3%80%96%D1%88%D1%80f636.%D1%81%D0%BE%D0%BC%E3%80%97+%E3%80%9624%EC%8B%9C%EC%B6%9C http://kckiaikido.com/?s=%5B%EC%95%84%EC%82%B0%EC%B6%9C%EC%9E%A5%EC%83%B5%5D+%E3%80%8E%EF%BB%BF%EC%B9%B4%ED%86%A1spw78%E3%80%8F+%E3%80%96%D1%88%D1%80f636.%D1%81%D0%BE%D0%BC%E3%80%97+%E3%80%9624%EC%8B%9C%EC%B6%9C%EC%9E%A5%EC%83%B5%E3%80%97%E2%96%AB%EC%95%8
[22:42:48] Injury Lawyers T2: [-] 3908/8161 download failed (Return: -) - http://philippineconsulate.ie
[22:42:48] Mortgage: [-] 7946/8168 download failed (Return: -) - http://www.ishaanrawat.com/install-emmet-sublime-text-3/
[22:42:48] Computer: [-] 0321/8028 download failed (Return: -) - https://printzproject.wordpress.com/
[22:42:48] Injury Lawyers: [-] 7881/7969 download failed (Return: -) - http://juliefainlawrence.com/?p=237
[22:42:48] Hindu temples: [-] 0583/8054 download failed (Return: -) - http://sos.marketing/staff-photography/
[22:42:48] Car Insurance T2: [-] 3381/8966 download failed (Return: -) - http://ourcheapvacations.com/cancun-vacation
[22:42:48] Mesothelioma T1: [-] 0220/8853 download failed (Return: -) - https://dinkes.riau.go.id
[22:42:48] Agriculture T1: [-] 0907/1000 download failed (Return: -) - https://cdersleri.kursistem.com
[22:42:48] Sai: [-] 8097/8249 no engine matches - http://thegrittypearl.com/
[22:42:48] Health: [+] 8194/8339 registration successful - https://accidentdatacenter.com/node/add
[22:42:48] Car Insurance: [-] 4204/8012 no form at all - http://www.guardianms.com/?q=user
[22:42:48] Web Design T2: [-] 4926/8453 download failed (Return: -) - https://www.kellimurray.com/
[22:42:48] Mesothelioma: [ ] 0535/7981 waiting 6 seconds to not spam. http://blogs.journalism.cuny.edu/wp-login.php?redirect_to=http%3A%2F%2Fblogs.journalism.cuny.edu%2Fwp-admin%2F&reauth=1
[22:42:48] Agriculture T2: [-] 3875/8565 download failed (Return: -) - https://www.dailypublications.org/losing-weight.html
[22:42:48] Amazon: [+] 3702/7825 login successful - http://ed.gotway.com/?page_id=181
[22:42:48] Internet VOIP: [-] 0130/8096 download failed (Return: -) - http://vandenplasprincess.cocolog-nifty.com/vanplatohoho/2011/03/1100club-japan.html
[22:42:48] Forex: [-] 7895/7985 download failed (Return: -) - http://www.chillofy.com/strategic-use-of-images-in-seo/
[22:42:48] Hollywood: [-] 8232/8544 download failed (Return: -) - http://genuityworld.com/
[22:42:48] Digital Marketing: [-] 0141/7912 download failed (Return: -) - http://guysaperstein.com/?p=14
[22:42:48] Make money online: [-] 7832/8047 download failed (Return: -) - http://www.search4sex.biz/cgi-bin/catalog.cgi?cmd=pages&page=221563815695362_1483078667
[22:42:48] Win News Time: [-] 7754/7826 download failed (Return: -) - http://contagiousyarning.wordpress.com/
[22:42:48] Structured Settlement: [-] 8359/8547 download failed (Return: -) - http://www.myfamilysurvivalplan.com/prepare-your-mind-for-the-coming-crisis-part-6/
[22:42:48] Cooking TIPS: [-] 0207/7845 download failed (Return: -) - http://www.iabrasive.com/blog/abrasives-foreign-trade-seo-dos-donts-part-ii/
[22:42:48] Injury Lawyers: [-] 7882/7969 download failed (Return: -) - http://www.cybercpr.com/contact-us/
[22:42:48] Mesothelioma T1: [-] 0221/8853 download failed (Return: -) - http://cardiffstudentmedia.co.uk/quench/music/album-review-chet-faker-built-glass/
[22:42:48] Travels: [-] 8131/8261 download failed (Return: -) - http://imchg.hosting.paran.com/zbxe/1756
[22:42:48] Dwi Attorney: [-] 2919/7988 download failed (Return: -) - http://software-for-parents.downloads.filetransit.com
