2021-10-26T21:51:33.060Z,44.060722,ab3bf380,6 [FLog::Graphics] LayeredClothingMode updated: LC=0 SkeletonAPI=1 HSR=0 TC2=0
2021-10-26T21:51:33.482Z,44.482304,4231000,6 [FLog::GameJoinUtil] GameJoinUtil::makePlaceLauncherRequestForTeleport, response:
{"jobId":"JoinPrivateGame:PlaceId=4996049426&AccessCode=405cc706-a41d-4d4f-b250-4b6784555e4e","status":0,"joinScriptUrl":null,"authenticationUrl":null,"authenticationTicket":null,"message":null,"joinScript":null}

 **********************************************************************

 Orbital symmetries:
       Occupied  (A1) (A1) (B2) (A1) (B1)
-- [download 61% complete]
-- [download 62% complete]
-- [download 63% complete]
