[      3485] [    GTAProcess]             MainThrd/ pre-gameload component citizen:scripting:lua54
[      3485] [    GTAProcess]             MainThrd/ pre-gameload component devtools:five
HOT	ARKANSAS	HOT SPRINGS MEMORIAL FLD	afd	sc_21_25OCT2007.png
H34	ARKANSAS	HUNTSVILLE MUNI	afd	sc_21_25OCT2007.png
JBR	ARKANSAS	JONESBORO MUNI	afd	sc_22_25OCT2007.png
3M0	ARKANSAS	LAKEVIEW GASTONS	afd	sc_22_25OCT2007.png
M32	ARKANSAS	LAKE VILLAGE MUNI	afd	sc_22_25OCT2007.png
2021-10-26T21:50:50.035Z,1.035588,ab3bf380,6 [FLog::Output] hello from a happy cactus (:
[22:42:46] Mesothelioma: [-] 0533/7981 no form at all - http://www.furlongsolutions.com/?q=user
yours+mine+and+ours+1968	01.08.2009 20:11:50	http://www.google.com/search?sourceid=ie7&q=north-beardsley+family+album&rls=com.microsoft:en-us:IE-Address&ie=UTF-8&oe=UTF-8&rlz=1I7TSHB_en___US334	Mozilla/4.0 (compatible; MSIE 8.0; Windows NT 6.0; Trident/4.0; GTB6; SLCC1; .NET CLR 2.0.50727; .NET CLR 3.5.30729; .NET CLR 3.0.30618)	71.101.8.242
mardomak	01.08.2009 20:12:16	http://www.google.ca/search?hl=en&q=mardomak+blog&meta=&aq=f&oq=	Mozilla/4.0 (compatible; MSIE 7.0; Windows NT 6.0; SLCC1; .NET CLR 2.0.50727; Media Center PC 5.0; .NET CLR 3.0.04506; .NET CLR 1.1.4322)	99.253.218.190
friendship+quotes	01.08.2009 20:12:29	http://www.google.co.in/search?q=friendship+quotes+glitter+graphics&hl=en&rlz=1T4ADFA_enIN337IN337&start=30&sa=N	Mozilla/4.0 (compatible; MSIE 6.0; Windows NT 5.1; SV1; GTB6)	125.99.105.156
fedex+field	01.08.2009 20:12:30	http://www.google.com/search?hl=en&client=firefox-a&channel=s&rls=org.mozilla%3Aen-US%3Aofficial&hs=pb0&q=fedex+parking+included+with+concert+ticket%3F++where%3F&btnG=Search&aq=f&oq=&aqi=	Mozilla/5.0 (Macintosh; U; PPC Mac OS X 10.4; en-US; rv:1.9.0.11) Gecko/2009060214 Firefox/3.0.11	69.140.150.73
buick+open+tee+times	01.08.2009 20:13:24	http://www.google.co.uk/search?hl=en&q=buick+invitational+3rd+round+tee+off+times&btnG=Search&meta=	Mozilla/4.0 (compatible; MSIE 7.0; Windows NT 6.0; SLCC1; .NET CLR 2.0.50727; Media Center PC 5.0; .NET CLR 3.5.30729; .NET CLR 3.0.30618)	82.35.224.190
