    + -Werror,-Wnon-virtual-dtor [Stephan Bergmann]
    + -Werror,-Woverloaded-virtual [Stephan Bergmann]
    + -Werror,-Wreorder [Stephan Bergmann]
    + -Werror,-Wreorder (clang-cl) [Stephan Bergmann]
    + -Werror,-Wshadow [Stephan Bergmann]
2016-02-23 15:45:25,652  INFO ControlerListenerManagerImpl:107 calling notifyStartup on org.matsim.analysis.ScoreStatsControlerListener
1991-015     1991 Mar  2 2336:00  1991-015A      Astra 1B                       Astra 1B                  S21139  Ariane 44LP            V42              CSG ELA2                 0.0
<10:31AM cavalier> UGH. GUYS. YOU NEED TO MSG ME WITH "XDCC SEND #1". THEN TYPE "DCC GET CAVALIER" IN ORDER TO GET THE FILES.
<10:31AM CNN_news> CNN is now in "commercial" mode *gag*
<10:32AM CNN_news> *drees* any info on the redondo beach area?
(WildEep/#earthquake) 1st hand: pasadena incoming phone calls back on-line
(Tua/#earthquake) is pasadena 909?
[   1940031] ResourceCacheDevice: downloaded resource.rpf in 3580 msec (size 1849344)
[   1940125] resources::ResourceCacheDeviceV2::DoFetch downloading resource.rpf (hash 3c0719dd7e05b6dfa44945c8a717483316552eeb) from http://139.99.125.59:30124/files/op-vehicles/resource.rpf
[   1943093] ResourceCache::AddEntry: Saved cache:v1:3c0719dd7e05b6dfa44945c8a717483316552eeb to the index cache.
[   1943125] ResourceCacheDevice: downloaded resource.rpf in 2995 msec (size 972800)
[   1943187] resources::ResourceCacheDeviceV2::DoFetch downloading resource.rpf (hash da9ff3f5627dbea1cfec8eb1e825bf246cac67d6) from http://139.99.125.59:30124/files/op-weapons/resource.rpf
[   1946125] rage::gameSkeleton::RunInitFunctions: Invoking CLadderMetadataManager INIT_BEFORE_MAP_LOADED init (21 out of 31)
[   1946140] rage::gameSkeleton::RunInitFunctions: Invoking CScenarioManager INIT_BEFORE_MAP_LOADED init (22 out of 31)
[   1946312] rage::gameSkeleton::RunInitFunctions: Invoking CConditionalAnimManager INIT_BEFORE_MAP_LOADED init (23 out of 31)
[   1946343] Policy is [platinum][mumble_voice_prerelease][onesync][onesync_plus][color_server_names][subdir_file_mapping]
[   1946375] rage::gameSkeleton::RunInitFunctions: Invoking CVehicleMetadataMgr INIT_BEFORE_MAP_LOADED init (24 out of 31)
instanceKlass java/util/List
<10:07AM NPR_News> NPR interview with seismologists at Nat'l Earthquake Center: expect no triggering of San Andreas fault, although region is problematic
<10:07AM KNBC> i northridge
	at info.magnolia.cms.filters.MgnlFilterChain.doFilter(MgnlFilterChain.java:81) [magnolia-core-6.2.3.jar:?]
US Core Comparison: compare StructureDefinition[http://hl7.org/fhir/us/ph-library/StructureDefinition/us-ph-is-postpartum|1.0.0] to StructureDefinition[http://hl7.org/fhir/us/core/StructureDefinition/us-core-observation-clinical-result|6.1.0]
US Core Comparison: compare StructureDefinition[http://hl7.org/fhir/us/ph-library/StructureDefinition/us-ph-is-postpartum|1.0.0] to StructureDefinition[http://hl7.org/fhir/us/core/StructureDefinition/us-core-observation-lab|6.1.0]
ciInstanceKlass java/util/HashMap 1 1 481 10 100 10 100 10 100 11 11 11 7 3 10 100 100 10 8 10 10 10 10 10 8 10 9 10 9 4 10 10 11 9 4 10 11 11 11 11 100 11 11 10 10 9 10 9 9 9 10 9 7 10 10 10 10 10 9 10 100 3 7 7 10 10 9 9 10 10 10 10 9 7 10 9 100 10 9 100 10 100 10 11 11 11 100 10 10 100 100 10 10 10 10 10 10 10 100 10 10 8 4 10 4 10 4 10 10 10 10 7 7 100 100 1 1 100 1 100 1 100 1 100 1 100 1 100 1 100 1 100 1 1 1 1 1 1 1 1 5 0 1 1 3 1 1 1 1 3 1 3 1 3 1 1 1 1 1 1 1 1 1 1 1 1 1 1 1 1 1 1 1 100 100 100 100 1 1 1 1 1 1 1 1 100 1 1 1 1 1 1 100 1 1 1 1 1 1 100 1 1 1 1 1 1 1 1 1 1 1 1 1 1 1 1 1 100 1 1 1 1 1 1 1 1 1 1 100 1 1 1 100 1 1 1 1 1 1 1 1 1 1 1 100 1 1 1 100 1 1 1 1 1 1 1 1 1 1 1 1 1 100 1 1 1 1 1 100 1 1 100 100 1 1 1 1 1 1 1 1 1 1 1 1 1 1 1 1 1 1 1 1 1 1 1 7 12 1 12 1 100 12 1 12 12 12 1 12 1 1 1 12 12 12 12 7 12 1 12 12 12 12 12 12 12 12 12 12 100 12 100 12 12 1 12 12 12 12 12 12 12 12 12 12 12 1 12 12 12 12 12 12 12 1 1 12 12 12 12 12 12 12 12 1 12 12 1 12 1 1 100 12 100 12 100 12 1 12 1 1 12 12 12 100 12 12 12 100 12 1 12 1 100 12 12 12 12 12 1 1 1 1 1 1 1 1 1 1 1 1 1 1 1 1 1 1 1 1 1 1 1 1 1 1 1 1 1 1 1 1 1 1 1 1 1 1 1 1 1 1 1 1 1 1 1 1 1 1 1 1 1 1 1 1 1 1 1 1 1 1 1 1 1 1 1 1 1 1 1 1 1 1 1 1 1 1 1 1 1 1 1 1
instanceKlass java/util/LinkedHashMap$Entry
ciInstanceKlass java/util/HashMap$Node 1 1 85 10 9 9 9 9 100 10 10 8 10 10 10 100 11 10 11 7 7 1 1 1 1 1 1 1 1 1 1 1 1 1 1 1 1 1 1 1 1 1 1 1 1 1 1 1 1 1 1 1 1 1 1 1 1 1 12 12 12 12 12 1 12 1 12 12 100 12 100 1 12 12 12 100 1 1 1 1 1 1 1 1 1 1 1
	at info.magnolia.dam.app.contentview.column.AssetNameColumnDefinition$ValueProvider.apply(AssetNameColumnDefinition.java:81) ~[magnolia-dam-app-3.0.3.jar:?]
[      1422] [    SteamChild]             MainThrd/ CitizenFX Steam child starting - command line: "H:\FiveM Clean\FiveM.app\data\cache\subprocess\FiveM_SteamChild.exe" -steamparent:3324
[      1422] [    SteamChild]             MainThrd/ Initializing Steam parent.
[      1454] [    SteamChild]             MainThrd/ Initializing Steam parent: Steam's running.
[      1532] [   ROSLauncher]                 8372/ Got ROS service - pid 2652
[      1547] [    SteamChild]             MainThrd/ Initializing Steam parent: Initializing presence.
[      1547] [    SteamChild]             MainThrd/ Initializing Steam parent: Attempting to run processes.
[      1750] [    ROSService]             MainThrd/ hello from "H:\FiveM Clean\FiveM.app\data\cache\subprocess\FiveM_ROSService" ros:service
[      1797] [    GTAProcess]             MainThrd/ No such command unbindall.
[      1797] [    GTAProcess]             MainThrd/ No such command rbind.
[      1797] [    GTAProcess]             MainThrd/ No such command rbind.
[      1797] [    GTAProcess]             MainThrd/ No such command rbind.
[      1797] [    GTAProcess]             MainThrd/ No such command rbind.
[      1797] [    GTAProcess]             MainThrd/ No such command rbind.
[      1797] [    GTAProcess]             MainThrd/ No such command rbind.
[      2422] [    GTAProcess]             MainThrd/ pre-gameload component scripting:gta
[      2422] [    GTAProcess]             MainThrd/ pre-gameload component conhost:v2
[      2532] [    GTAProcess]             MainThrd/ pre-gameload component citizen:scripting:core
[      2532] [    GTAProcess]             MainThrd/ pre-gameload component citizen:resources:client
[      2532] [    GTAProcess]             MainThrd/ pre-gameload component rage:device:five
[      2532] [    GTAProcess]             MainThrd/ pre-gameload component rage:nutsnbolts:five
[      2532] [    GTAProcess]             MainThrd/ Skipping XAudio2 patches - XAudio 2.7 is present.
[      2532] [    GTAProcess]             MainThrd/ pre-gameload component rage:input:five
[      2532] [    GTAProcess]             MainThrd/ pre-gameload component rage:graphics:five
[      2532] [    GTAProcess]             MainThrd/ pre-gameload component gta:core:five
[      2547] [    GTAProcess]             MainThrd/ pre-gameload component gta:game:five
[      2547] [    GTAProcess]             MainThrd/ pre-gameload component gta:mission-cleanup:five
[      2547] [    GTAProcess]             MainThrd/ pre-gameload component rage:formats:x
[      2547] [    GTAProcess]             MainThrd/ pre-gameload component gta:streaming:five
[      2547] [    GTAProcess]             MainThrd/ >16 GiB of system RAM, increasing streaming allocator size to 2 GiB
[      2547] [    GTAProcess]             MainThrd/ pre-gameload component citizen:level-loader:five
  Reverse history search (FEATURE_REVERSE_SEARCH) [Y/n/?] y
  Tab completion (FEATURE_TAB_COMPLETION) [Y/n/?] y
ln -snf lib /builds/free-electrons/toolchains-builder/build/tmp/test-x86-64-core-i7--uclibc--stable/target/lib64
ln -snf lib /builds/free-electrons/toolchains-builder/build/tmp/test-x86-64-core-i7--uclibc--stable/target/usr/lib64
<09:16AM tasm> CBS - church raised off foundation
<09:16AM NeilM> 25 Feared Dear, 100 injured, quake lasted for 60s and was felt as far away as pasenda STATE OF EMERGENCY DECLAREDE
<09:17AM NeilM> 100s
<09:17AM tasm> neil: quake lasted 30-45 sec
<09:17AM AttackYak> KNBC: Also at Northridge Mall, parts of Bullocks collapsed - Would have killed lots if open (I know I used to shop there)
<09:17AM DrStupid> KNBC - the Kaiser Permanente building is NOT a care center.
(WildEep/#earthquake) sg joherius hope everything is ok -- im sure it will be.
<09:17AM DrStupid> KNBC - it is a doctors office facility
<09:18AM NeilM> BBC REPORT==RUETERS report
<09:18AM DrStupid> KNBC - Grenada Hills hosptical emergency and serious injury care now CLOSED
<09:18AM tasm> CBS: the president is still "hjholding " to his MLK day and some freaking "new program"
<09:18AM DrStupid> KNBC - Grenada Hills - light injuries only
(YaZoO/#earthquake) bbc sucks shit.. they aint showing nothing
<09:18AM tasm> ()$*#)(#$* the program.. i want to hear what the president has to say abotu the erthquake
<09:18AM AttackYak> KNBC - Sections of 118 west-bound at havenhearst collapsed - 1 car hit section after it fell - Driver Status unknown
<09:18AM KNBC> president is not on
<09:19AM FOX_live> 6 people dead, (4 heart attacks, 1 motorcycle acident - police officer - freeway fell onto him)
(CBSnetwrk/#earthquake) For the moment, my affiliate is on local news...
<09:19AM tasm> CBS - President on..
<09:19AM DrStupid> KNBC - LA Fire Dept. - 50 fires in Norht San Fernando area
<09:19AM FOX_live> (reporting from KTTV)
<09:20AM KNBC> CBS president
<09:20AM DrStupid> Today Show - Clinton Being introduced.
<09:20AM FOX_live> LIVE FROM THE WHITE HOUSE:
<09:20AM tasm> I want to thank Arland for reminding us all..
<09:20AM tasm> that we can make a diff. in peoples lvies... blah
<09:20AM tasm> gov't programs and language bla  bla bla bla bla
<09:20AM AttackYak> KNBC: Northridge Town Home collapses onto first floor - 5 people dead (according to fireman)
<09:21AM KNBC> Martin L. King speech
(YaZoO/#earthquake) so thast 10 total ?
[   1962562] overriding handle for mp_f_freemode_01/accs_diff_015_b_uni.ytd (was 4cd0116) -> 20c
[2023.05.20-22.07.39:931][  0]LogConfig: CVar [[DefaultPVRTCQuality:1]] deferred - dummy variable created
[2023.05.20-22.07.39:931][  0]LogConfig: CVar [[DefaultASTCQualityBySpeed:1]] deferred - dummy variable created
[2023.05.20-22.07.39:931][  0]LogConfig: CVar [[DefaultASTCQualityBySize:3]] deferred - dummy variable created
[2023.05.20-22.07.39:931][  0]LogConfig: CVar [[ClassesExcludedOnDedicatedServer:WidgetBlueprint]] deferred - dummy variable created
[2023.05.20-22.07.39:931][  0]LogConfig: CVar [[ClassesExcludedOnDedicatedServer:GroupActor]] deferred - dummy variable created
[2023.05.20-22.07.39:931][  0]LogConfig: CVar [[ClassesExcludedOnDedicatedServer:MetaData]] deferred - dummy variable created
[2023.05.20-22.07.39:931][  0]LogConfig: CVar [[ClassesExcludedOnDedicatedServer:ObjectRedirector]] deferred - dummy variable created
[2023.05.20-22.07.39:931][  0]LogConfig: CVar [[ClassesExcludedOnDedicatedServer:NavMeshRenderingComponent]] deferred - dummy variable created
[2023.05.20-22.07.39:931][  0]LogConfig: CVar [[ClassesExcludedOnDedicatedServer:ReflectionCaptureComponent]] deferred - dummy variable created
[2023.05.20-22.07.39:931][  0]LogConfig: CVar [[ClassesExcludedOnDedicatedServer:TextRenderComponent]] deferred - dummy variable created
[2023.05.20-22.07.39:931][  0]LogConfig: CVar [[ClassesExcludedOnDedicatedServer:Font]] deferred - dummy variable created
[2023.05.20-22.07.39:931][  0]LogConfig: CVar [[ClassesExcludedOnDedicatedServer:InterpCurveEdSetup]] deferred - dummy variable created
[2023.05.20-22.07.39:931][  0]LogConfig: CVar [[ClassesExcludedOnDedicatedServer:MaterialExpression]] deferred - dummy variable created
[2023.05.20-22.07.39:931][  0]LogConfig: CVar [[ClassesExcludedOnDedicatedServer:NiagaraEmitter]] deferred - dummy variable created
[2023.05.20-22.07.39:931][  0]LogConfig: CVar [[ClassesExcludedOnDedicatedServer:NiagaraScript]] deferred - dummy variable created
[2023.05.20-22.07.39:931][  0]LogConfig: CVar [[ClassesExcludedOnDedicatedServer:ParticleEmitter]] deferred - dummy variable created
[2023.05.20-22.07.39:931][  0]LogConfig: CVar [[ClassesExcludedOnDedicatedServer:ParticleLODLevel]] deferred - dummy variable created
[2023.05.20-22.07.39:931][  0]LogConfig: CVar [[ClassesExcludedOnDedicatedServer:ParticleModule]] deferred - dummy variable created
[2023.05.20-22.07.39:931][  0]LogConfig: CVar [[ClassesExcludedOnDedicatedServer:SubUVAnimation]] deferred - dummy variable created
[2023.05.20-22.07.39:931][  0]LogConfig: CVar [[ClassesExcludedOnDedicatedServer:SoundNode]] deferred - dummy variable created
[2023.05.20-22.07.39:931][  0]LogConfig: CVar [[ClassesExcludedOnDedicatedServer:GameplayEffectUIData]] deferred - dummy variable created
[2023.05.20-22.07.39:931][  0]LogConfig: CVar [[ClassesExcludedOnDedicatedClient:WidgetBlueprint]] deferred - dummy variable created
[2023.05.20-22.07.39:931][  0]LogConfig: CVar [[ClassesExcludedOnDedicatedClient:GroupActor]] deferred - dummy variable created
[2023.05.20-22.07.39:931][  0]LogConfig: CVar [[ClassesExcludedOnDedicatedClient:MetaData]] deferred - dummy variable created
[2023.05.20-22.07.39:931][  0]LogConfig: CVar [[ClassesExcludedOnDedicatedClient:ObjectRedirector]] deferred - dummy variable created
[2023.05.20-22.07.39:931][  0]LogConfig: CVar [[ClassesExcludedOnDedicatedClient:InterpCurveEdSetup]] deferred - dummy variable created
[2023.05.20-22.07.39:931][  0]LogConfig: CVar [[VersionedIntRValues:r.AllowStaticLighting]] deferred - dummy variable created
[2023.05.20-22.07.39:931][  0]LogConfig: CVar [[VersionedIntRValues:r.GBuffer]] deferred - dummy variable created
[2023.05.20-22.07.39:931][  0]LogConfig: CVar [[VersionedIntRValues:r.VelocityOutputPass]] deferred - dummy variable created
[2023.05.20-22.07.39:932][  0]LogConfig: Set CVar [[r.Shadow.Virtual.SMRT.RayCountDirectional:8]]
12:32:06 T:6224   DEBUG: AddOnLog: Tvheadend HTSP Client: pvr.hts - channel update id:528389467, name:DELUXE MUSIC
12:32:06 T:6224   DEBUG: AddOnLog: Tvheadend HTSP Client: pvr.hts - channel update id:543954734, name:rbb Berlin HD
onGenerate.jira.packagelistcopy:
  with                 ==&gt; with
    [0mExecuting: 'python /home/etienne/Boulot/SVN/andre/papiers/2017/learning/IMICV/bin/../interfaceCV.py ./examples/Fischer/FERA3.imi ./examples/Fischer/FERA3-learning_learning_1.imi delta=1,Delta=1'[0m
                                                <!-- <regexp>Season[\._ ]([0-9]+)[\\/]([0-9]+)([^\\/]*)$</regexp> -->
ofz#6674 direct-leak [Caolán McNamara]
          Initialized LDFLAGS to 
2021-10-26T21:50:50.236Z,1.236310,4337000,6 [FLog::LocalStorage] LocalStorage flushing
2021-10-26T21:50:50.236Z,1.236478,4337000,6 [FLog::SurfaceController] SurfaceController::RenderJob::stepDataModelJob: No DM yet. Continue...
stdout: Linux
================================================================================
TEST checkPIC from config.setCompilers(/sandbox/petsc/petsc.next/config/BuildSystem/config/setCompilers.py:1003)
ofz#5391 integer-overflow [Caolán McNamara]
ofz#5402 timeout [Caolán McNamara]
ofz#5420 out-of-memory [Caolán McNamara]
))
\Gm@cnth=\count276
\Gm@cntv=\count277
\c@Gm@tempcnt=\count278
\Gm@bindingoffset=\dimen153
\Gm@wd@mp=\dimen154
\Gm@odd@mp=\dimen155
\Gm@even@mp=\dimen156
\Gm@layoutwidth=\dimen157
\Gm@layoutheight=\dimen158
\Gm@layouthoffset=\dimen159
\Gm@layoutvoffset=\dimen160
\Gm@dimlist=\toks30
) (/usr/local/texlive/2021/texmf-dist/tex/latex/graphics/graphicx.sty
Package: graphicx 2020/09/09 v1.2b Enhanced LaTeX Graphics (DPC,SPQR)
 (/usr/local/texlive/2021/texmf-dist/tex/latex/graphics/graphics.sty
Package: graphics 2020/08/30 v1.4c Standard LaTeX Graphics (DPC,SPQR)
 (/usr/local/texlive/2021/texmf-dist/tex/latex/graphics/trig.sty
Package: trig 2016/01/03 v1.10 sin cos tan (DPC)
) (/usr/local/texlive/2021/texmf-dist/tex/latex/graphics-cfg/graphics.cfg
File: graphics.cfg 2016/06/04 v1.11 sample graphics configuration
)
Package graphics Info: Driver file: pdftex.def on input line 105.
 (/usr/local/texlive/2021/texmf-dist/tex/latex/graphics-def/pdftex.def
File: pdftex.def 2020/10/05 v1.2a Graphics/color driver for pdftex
))
\Gin@req@height=\dimen161
\Gin@req@width=\dimen162
) (/Users/natera/Dropbox/PhD/thesis/epigraph.sty
Package: epigraph 2020/01/02 v1.5e typesetting epigraphs
) (/usr/local/texlive/2021/texmf-dist/tex/generic/pgf/basiclayer/pgfcorepathconstruct.code.tex
21:38:12 T:139832867932032    INFO: Pixel Ratio: 1.279012
21:38:12 T:139832867932032    INFO: ID:0x119 Name:720x480 Refresh:60.000000 Width:720 Height:480
[22:42:40] Internet VOIP: [-] 0122/8096 no engine matches - https://brooklynfarmgirl.com
[22:42:40] Mesa DUI lawyer: [-] 8179/8413 no engine matches (HTTP-Status: 400) - https://sexpectations89.wordpress.com
LogDevObjectVersion:   Dev-MediaFramework (6F0ED827-A609-4895-9C91-998D90180EA4): 2
tdf#115584 Crash when launching Base [Julien Nabet]
         problem/NN-45  ==                        DEL    $0.429  [D]
staticfield com/android/dx/rop/type/Type CLONEABLE Lcom/android/dx/rop/type/Type; com/android/dx/rop/type/Type
staticfield com/android/dx/rop/type/Type OBJECT Lcom/android/dx/rop/type/Type; com/android/dx/rop/type/Type
staticfield com/android/dx/rop/type/Type SERIALIZABLE Lcom/android/dx/rop/type/Type; com/android/dx/rop/type/Type
[0;36;40m…The end of Interfaçator![0;36;40m
[2023.05.20-22.07.39:933][  0]LogConfig: Set CVar [[r.Lumen.TranslucencyReflections.FrontLayer.Allow:1]]
         towards/IN-38  ==                        DEL    $0.429  [D]
               a/DT-39  ==                        DEL    $0.429  [D]
AK53	ALASKA	PALMER DOWNWIND LANDING	afd	al_164_25OCT2007.png
99Z	ALASKA	PALMER FINGER LAKE SEAPLANE	afd	al_164_25OCT2007.png
AK93	ALASKA	PALMER GROUSE RIDGE	afd	al_164_25OCT2007.png
82AK	ALASKA	PALMER JIMS LANDING	afd	al_165_25OCT2007.png
PAQ	ALASKA	PALMER MUNI	afd	al_165_25OCT2007.png
     3  H    0.433174
ciInstanceKlass sun/reflect/ConstructorAccessorImpl 1 1 24 10 100 7 100 1 1 1 1 1 1 1 100 100 100 1 1 12 1 1 1 1 1 1
ciInstanceKlass sun/reflect/DelegatingClassLoader 0 0 13 10 100 100 1 1 1 1 1 1 12 1 1
buick+open+tee+times	01.08.2009 18:45:37	http://www.google.com/search?q=Buick+open+golf+pairings&ie=UTF-8&oe=UTF-8&hl=en&client=safari	Mozilla/5.0 (iPhone; U; CPU iPhone OS 3_0 like Mac OS X; en-us) AppleWebKit/528.18 (KHTML, like Gecko) Version/4.0 Mobile/7A341 Safari/528.16	166.205.130.150
21:38:09 T:139832867932032  NOTICE: WARNING: unsupported ffmpeg version detected
21:38:09 T:139832867932032  NOTICE: Host CPU: Intel(R) Core(TM) i5-5250U CPU @ 1.60GHz, 4 cores available
[2023.05.20-22.07.40:540][  0]LogD3D12RHI: ID3D12Device9 is supported.
            army/NN-51  ==                        DEL    $0.429  [D]
           staff/NN-52  ==                        DEL    $0.429  [D]
                ./.-53  ==  ./.-5                 SUB    $0.867  [E, sim, Esz]
                                                       --------
                                                TOTAL   $25.694
/usr/bin/install -d -m 0755 /builds/free-electrons/toolchains-builder/build/tmp/test-x86-64-core-i7--uclibc--stable/target/sbin
/usr/bin/install -d -m 0755 /builds/free-electrons/toolchains-builder/build/tmp/test-x86-64-core-i7--uclibc--stable/target/lib
l.48 
Load Package hl7.fhir.us.core#5.0.1
Installing us.cdc.phinvads#0.12.0 to the package cache
	at info.magnolia.cms.filters.MgnlFilterChain.doFilter(MgnlFilterChain.java:79) [magnolia-core-6.2.3.jar:?]
	at info.magnolia.enterprise.registration.RegistrationFilter.doFilter(RegistrationFilter.java:79) [magnolia-module-enterprise-6.2.3.jar:?]
	at info.magnolia.cms.filters.AbstractMgnlFilter.doFilter(AbstractMgnlFilter.java:85) [magnolia-core-6.2.3.jar:?]

7.1  Instrumentation Type     : (GPS/GLONASS/DORIS/PRARE/SLR/VLBI/TIME/etc)
AWI	ALASKA	WAINWRIGHT	afd	al_234_25OCT2007.png
drake+falls+on+stage	01.08.2009 21:46:15	http://www.google.com/search?hl=en&q=drake+falls+on+stage&aq=0z&oq=drake+fall&aqi=g-z1g1	Mozilla/4.0 (compatible; MSIE 6.0; Windows NT 5.1; SV1; .NET CLR 1.1.4322; .NET CLR 2.0.50727; .NET CLR 3.0.04506.30; .NET CLR 3.0.04506.648; .NET CLR 3.0.4506.2152; .NET CLR 3.5.30729; InfoPath.1)	167.88.201.100
Error in MasterFeaturizer, calling featurizer=ContradictionStructure, error=null
[ 1.000] Factive.factivePassage: Hyp aligned with txt under factive 'say' verb: reports
Running ModalFeaturizer
	at info.magnolia.dam.app.contentview.column.AssetNameColumnDefinition$ValueProvider.apply(AssetNameColumnDefinition.java:81) ~[magnolia-dam-app-3.0.3.jar:?]
	at info.magnolia.dam.app.contentview.column.AssetNameColumnDefinition$ValueProvider.apply(AssetNameColumnDefinition.java:64) ~[magnolia-dam-app-3.0.3.jar:?]
1994-058     1994 Sep  9 0029:44  1994-058       Telstar 402                    Telstar 402               A04943  Ariane 42L             V67              CSG ELA2                 0.0
gold+coast+art+fair+2009	01.08.2009 18:44:24	http://www.google.com/search?hl=en&ei=4Yx0SornDIK6NYv6kbEM&sa=X&oi=spell&resnum=0&ct=result&cd=1&q=2009+gold+coast+river+north+art+fair&spell=1	Mozilla/5.0 (Macintosh; U; Intel Mac OS X 10_5_4; en-us) AppleWebKit/525.18 (KHTML, like Gecko) Version/3.1.2 Safari/525.20.1	98.206.47.108
ERROR info.magnolia.aws.foundation.AwsCredentialsProvider 15.10.2020 00:12:42 -- AWS credentials are expected to be set in Password manager module.
sayville+summerfest	01.08.2009 21:13:29	http://search.aol.com/aol/search?query=sayville+fest&s_it=keyword_rollover	Mozilla/4.0 (compatible; MSIE 7.0; AOL 9.0; Windows NT 5.1; Trident/4.0; .NET CLR 1.1.4322)	64.12.116.76
wells+fargo+arena	01.08.2009 21:32:36	http://www.google.com/search?hl=en&q=Wellsfargo+arena+reviews+Ia&aq=f&oq=&aqi=	Mozilla/4.0 (compatible; MSIE 6.0; Windows NT 5.1; SV1)	71.34.28.180
dallas+weather+radar	01.08.2009 21:32:37	http://www.google.com/search?hl=en&safe=off&q=animated+weather+radar+Tarrant+county&aq=f&oq=&aqi=	Mozilla/4.0 (compatible; MSIE 7.0; Windows NT 6.0; SLCC1; .NET CLR 2.0.50727; .NET CLR 3.0.04506)	66.169.111.27
G4ParticleHPManager::GetDataStream FILE /home/arce/gamos/external/geant4/geant4.10.04.p02.gamos/../data/G4TENDL1.3.2/He3/Inelastic/F02//8_17_Oxygen.z
instanceKlass sun/reflect/ReflectionFactory
* checking Rd files ... OK
    + always align color bar to icon bottom edge (tdf#84985) [Regina Henschel]
    + always copying the full bitmap, not just a portion of it [Caolán McNamara]
    + always copying to a different bitmap [Caolán McNamara]
ofz#6950 integer-overflow [Caolán McNamara]
instanceKlass sun/nio/ByteBuffered
Package caption Info: listings package is loaded.
US Core Comparison: compare StructureDefinition[http://hl7.org/fhir/us/ph-library/StructureDefinition/us-ph-pregnancy-status-observation|1.0.0] to StructureDefinition[http://hl7.org/fhir/us/core/StructureDefinition/us-core-pulse-oximetry|6.1.0]
US Core Comparison: compare StructureDefinition[http://hl7.org/fhir/us/ph-library/StructureDefinition/us-ph-pregnancy-status-observation|1.0.0] to StructureDefinition[http://hl7.org/fhir/us/core/StructureDefinition/us-core-respiratory-rate|6.1.0]
US Core Comparison: compare StructureDefinition[http://hl7.org/fhir/us/ph-library/StructureDefinition/us-ph-pregnancy-status-observation|1.0.0] to StructureDefinition[http://hl7.org/fhir/us/core/StructureDefinition/us-core-simple-observation|6.1.0]
US Core Comparison: compare StructureDefinition[http://hl7.org/fhir/us/ph-library/StructureDefinition/us-ph-pregnancy-status-observation|1.0.0] to StructureDefinition[http://hl7.org/fhir/us/core/StructureDefinition/us-core-smokingstatus|6.1.0]
US Core Comparison: compare StructureDefinition[http://hl7.org/fhir/us/ph-library/StructureDefinition/us-ph-pregnancy-status-observation|1.0.0] to StructureDefinition[http://hl7.org/fhir/us/core/StructureDefinition/us-core-vital-signs|6.1.0]
	at info.magnolia.cms.filters.MgnlFilterChain.doFilter(MgnlFilterChain.java:81) [magnolia-core-6.2.3.jar:?]
[2023.05.20-22.07.40:452][  0]LogD3D12RHI:     GPU DeviceId: 0x2484 (for the marketing name, search the web for "GPU Device Id")
[2023.05.20-22.07.40:452][  0]LogD3D12RHI: InitD3DDevice: -D3DDebug = off -D3D12GPUValidation = off
[2023.05.20-22.07.40:454][  0]LogD3D12RHI: [Aftermath] Aftermath crash dumping enabled
  was                  ==&gt; _
  the                  ==&gt; _
LogConfig: CVar [[framepro.ScopeMinTimeMicroseconds:10]] deferred - dummy variable created
[     23047] rage::gameSkeleton::RunInitFunctions: Invoking CScriptPedAIBlips INIT_CORE init (37 out of 52)
friendship+quotes	01.08.2009 18:52:14	http://www.google.com/search?q=funny+friendship+sayings&hl=en&rlz=1T4HPNN_enOM313OM313&start=70&sa=N	Mozilla/4.0 (compatible; MSIE 7.0; Windows NT 6.0; GTB6; SLCC1; .NET CLR 2.0.50727; .NET CLR 1.1.4322; .NET CLR 3.5.30729; .NET CLR 3.0.30618)	82.178.4.124
./Le%20Donjon%20de%20Naheulbeuk/Chanson
Package hyperref Info: Hyper figures OFF on input line 4192.
		- Add new PG transportation report
-- The following Geant4 features are enabled:
     dst='/data/richards/NBRTT/build/Geant4/build/Externals/G4NDL-4.2/src/G4NDL.4.2.tar.gz'
[22:42:39] Amazon: [+] 3685/7825 matches engine Wordpress Article - http://kchesanek.blog.usf.edu/?attachment_id=72
[22:42:39] Amazon: [+] 3685/7825 new URL - https://kchesanek.blog.usf.edu/wp-login.php?action=register
[22:42:39] Amazon: [+] 3685/7825 new URL - https://kchesanek.blog.usf.edu/wp-login.php?action=register
[22:42:39] Amazon: [-] 3685/7825 no form at all - https://kchesanek.blog.usf.edu/wp-login.php?action=register
[22:42:39] Insurance: [+] 8211/8262 matches engine Wordpress Article - http://proseminar.berlin/referenzen-2/
LogPluginManager: Mounting Engine plugin OnlineBase
Preprocess stderr before filtering::
Preprocess stderr after filtering::
================================================================================
    + Access2Base - OutputTo action - support encoding in csv files [Jean-Pierre Ledure]
    <defaults>
      manliDepth                        = 100
      manliMaxDELINSSize                = 1
tdf#115434 Sidebar: Incorrect handling of Enter, Del, Ins, PgUp, PgDn, End, and Backspace key presses [Jim Raykowski]
tdf#115440 Add help text for Calc function ROUNDSIG [Olivier Hallot]
tdf#115451 Sidebar focus becomes hidden on deck change [Jim Raykowski]
tdf#115453 Confusion on the Impress Views Tab Bar: UI [Álex Puchades]
tdf#115470 Name of the "Cycle Case" is too long [heiko tietze]
LogInit:  - BufferSize = 65536
ofz#4829 floating-point-exception [Caolán McNamara]
./Les%202%20Minutes%20du%20Peuple%20-%20François%20Pérusse/Radio%20associative
./Les%202%20Minutes%20du%20Peuple%20-%20François%20Pérusse/Radio%20positive
      %T - percent time in this phase         %F - percent flops in this phase
      %M - percent messages in this phase     %L - percent message lengths in this phase
      %R - percent reductions in this phase
[22:42:43] Health: [-] 8183/8339 no form at all - http://www.inbloom.info/wp-login.php?action=register
[22:42:43] Mesothelioma T1: [+] 0213/8853 matches engine SupeSite - http://www.ietrade.com.cn
[22:42:43] Cooking TIPS: [-] 0202/7845 no engine matches (HTTP-Status: 400) - https://www.newscorpaustralia.com
[22:42:43] Mesothelioma T1: [+] 0213/8853 unknown registration status - http://www.ietrade.com.cn
[22:42:43] Insurance: [+] 8214/8262 matches engine Wordpress Article - http://www.inktippitchsummit.com/
<DrStupid> KNBC - 5 confirmed deaths, 4 heart attacks and 1 motorcycle cop
2021-10-26T21:50:50.235Z,1.235712,ab3bf380,6 [FLog::SurfaceController] SurfaceController[_:1]::run dataModel(0x7f97ae098a00)
2021-10-26T21:50:50.236Z,1.236310,4337000,6 [FLog::LocalStorage] LocalStorage flushing
2021-10-26T21:50:50.236Z,1.236478,4337000,6 [FLog::SurfaceController] SurfaceController::RenderJob::stepDataModelJob: No DM yet. Continue...
2021-10-26T21:50:50.236Z,1.236582,44c0000,6 [FLog::LocalStorage] LocalStorage writing to file: /Users/studioagain/Library/Roblox/LocalStorage/memProfStorage11138.json
2021-10-26T21:50:50.236Z,1.236665,44c0000,6 [FLog::LocalStorage] LocalStorage will flush 5212 bytes to /Users/studioagain/Library/Roblox/LocalStorage/memProfStorage11138.json
\t@pgf@toka=\toks44
\t@pgf@tokb=\toks45
\t@pgf@tokc=\toks46
	at info.magnolia.cms.filters.MgnlFilterChain.doFilter(MgnlFilterChain.java:81) [magnolia-core-6.2.3.jar:?]
	at javax.servlet.http.HttpServlet.service(HttpServlet.java:741) [servlet-api.jar:?]
	at info.magnolia.cms.filters.ServletDispatchingFilter.doFilter(ServletDispatchingFilter.java:148) [magnolia-core-6.2.3.jar:?]
	at info.magnolia.cms.filters.AbstractMgnlFilter.doFilter(AbstractMgnlFilter.java:85) [magnolia-core-6.2.3.jar:?]
	at info.magnolia.cms.filters.MgnlFilterChain.doFilter(MgnlFilterChain.java:79) [magnolia-core-6.2.3.jar:?]
	at info.magnolia.cms.filters.MgnlFilterChain.doFilter(MgnlFilterChain.java:81) [magnolia-core-6.2.3.jar:?]

chattr (CHATTR) [Y/n/?] y
fsck (FSCK) [Y/n/?] y
lsattr (LSATTR) [Y/n/?] y
tune2fs (TUNE2FS) [N/y/?] n
*
US Core Comparison: compare StructureDefinition[http://hl7.org/fhir/us/ph-library/StructureDefinition/us-ph-disability-status|1.0.0] to StructureDefinition[http://hl7.org/fhir/us/core/StructureDefinition/pediatric-bmi-for-age|6.1.0]
build	14-Jul-2020 09:19:57	    </copy>
build	14-Jul-2020 09:19:57	  </target>
	at info.magnolia.module.cache.filter.GZipFilter.doFilter(GZipFilter.java:74) [magnolia-cache-core-5.9.1.jar:?]
	at info.magnolia.cms.filters.OncePerRequestAbstractMgnlFilter.doFilter(OncePerRequestAbstractMgnlFilter.java:59) [magnolia-core-6.2.3.jar:?]
	at info.magnolia.cms.filters.MgnlFilterChain.doFilter(MgnlFilterChain.java:79) [magnolia-core-6.2.3.jar:?]
-- [download 86% complete]
-- [download 87% complete]
-- [download 88% complete]
-- [download 12% complete]
-- [download 13% complete]
-- [download 14% complete]
-- [download 15% complete]
-- [download 16% complete]
-- [download 17% complete]
-- [download 18% complete]
-- [download 19% complete]
-- [download 20% complete]
-- [download 21% complete]
-- [download 22% complete]
-- [download 23% complete]
-- [download 24% complete]
-- [download 25% complete]
-- [download 26% complete]
-- [download 27% complete]
-- [download 28% complete]
-- [download 29% complete]
-- [download 30% complete]
-- [download 31% complete]
-- [download 32% complete]
-- [download 33% complete]
-- [download 34% complete]
-- [download 35% complete]
-- [download 36% complete]
-- [download 37% complete]
-- [download 38% complete]
     Additional Information   : Antenna swapped

4.3  Antenna Type             : TRM57971.00     NONE
     Serial Number            : 1440925616
     Antenna Reference Point  : BAM
i#1858 A series of patches to make gcc -Wall quieter [Stephan Bergmann]
i#34348 Fail to show doc file with certain indentation [Stephan Bergmann]
i#38498 Button getting invisible in "Design Mode"=off [Mike Kaganski]
Sushi: info  Converted 10 FHIR CodeSystems.                                      (04:16.529)
Sushi: info  Converted 12 FHIR ValueSets.                                        (04:18.262)
Sushi: warn  Sliced element Condition.category is being accessed via numeric index. Use slice names in rule paths when possible. (04:18.607)
1                                                          The SAS System                        16:26 Wednesday, September 14, 2011
           Event Instances: 8
         Cable Wrap Report: 
[     48516] [    GTAProcess]             MainThrd/ rage::gameSkeleton::RunInitFunctions: Invoking MeshBlendManager INIT_CORE init (2 out of 11)
[     51813] [    GTAProcess]               Render/ OnConnectionProgress: Downloading content manifest (592.50 kB)
[     51938] [    GTAProcess]               Render/ OnConnectionProgress: Downloading content manifest (645.67 kB)
[     52047] [    GTAProcess]               Render/ OnConnectionProgress: Downloading content manifest (675.06 kB)
[     52188] [    GTAProcess]               Render/ OnConnectionProgress: Downloading content manifest (731.03 kB)
ofz#5274 out-of-memory [Caolán McNamara]
Valuating component A with pi0…
Writing content to "./examples/Fischer/FERA3.cv"…
[0;36;40mExecuting "/home/etienne/Boulot/SVN/andre/papiers/2017/learning/IMICV/bin/../CV/Compositional_Verifier -imi ./examples/Fischer/FERA3.cv"…[0;36;40m
[0;36;40mCounter-example detected[0;36;40m
[0;36;40mMoving learning result from "/home/etienne/Boulot/SVN/andre/papiers/2017/learning/IMICV/bin/../CV/tmp/counterexample.imi" to "./examples/Fischer/FERA3-learning_learning_1.imi-output.cv"…[0;36;40m
\@float@every@algorithm=\toks39
\c@algorithm=\count311
  GEN     networking/Kbuild
  return 0;
06A	ALABAMA	TUSKEGEE MOTON FLD MUNI	afd	se_43_25OCT2007.png
07A	ALABAMA	UNION SPRINGS FRANKLIN FLD	afd	se_43_25OCT2007.png
M55	ALABAMA	VERNON LAMAR CO	afd	se_43_25OCT2007.png
25A	ALABAMA	WEAVER MCMINN	afd	se_44_25OCT2007.png
08A	ALABAMA	WETUMPKA MUNI	afd	se_44_25OCT2007.png
CYXX	ALASKA	ABBOTSFORD	afd	al_1_25OCT2007.png
ADK	ALASKA	ADAK 	afd	al_2_25OCT2007.png
AKK	ALASKA	AKHIOK	afd	al_3_25OCT2007.png
Z13	ALASKA	AKIACHAK	afd	al_3_25OCT2007.png
KKI	ALASKA	AKIACHAK SEAPLANE	afd	al_3_25OCT2007.png
AKI	ALASKA	AKIAK	afd	al_4_25OCT2007.png
AUK	ALASKA	ALAKANUK	afd	al_4_25OCT2007.png
4AK7	ALASKA	ALEKNAGIK MISSION SCHOOL	afd	al_4_25OCT2007.png
5A8	ALASKA	ALEKNAGIK-NEW	afd	al_5_25OCT2007.png
Z33	ALASKA	ALEKNAGIK SEAPLANE	afd	al_5_25OCT2007.png
6A8	ALASKA	ALLAKAKET	afd	al_5_25OCT2007.png
Fort Greely	ALASKA	ALLEN AAF	afd	al_6_25OCT2007.png
AFM	ALASKA	AMBLER	afd	al_7_25OCT2007.png
WA 74S	ALASKA	ANACORTES	afd	al_7_25OCT2007.png
CAJ4	ALASKA	ANAHIM LAKE	afd	al_7_25OCT2007.png
37AK	ALASKA	BIG MOUNTAIN	afd	al_32_25OCT2007.png
Z91	ALASKA	BIRCH CREEK	afd	al_33_25OCT2007.png
BCV	ALASKA	BIRCHWOOD	afd	al_33_25OCT2007.png
5BK	ALASKA	BLACK RAPIDS	afd	al_33_25OCT2007.png
M50	ALASKA	BOARDMAN	afd	al_34_25OCT2007.png
AK97	ALASKA	BOSWELL BAY	afd	al_34_25OCT2007.png
BYA	ALASKA	BOUNDARY	afd	al_34_25OCT2007.png
CZBB	ALASKA	BOUNDARY BAY 	afd	al_35_25OCT2007.png
PWT	ALASKA	BREMERTON NATIONAL	afd	al_35_25OCT2007.png
KTS	ALASKA	BREVIG MISSION	afd	al_36_25OCT2007.png
[22:42:45] Web Design: [-] 0794/7978 download failed (Return: -) - http://hetman-hotel.com.ua
	at info.magnolia.cms.filters.MgnlFilterChain.doFilter(MgnlFilterChain.java:81) [magnolia-core-6.2.3.jar:?]
 PROC_COUNT Li8 : Transportation = 138
 PROC_COUNT Li8 : ALL = 138
<10:35AM KD4CQY> great footage
<10:35AM KD4CQY> live tremor during interview
(Tua/#earthquake) not feeling the aftershock here in claremont
<10:36AM Wolferl> I need an update of the 1200 block of North Corsant, hollywood.
--> "-b *!*@192*" mode change by cavalier on #earthquake
[    570578] EndpointMapper::HandleRequest: POST /gta5/11/gameservices/Telemetry.asmx/SubmitCompressed
[    596593] EndpointMapper::HandleRequest: POST /gta5/11/gameservices/presence.asmx/GetPresenceServers
[    621031] EndpointMapper::HandleRequest: POST /gta5/11/gameservices/socialclub.asmx/GetPasswordRequirements
[    630547] EndpointMapper::HandleRequest: POST /gta5/11/gameservices/ProfileStats.asmx/ReadStatsByGamer2
[    700359] EndpointMapper::HandleRequest: POST /gta5/11/gameservices/GeoLocation.asmx/GetLocationInfoFromIP
  of                   ==&gt; _
  the                  ==&gt; the
-- [download 2% complete]
Version 1.55.1 (21 JUNE 2022)
	Bug fixed
		- Fixed update floor error
Version 1.56.0 (22 SEPTEMBER 2022)
	New feature
		- Add install date and grout date filter for BOM Report, BOM Detail Report
Version 1.57.0 (5 OCTOBER 2022)
	New feature
		- Add #3 for BarChair upload file
		- Add Transportation Date for PG deliver PDF file export	
Version 1.57.1 (23 NOVEMBER 2022)
	Bug fixed
		- update google authentication account to be app password	
Version 1.58.0 (27 DECEMBER 2022)
	New feature
		- Add export hand over form for PT, PS pdf document			
Version 1.59.0 (4 MAY 2023)
	New feature
		- Add report header in every page for Pull and Grouting PDF
Version 1.59.1 (16 MAY 2023)
*** Netsplit at 08:53:45 (irc.ethz.ch *.ic.ac.uk)
*** tasm has changed the topic on channel #earthquake to Earthquake:LA:4:31amPST:5 confirmed dead
*** On MSG from "* *" do ^comment [SILENT] <0>
*** The PUBLIC list is empty
*** The MSG list is empty
<tasm> (KCBS)
*** The NOTICE list is empty
<NeilM> BBC put deaths at 25 unconfiremed
<cavalier> 16 cars of sulfuric acid? jesus H.
<NeilM> how do they know?
2016-02-23 15:45:25,573  INFO Injector:69    -> org.matsim.core.router.Teleportation@161479c6
sayville+summerfest	01.08.2009 22:38:16	http://www.google.com/search?q=sayvillefest+NY+aug+1&rls=com.microsoft:en-us:IE-SearchBox&ie=UTF-8&oe=UTF-8&sourceid=ie7&rlz=1I7DKUS_en-US	Mozilla/4.0 (compatible; MSIE 7.0; Windows NT 6.0; Trident/4.0; SLCC1; .NET CLR 2.0.50727; .NET CLR 3.5.30729; .NET CLR 3.0.30618)	72.89.188.115
shun+ken+onion+11+piece+knife+block+set	01.08.2009 22:38:17	http://www.google.com/search?q=shun+ken+onion+11+piece+set+sale&ie=utf-8&oe=utf-8&aq=t&rls=org.mozilla:en-US:official&client=firefox-a	Mozilla/5.0 (Windows; U; Windows NT 6.0; en-US; rv:1.9.0.12) Gecko/2009070611 Firefox/3.0.12	68.13.91.191
west+virginia+derby	01.08.2009 22:38:20	http://www.google.com/m/search?ct=fsh&q=west+virginia+derby+results+aug+1+2009	BlackBerry8330/4.3.0 Profile/MIDP-2.0 Configuration/CLDC-1.1 VendorID/105	151.138.254.21
cancun+beach+closed	01.08.2009 23:03:45	http://www.google.com/m/search?ct=fsh&q=cancun+closed	BlackBerry8703e/4.1.0 Profile/MIDP-2.0 Configuration/CLDC-1.1 VendorID/105	206.53.157.19
shun+ken+onion+11+piece+knife+block+set	01.08.2009 23:03:49	http://www.google.com/search?q=shun+7+piece+classic&hl=en&rlz=1T4ADBF_enUS284US286&start=10&sa=N	Mozilla/4.0 (compatible; MSIE 7.0; Windows NT 6.0; GTB6; SLCC1; .NET CLR 2.0.50727; .NET CLR 3.0.04506)	69.182.153.137
LogPackageName: Display: FPackageName: Mount point added: '../../Plugins/Enterprise/DatasmithContent/Content/' mounted to '/DatasmithContent/'
1993-066     1993 Oct 22 0646:00  1993-066A      Intelsat 701                   Intelsat 701              S22871  Ariane 44LP            V60              CSG ELA2                 0.0
ofz#4422 integer-overflow [Caolán McNamara]
ofz#4424 black list the div by zero calc cases [Caolán McNamara]
ofz#4441 divide-by-zero [Caolán McNamara]
ofz#4461 integer-overflow [Caolán McNamara]
ofz#4476 integer-overflow [Caolán McNamara]
        Model:              hElasticLHEP: 0 eV  ---> 1.0001 GeV
        Model:            Binary Cascade: 199 MeV ---> 9.9 GeV
        Model:       ParticleHPInelastic: 0 eV  ---> 200 MeV
     Cr_sctns:       ProtonHPInelasticXS: 0 eV  ---> 200 MeV
     Cr_sctns:       Barashenkov-Glauber: 0 eV  ---> 100 TeV
	at info.magnolia.cms.filters.MgnlFilterChain.doFilter(MgnlFilterChain.java:79) [magnolia-core-6.2.3.jar:?]
	at info.magnolia.module.cache.executor.Bypass.processCacheRequest(Bypass.java:58) [magnolia-cache-core-5.9.1.jar:?]
PROC_CREATOR_COUNT N14 : dInelastic = 39
PROC_CREATOR_COUNT N14 : hadElastic = 66
PROC_CREATOR_COUNT N14 : ionInelastic = 28
	at info.magnolia.cms.filters.MgnlFilterChain.doFilter(MgnlFilterChain.java:79) [magnolia-core-6.2.3.jar:?]
	at info.magnolia.cms.filters.MgnlFilterChain.doFilter(MgnlFilterChain.java:81) [magnolia-core-6.2.3.jar:?]
	at info.magnolia.enterprise.registration.RegistrationFilter.doFilter(RegistrationFilter.java:79) [magnolia-module-enterprise-6.2.3.jar:?]
US Core Comparison: compare StructureDefinition[http://hl7.org/fhir/us/ph-library/StructureDefinition/us-ph-exposure-contact-information|1.0.0] to StructureDefinition[http://hl7.org/fhir/us/core/StructureDefinition/us-core-body-height|6.1.0]
US Core Comparison: compare StructureDefinition[http://hl7.org/fhir/us/ph-library/StructureDefinition/us-ph-exposure-contact-information|1.0.0] to StructureDefinition[http://hl7.org/fhir/us/core/StructureDefinition/us-core-body-temperature|6.1.0]
US Core Comparison: compare StructureDefinition[http://hl7.org/fhir/us/ph-library/StructureDefinition/us-ph-exposure-contact-information|1.0.0] to StructureDefinition[http://hl7.org/fhir/us/core/StructureDefinition/us-core-body-weight|6.1.0]
US Core Comparison: compare StructureDefinition[http://hl7.org/fhir/us/ph-library/StructureDefinition/us-ph-exposure-contact-information|1.0.0] to StructureDefinition[http://hl7.org/fhir/us/core/StructureDefinition/us-core-head-circumference|6.1.0]
US Core Comparison: compare StructureDefinition[http://hl7.org/fhir/us/ph-library/StructureDefinition/us-ph-exposure-contact-information|1.0.0] to StructureDefinition[http://hl7.org/fhir/us/core/StructureDefinition/us-core-heart-rate|6.1.0]
     80     0.008326
     81     0.007488
petty+officer+jonathan+campos	01.08.2009 18:00:04	http://www.google.com/search?sourceid=navclient&ie=UTF-8&rlz=1T4HPIA_enUS309US309&q=Petty+Officer+Jonathan+Campos+	Mozilla/4.0 (compatible; MSIE 7.0; Windows NT 5.1; GTB6; .NET CLR 1.0.3705; .NET CLR 1.1.4322; Media Center PC 4.0; .NET CLR 2.0.50727; .NET CLR 3.0.4506.2152; .NET CLR 3.5.30729)	24.21.173.227
tim+hack+and+kelly+drew	01.08.2009 18:00:05	http://www.google.com/search?client=safari&rls=en-us&q=kelly+drew+photos&ie=UTF-8&oe=UTF-8	Mozilla/5.0 (Macintosh; U; Intel Mac OS X 10_5_7; en-us) AppleWebKit/525.28.3 (KHTML, like Gecko) Version/3.2.3 Safari/525.28.3	206.123.244.209
jonathan+campos	01.08.2009 18:00:07	http://www.google.com/search?sourceid=navclient&ie=UTF-8&rlz=1T4HPIA_enUS309US309&q=Petty+Officer+Jonathan+Campos+	Mozilla/4.0 (compatible; MSIE 7.0; Windows NT 5.1; GTB6; .NET CLR 1.0.3705; .NET CLR 1.1.4322; Media Center PC 4.0; .NET CLR 2.0.50727; .NET CLR 3.0.4506.2152; .NET CLR 3.5.30729)	24.21.173.227
sayville+summerfest	01.08.2009 18:00:09	http://www.google.com/search?hl=en&q=sayville+new+york+clam+festival&aq=f&oq=&aqi=	Mozilla/4.0 (compatible; MSIE 8.0; Windows NT 5.1; Trident/4.0; .NET CLR 1.1.4322; InfoPath.1; .NET CLR 2.0.50727; .NET CLR 3.0.4506.2152; .NET CLR 3.5.30729)	69.117.229.28
mcmackin+slur	01.08.2009 18:00:13	http://www.google.com/url?sa=t&source=web&ct=res&cd=2&url=http%3A%2F%2Fcomicsunlimited.com%2Fcomics%2Findex.php%3Fmcmackin%2Bslur&ei=pIJ0SrmuKJL8sQOms7j0CA&rct=j&q=what+word+did+mcmackin+say+that+was+derogatory&usg=AFQjCNENWKwwF9W4_bdosNa0pja25yLzBQ	Mozilla/5.0 (Macintosh; U; Intel Mac OS X 10.4; en-US; rv:1.9.1.1) Gecko/20090715 Firefox/3.5.1	24.7.165.189
invicta+9212+men%E2%80%99s+gold+plated+stainless+steel+speedway+watch	01.08.2009 18:00:41	http://www.google.com/url?sa=t&source=web&ct=res&cd=3&url=http%3A%2F%2Fcomicsunlimited.com%2Fcomics%2Findex.php%3Finvicta%2B9212%2Bmen%25E2%2580%2599s%2Bgold%2Bplated%2Bstainless%2Bsteel%2Bspeedway%2Bwatch&ei=H4J0Sre7B5GMtgekwtGWCQ&rct=j&q=Invicta+9212+watch&usg=AFQjCNHVHhg9g3_QCeShED4dzi5sUc7CTg	Mozilla/5.0 (Windows; U; Windows NT 5.1; en-US; rv:1.9.0.12) Gecko/2009070611 Firefox/3.0.12	66.32.78.47
what+did+greg+mcmackin+say	01.08.2009 18:00:42	http://www.google.com/search?q=what+did+greg+mcmackin+say&ie=utf-8&oe=utf-8&aq=t&rls=org.mozilla:en-US:official&client=firefox-a	Mozilla/5.0 (Windows; U; Windows NT 5.1; en-US; rv:1.9.0.12) Gecko/2009070611 Firefox/3.0.12 (.NET CLR 3.5.30729)	70.124.60.199
gold+coast+art+fair+2009	01.08.2009 18:00:51	http://www.google.com/search?q=gold+coast+art+fair+chicago+2009&rls=com.microsoft:en-us:IE-SearchBox&ie=UTF-8&oe=UTF-8&sourceid=ie7&rlz=1I7GWYA_en	Mozilla/4.0 (compatible; MSIE 8.0; Windows NT 5.1; Trident/4.0; GTB6; .NET CLR 1.0.3705; .NET CLR 1.1.4322; Media Center PC 4.0)	67.173.52.155
sayville+summerfest	01.08.2009 18:00:58	http://www.google.com/search?hl=en&q=sayville+new+york+clam+fest&aq=f&oq=&aqi=	Mozilla/4.0 (compatible; MSIE 8.0; Windows NT 5.1; Trident/4.0; .NET CLR 1.1.4322; InfoPath.1; .NET CLR 2.0.50727; .NET CLR 3.0.4506.2152; .NET CLR 3.5.30729)	69.117.229.28
dallas+weather+radar	01.08.2009 18:01:09	http://www.google.com/search?client=safari&rls=en&q=doppler+radar+dallas&ie=UTF-8&oe=UTF-8	Mozilla/5.0 (Macintosh; U; Intel Mac OS X 10_4_11; en) AppleWebKit/530.17 (KHTML, like Gecko) Version/4.0 Safari/530.17	72.190.75.109
petty+officer+jonathan+campos	01.08.2009 18:01:25	http://www.google.com/search?hl=en&q=CAMPOS+NAVY+LANCASTER&aq=f&oq=&aqi=	Mozilla/4.0 (compatible; MSIE 6.0; Windows NT 5.1; SV1; .NET CLR 1.1.4322)	64.210.199.231
invicta+9212+men%E2%80%99s+gold+plated+stainless+steel+speedway+watch	01.08.2009 18:01:30	http://www.google.com/search?q=Invicta+9212+Men%E2%80%99s+Gold+Plated+Stainless+Steel+Speedway+Watch+&ie=utf-8&oe=utf-8&aq=t&rls=org.mozilla:en-US:official&client=firefox-a	Mozilla/5.0 (Windows; U; Windows NT 5.1; en-US; rv:1.9.0.12) Gecko/2009070611 Firefox/3.0.12	74.72.217.184
petty+officer+jonathan+campos	01.08.2009 18:01:30	http://www.google.com/search?hl=en&q=CAMPOS+NAVY+LANCASTER&aq=f&oq=&aqi=	Mozilla/4.0 (compatible; MSIE 6.0; Windows NT 5.1; SV1; .NET CLR 1.1.4322)	64.210.199.231
tim+hack+and+kelly+drew	01.08.2009 18:01:35	http://www.google.com/search?hl=en&q=kelly+drew+pics&btnG=Google+Search&aq=f&oq=&aqi=	Mozilla/4.0 (compatible; MSIE 8.0; Windows NT 5.1; Trident/4.0; GTB5; .NET CLR 2.0.50727)	65.0.32.5
x+games+15+moto+x+best+trick	01.08.2009 18:01:56	http://www.google.com/search?q=moto+x+best+trick+winner+at+x+games+15&ie=utf-8&oe=utf-8&aq=t&rls=org.mozilla:en-US:official&client=firefox-a	Mozilla/5.0 (Windows; U; Windows NT 6.0; en-US; rv:1.9.0.12) Gecko/2009070611 Firefox/3.0.12 (.NET CLR 3.5.30729)	76.23.12.36
what+did+greg+mcmackin+say	01.08.2009 18:01:58	http://www.google.com/search?hl=en&q=what+did+greg+mcmackin+say&aq=0z&oq=what+did+&aqi=g-z1g9	Mozilla/4.0 (compatible; MSIE 6.0; Windows NT 5.1; SV1; .NET CLR 1.1.4322; .NET CLR 2.0.50727)	98.244.144.199
socorro+caro	01.08.2009 18:02:00	http://www.google.com/search?sourceid=navclient&aq=0&oq=socorr&ie=UTF-8&rlz=1T4HPND_enUS239US241&q=socorro+caro	Mozilla/4.0 (compatible; MSIE 6.0; Windows NT 5.1; SV1; GTB6; .NET CLR 1.1.4322; .NET CLR 2.0.50727; .NET CLR 3.0.04506.30; InfoPath.1)	74.1.234.74
invicta+9212+men%E2%80%99s+gold+plated+stainless+steel+speedway+watch	01.08.2009 18:02:07	http://www.google.com/search?rlz=1C1GGLS_enUS319US319&sourceid=chrome&ie=UTF-8&q=Invicta+9212+Men%E2%80%99s+Gold+Plated+Stainless+Steel+Speedway+Watch	Mozilla/5.0 (Windows; U; Windows NT 6.0; en-US) AppleWebKit/531.3 (KHTML, like Gecko) Chrome/3.0.193.2 Safari/531.3	72.24.122.210
what+did+greg+mcmackin+say	01.08.2009 18:02:09	http://www.google.com/url?sa=t&source=web&ct=res&cd=8&url=http%3A%2F%2Fcomicsunlimited.com%2Fcomics%2Findex.php%3Fwhat%2Bdid%2Bgreg%2Bmcmackin%2Bsay&ei=2oJ0Sr_wBIi-sgPSgcnjCA&rct=j&q=what+did+greg+mcmackin+say&usg=AFQjCNGV41wKWkTAJJ3qWFfr6ZAacJpquw	Mozilla/5.0 (Windows; U; Windows NT 5.1; en-US; rv:1.9.0.5) Gecko/2008120122 Firefox/3.0.5;MEGAUPLOAD 1.0	76.88.142.83
jonathan+campos	01.08.2009 18:02:14	http://www.google.com/search?hl=en&safe=active&client=firefox-a&rls=org.mozilla%3Aen-US%3Aofficial&hs=iwd&q=petty+officer+jonathan+campos%2Bphoto&aq=f&oq=&aqi=	Mozilla/5.0 (Windows; U; Windows NT 5.1; en-US; rv:1.9.0.12) Gecko/2009070611 Firefox/3.0.12 (.NET CLR 3.5.30729)	69.109.56.128
tim+hack+and+kelly+drew	01.08.2009 18:02:29	http://www.google.com/search?hl=en&q=kelly+drew+pics&btnG=Google+Search&aq=f&oq=&aqi=	Mozilla/4.0 (compatible; MSIE 8.0; Windows NT 5.1; Trident/4.0; GTB5; .NET CLR 2.0.50727)	65.0.32.5
invicta+9212+men%E2%80%99s+gold+plated+stainless+steel+speedway+watch	01.08.2009 18:02:36	http://www.google.com/search?q=invicta+9212+men%E2%80%99s+gold+plated+stainless+steel+speedway+watch&rls=com.microsoft:en-us&ie=UTF-8&oe=UTF-8&startIndex=&startPage=1	Mozilla/4.0 (compatible; MSIE 8.0; Windows NT 5.1; Trident/4.0; .NET CLR 1.1.4322; .NET CLR 2.0.50727; .NET CLR 3.0.4506.2152; .NET CLR 3.5.30729)	68.209.99.188
tim+hack+and+kelly+drew	01.08.2009 18:03:00	http://www.google.com/search?hl=en&q=kelly+drew+pics&btnG=Google+Search&aq=f&oq=&aqi=	Mozilla/4.0 (compatible; MSIE 8.0; Windows NT 5.1; Trident/4.0; GTB5; .NET CLR 2.0.50727)	65.0.32.5
gold+coast+art+fair+2009	01.08.2009 18:03:03	http://www.google.com/m/search?ct=fsh&q=gold+coast+art+show+illinois+2009	BlackBerry8900/4.6.1.114 Profile/MIDP-2.0 Configuration/CLDC-1.1 VendorID/100	206.53.153.36
mcmackin+slur	01.08.2009 18:03:03	http://www.google.com/search?q=what+derogatory+slur+did+coach+mcmackin+use&rls=com.microsoft:*:IE-SearchBox&ie=UTF-8&oe=UTF-8&sourceid=ie7&rlz=1I7GGLL_en	Mozilla/4.0 (compatible; MSIE 7.0; Windows NT 6.0; GTB6; SLCC1; .NET CLR 2.0.50727; Media Center PC 5.0; InfoPath.2; .NET CLR 3.0.04506; AskTB5.3)	71.61.164.100
sayville+summerfest	01.08.2009 18:03:08	http://www.google.com/search?hl=en&q=when+does+summerfest+end+in+sayville&aq=f&oq=&aqi=	Mozilla/4.0 (compatible; MSIE 8.0; Windows NT 5.1; Trident/4.0; .NET CLR 2.0.50727)	68.195.92.11
jonathan+campos	01.08.2009 18:03:36	http://www.google.com/search?q=petty%20officer%20jonathan%20campos&oe=utf-8&rls=org.mozilla:en-US:official&client=firefox-a&um=1&hl=en&ie=UTF-8&sa=N&tab=iw&start=0	Mozilla/5.0 (Windows; U; Windows NT 5.1; en-US; rv:1.9.0.12) Gecko/2009070611 Firefox/3.0.12	96.32.189.35
jonathan+campos	01.08.2009 18:03:36	http://www.google.com/search?q=petty%20officer%20jonathan%20campos&oe=utf-8&rls=org.mozilla:en-US:official&client=firefox-a&um=1&hl=en&ie=UTF-8&sa=N&tab=iw&start=0	Mozilla/5.0 (Windows; U; Windows NT 5.1; en-US; rv:1.9.0.12) Gecko/2009070611 Firefox/3.0.12	96.32.189.35
what+did+greg+mcmackin+say	01.08.2009 18:03:37	http://www.google.com/url?sa=t&source=web&ct=res&cd=1&url=http%3A%2F%2Fcomicsunlimited.com%2Fcomics%2Findex.php%3Fwhat%2Bdid%2Bgreg%2Bmcmackin%2Bsay&ei=dYN0SrOBIoHOsQP-9azHCA&rct=j&q=did+coach+mcmackin+say+faggot&usg=AFQjCNGV41wKWkTAJJ3qWFfr6ZAacJpquw	Mozilla/5.0 (Windows; U; Windows NT 5.1; en-US; rv:1.9.0.5) Gecko/2008120122 Firefox/3.0.5;MEGAUPLOAD 1.0	76.88.142.83
what+did+greg+mcmackin+say	01.08.2009 18:03:39	http://www.google.com/search?q=What+did+Greg+McMackin+say&ie=utf-8&oe=utf-8&aq=t&rls=org.mozilla:en-US:official&client=firefox-a	Mozilla/5.0 (Macintosh; U; Intel Mac OS X 10.5; en-US; rv:1.9.0.6) Gecko/2009011912 Firefox/3.0.6	96.251.137.212
