[   1962437] overriding handle for mp_f_freemode_01/accs_diff_012_e_uni.ytd (was 4cd00f8) -> 203
[   1962453] overriding handle for mp_f_freemode_01/accs_diff_012_f_uni.ytd (was 4cd00f9) -> 204
	at info.magnolia.cms.filters.MultiChannelFilter.doFilter(MultiChannelFilter.java:83) [magnolia-core-6.2.3.jar:?]
	at info.magnolia.cms.filters.AbstractMgnlFilter.doFilter(AbstractMgnlFilter.java:85) [magnolia-core-6.2.3.jar:?]
-- [download 55% complete]
-- [download 56% complete]
-- [download 57% complete]
[22:42:44] Insurance: [+] 8215/8263 matches engine Wordpress Article - http://schumachercreative.com
                        ==  1966/CD-10            INS    $0.377  [I]
          games/NNS-16  ==                        DEL    $0.429  [D]
