
Underfull \vbox (badness 10000) has occurred while \output is active []
U30	ARIZONA	TEMPLE BAR	afd	sw_33_25OCT2007.png
[22:42:32] Health: [+] 8178/8339 new URL - http://www.streetsociety.dk/wp-login.php?registration=disabled
     Cr_sctns:          GheishaInelastic: 0 eV  ---> 100 TeV

---------------------------------------------------
                           Hadronic Processes for anti_proton

 []
2016-02-23 15:45:25,614  INFO Injector:69    -> FactoryProxy{key=Key[type=org.matsim.core.router.util.TravelTime, annotation=@com.google.inject.multibindings.Element(setName=,uniqueId=60, type=MAPBINDER, keyType=java.lang.String)], provider=Key[type=org.matsim.core.trafficmonitoring.TravelTimeCalculatorModule$ObservedLinkTravelTimes, annotation=[none]]}
2016-02-23 15:45:25,615  INFO Injector:68 org.matsim.core.router.costcalculators.TravelDisutilityFactory @com.google.inject.multibindings.Element(setName=,uniqueId=62, type=MAPBINDER, keyType=java.lang.String)
./JeuxVideos/Tales_of_Symphonia
./JeuxVideos/ZREO_-_The_Legend_of_Zelda_-_REOCHESTRATED/Soundscapes
./JeuxVideos/ZREO_-_The_Legend_of_Zelda_-_REOCHESTRATED/Soundscapes/Vol1
./JeuxVideos/ZREO_-_The_Legend_of_Zelda_-_REOCHESTRATED/Soundscapes/Vol2
./JeuxVideos/ZREO_-_The_Legend_of_Zelda_-_REOCHESTRATED/Soundscapes/Vol3
12:32:05 T:7432   DEBUG: ADDON: cpluff: 'Plug-in webinterface.default has been installed.'
12:32:05 T:7432   DEBUG: ADDON: cpluff: 'Plug-in repository.xbmc.org has been installed.'
12:32:05 T:7432   DEBUG: ADDON: cpluff: 'Plug-in kodi.audiodecoder has been installed.'
12:32:05 T:7432   DEBUG: ADDON: cpluff: 'Plug-in visualization.vortex has been installed.'
12:32:05 T:7432   DEBUG: ADDON: cpluff: 'Plug-in screensaver.xbmc.builtin.black has been installed.'
12:32:05 T:7432   DEBUG: ADDON: cpluff: 'Plug-in pvr.vdr.vnsi has been installed.'
12:32:05 T:7432   DEBUG: ADDON: cpluff: 'Plug-in pvr.argustv has been installed.'
12:32:05 T:7432   DEBUG: ADDON: cpluff: 'Plug-in kodi.guilib has been installed.'
12:32:05 T:7432   DEBUG: ADDON: cpluff: 'Plug-in audiodecoder.modplug has been installed.'
12:32:05 T:7432   DEBUG: ADDON: cpluff: 'Plug-in pvr.mediaportal.tvserver has been installed.'
12:32:05 T:7432   DEBUG: ADDON: cpluff: 'Plug-in audioencoder.xbmc.builtin.wma has been installed.'
12:32:05 T:7432   DEBUG: ADDON: cpluff: 'Plug-in audioencoder.vorbis has been installed.'
12:32:05 T:7432   DEBUG: ADDON: cpluff: 'Plug-in audioencoder.wav has been installed.'
12:32:05 T:7432   DEBUG: ADDON: cpluff: 'Plug-in script.module.simplejson has been installed.'
12:32:05 T:7432   DEBUG: ADDON: cpluff: 'Plug-in screensaver.xbmc.builtin.dim has been installed.'
12:32:05 T:7432   DEBUG: ADDON: cpluff: 'Plug-in metadata.themoviedb.org has been installed.'
12:32:05 T:7432   DEBUG: ADDON: cpluff: 'Plug-in xbmc.metadata has been installed.'
12:32:05 T:7432   DEBUG: ADDON: cpluff: 'Plug-in pvr.wmc has been installed.'
12:32:05 T:7432   DEBUG: ADDON: cpluff: 'Plug-in service.xbmc.versioncheck has been installed.'
12:32:05 T:7432   DEBUG: ADDON: cpluff: 'Plug-in pvr.dvblink has been installed.'
12:32:05 T:7432   DEBUG: ADDON: cpluff: 'Plug-in audioencoder.flac has been installed.'
12:32:05 T:7432   DEBUG: ADDON: cpluff: 'Plug-in skin.confluence has been installed.'
12:32:05 T:7432   DEBUG: ADDON: cpluff: 'Plug-in audiodecoder.ym has been installed.'
12:32:05 T:7432   DEBUG: ADDON: cpluff: 'Plug-in kodi.resource has been installed.'
12:32:05 T:7432   DEBUG: ADDON: cpluff: 'Plug-in xbmc.gui has been installed.'
12:32:05 T:7432   DEBUG: ADDON: cpluff: 'Plug-in visualization.milkdrop has been installed.'
12:32:05 T:7432   DEBUG: ADDON: cpluff: 'Plug-in script.module.pil has been installed.'
12:32:05 T:7432   DEBUG: ADDON: cpluff: 'Plug-in visualization.dxspectrum has been installed.'
12:32:05 T:7432   DEBUG: ADDON: cpluff: 'Plug-in pvr.vuplus has been installed.'
12:32:05 T:7432   DEBUG: CKeyboardLayoutManager: keyboard layout "Bulgarian АБВ" successfully loaded
[   1916468] ResourceCache::AddEntry: Saved cache:v1:af0883230292a66415434c5d70e598d21db758c1 to the index cache.
File: color.cfg 2016/01/02 v1.6 sample color configuration
)
12:32:06 T:6224   DEBUG: AddOnLog: Tvheadend HTSP Client: pvr.hts - tag updated id:4, name:UNSER
build	14-Jul-2020 09:21:00	[ERROR] -----------------------------------------------------
staticfield java/security/ProtectionDomain debug Lsun/security/util/Debug; null
ciInstanceKlass java/security/AccessControlContext 1 1 313 9 9 10 8 10 10 9 9 9 10 100 100 10 11 11 11 11 100 11 10 10 9 10 11 10 100 100 8 10 10 100 9 9 9 9 9 9 9 10 9 10 10 8 10 10 10 100 10 10 10 10 8 10 8 10 8 8 10 8 10 8 10 10 10 8 8 100 10 10 100 10 8 10 10 10 8 10 10 10 7 10 10 10 10 10 10 10 10 7 1 1 1 1 1 1 1 1 1 1 1 1 1 1 1 1 1 1 1 1 1 1 1 1 1 1 100 100 1 1 100 1 100 100 1 1 1 1 1 1 1 1 100 1 1 1 100 1 1 100 1 1 1 1 1 1 1 1 1 1 1 1 1 1 1 1 1 1 1 1 1 1 1 12 12 100 12 1 100 12 12 12 12 12 100 12 1 12 100 12 12 12 12 1 12 12 100 12 100 12 100 12 100 12 1 1 1 12 12 1 12 12 12 12 12 12 12 7 12 12 12 12 1 12 12 100 12 1 12 100 12 1 100 12 1 100 12 1 1 12 1 12 1 12 12 12 1 1 1 12 12 1 12 1 12 1 12 12 12 1 12 12 12 12 12 12 1 1 1 1 1 1 1 1 1 1 1 1 1 1 1 1 1 1 1 1 1 1 1 1 1 1 1 1 1 1 1 1 1 1 1 1 1 1 1 1 1 1 1 1 1 1 1 1 1 1 1 1 1 1 1 1 1
/control/execute exercise3e.in
     Firmware Version         : 4.03
  1850K .......... .......... .......... .......... .......... 91% 75.2M 0s
                ,/,-11  ==                        DEL    $0.429  [D]
 (/usr/local/texlive/2021/texmf-dist/tex/latex/psnfss/ot1ppl.fd
[   1966609] overriding handle for mp_f_freemode_01_mp_f_importexport_01/jbib_diff_007_o_uni.ytd (was 51d0015) -> 58e
[   1966625] overriding handle for mp_f_freemode_01_mp_f_importexport_01/jbib_diff_007_p_uni.ytd (was 51d0016) -> 58f
<09:44AM DrStupid> KNBC - Grenada Hills is under a water leak
* tasm just turned on RUSH.. crap.. 40 minutes late1!!!!!
<09:44AM KFWB> Most areas of the valley are blacked-out.  DWP expects power back by mid-day
<09:44AM DrStupid> KNBC - Holy Cross hospital was under evacuation of its patients
<09:44AM KNBC> Gr hills is hurting
<09:44AM KNBC> This is f***ing insane
<09:44AM DrStupid> KNBC - Northridge Hostpital status unknown
<09:45AM NPR_News> tasm:  Rush criticized joint NYC-LA radio coverage for having an earthquake psychologist on the air
<09:45AM DrStupid> KNBC - Grenada Hills is asking for anyone with professional surgical experience to volunteer
<09:45AM KFWB> Willy Brown wants to tax tax tax to pay for Earthquake
<09:45AM KNBC> A call for help for Grenada Hills is going out on Ham radio NOW
<09:45AM DrStupid> of course he does.
(KD4CQY/#earthquake) Yup
<09:46AM DrStupid> Wilson expected in LA around Noon for press conf.
<09:46AM KFWB> Fires raging out of control on both sides of the 5
<09:46AM KNBC> If anyone here is with a media source (radio, newspaper, tv) tell me and I will voice you
<09:46AM KFWB> 5 CONFIRMED dead in Northridge aparment housing mostly CSUN students
--> "+oo CNN_Live NeilM" mode change by polaris.ctr.columbia.edu on #earthquake
--> "+vvv Metallica CNN_Live NeilM" mode change by polaris.ctr.columbia.edu on #earthquake
--> "+v CNN_news" mode change by KNBC on #earthquake
<09:47AM KNBC> CNN_news can talk
--> "+v NPR_News" mode change by KNBC on #earthquake
<09:47AM KNBC> NPR_News can talk
<09:48AM NPR_News> KNBC: Test Message.
<09:48AM DrStupid> KNBC - rescued dude from smashed apartments
<09:48AM KNBC> NPR_news works
<09:48AM KFWB> [Q]  How can I ignore the cannot send messages?  /on SERVER_NOTICE doesn't work
<09:48AM DrStupid> KNBC - "oh that sky looks beautiful"
<09:48AM CNN_news> CNN lost KTLA live coverage
<09:49AM tasm> barbara bocer: really nice to have a FEMA director who is a real human being... on TODAY SHOW
12:32:05 T:7432   DEBUG: CKeyboardLayoutManager: keyboard layout "Ukrainian ЙЦУКЕН" successfully loaded
	at sun.reflect.DelegatingMethodAccessorImpl.invoke(DelegatingMethodAccessorImpl.java:43) ~[?:1.8.0_252]
	at java.lang.reflect.Method.invoke(Method.java:498) ~[?:1.8.0_252]
	at com.vaadin.server.ServerRpcManager.applyInvocation(ServerRpcManager.java:155) ~[vaadin-server-8.9.4.jar:8.9.4]
	... 111 more
Caused by: java.lang.IllegalArgumentException: Could not parse ''
	at com.google.common.net.MediaType.parse(MediaType.java:1013) ~[guava-28.2-jre.jar:?]
	at info.magnolia.dam.app.imageprovider.AssetPreviewProvider.lambda$getResource$0(AssetPreviewProvider.java:73) ~[magnolia-dam-app-3.0.3.jar:?]
	at java.util.Optional.map(Optional.java:215) ~[?:1.8.0_252]
	at info.magnolia.dam.app.imageprovider.AssetPreviewProvider.getResource(AssetPreviewProvider.java:72) ~[magnolia-dam-app-3.0.3.jar:?]
	at info.magnolia.dam.app.contentview.column.AssetNameColumnDefinition$ValueProvider.apply(AssetNameColumnDefinition.java:81) ~[magnolia-dam-app-3.0.3.jar:?]
	at info.magnolia.dam.app.contentview.column.AssetNameColumnDefinition$ValueProvider.apply(AssetNameColumnDefinition.java:64) ~[magnolia-dam-app-3.0.3.jar:?]
	at com.vaadin.ui.Grid$Column.generateRendererValue(Grid.java:1111) ~[vaadin-server-8.9.4.jar:8.9.4]
	at com.vaadin.ui.Grid$Column.access$1100(Grid.java:849) ~[vaadin-server-8.9.4.jar:8.9.4]
	at com.vaadin.ui.Grid$Column$1.generateData(Grid.java:898) ~[vaadin-server-8.9.4.jar:8.9.4]
	at com.vaadin.data.provider.DataCommunicator.getDataObject(DataCommunicator.java:481) ~[vaadin-server-8.9.4.jar:8.9.4]
	at com.vaadin.data.provider.DataCommunicator.pushData(DataCommunicator.java:461) ~[vaadin-server-8.9.4.jar:8.9.4]
	at com.vaadin.data.provider.HierarchicalDataCommunicator.doExpand(HierarchicalDataCommunicator.java:316) ~[vaadin-server-8.9.4.jar:8.9.4]
	at com.vaadin.data.provider.HierarchicalDataCommunicator.expand(HierarchicalDataCommunicator.java:289) ~[vaadin-server-8.9.4.jar:8.9.4]
	at com.vaadin.ui.TreeGrid.lambda$registerTreeGridRpc$275f28ba$1(TreeGrid.java:187) ~[vaadin-server-8.9.4.jar:8.9.4]
	at com.vaadin.server.VaadinServlet.service(VaadinServlet.java:448) [vaadin-server-8.9.4.jar:8.9.4]
	at info.magnolia.admincentral.AdmincentralServlet.service(AdmincentralServlet.java:119) [magnolia-admincentral-6.2.3.jar:?]
	at javax.servlet.http.HttpServlet.service(HttpServlet.java:741) [servlet-api.jar:?]
	at info.magnolia.cms.filters.ServletDispatchingFilter.doFilter(ServletDispatchingFilter.java:148) [magnolia-core-6.2.3.jar:?]
	at info.magnolia.cms.filters.AbstractMgnlFilter.doFilter(AbstractMgnlFilter.java:85) [magnolia-core-6.2.3.jar:?]
	at info.magnolia.cms.filters.MgnlFilterChain.doFilter(MgnlFilterChain.java:79) [magnolia-core-6.2.3.jar:?]
	at info.magnolia.cms.filters.MgnlFilterChain.doFilter(MgnlFilterChain.java:81) [magnolia-core-6.2.3.jar:?]
	at info.magnolia.cms.filters.MgnlFilterChain.doFilter(MgnlFilterChain.java:81) [magnolia-core-6.2.3.jar:?]
	at info.magnolia.cms.filters.MgnlFilterChain.doFilter(MgnlFilterChain.java:81) [magnolia-core-6.2.3.jar:?]
	at info.magnolia.cms.filters.MgnlFilterChain.doFilter(MgnlFilterChain.java:81) [magnolia-core-6.2.3.jar:?]
	at info.magnolia.cms.filters.MgnlFilterChain.doFilter(MgnlFilterChain.java:81) [magnolia-core-6.2.3.jar:?]
